^C:\USERS\PARTHASARTHI.BK\DESKTOP\SOURCES\BUILD\FDI EDD ENGINE\CODE\SRC\FDI\FDI_DDS_LIB\DEBUG\WIN32\CONVERSIONS.OBJ|C:\USERS\PARTHASARTHI.BK\DESKTOP\SOURCES\BUILD\FDI EDD ENGINE\CODE\SRC\FDI\FDI_DDS_LIB\DEBUG\WIN32\DDI_CMI.OBJ|C:\USERS\PARTHASARTHI.BK\DESKTOP\SOURCES\BUILD\FDI EDD ENGINE\CODE\SRC\FDI\FDI_DDS_LIB\DEBUG\WIN32\DDI_CONV.OBJ|C:\USERS\PARTHASARTHI.BK\DESKTOP\SOURCES\BUILD\FDI EDD ENGINE\CODE\SRC\FDI\FDI_DDS_LIB\DEBUG\WIN32\DDI_DIR.OBJ|C:\USERS\PARTHASARTHI.BK\DESKTOP\SOURCES\BUILD\FDI EDD ENGINE\CODE\SRC\FDI\FDI_DDS_LIB\DEBUG\WIN32\DDI_ITEM.OBJ|C:\USERS\PARTHASARTHI.BK\DESKTOP\SOURCES\BUILD\FDI EDD ENGINE\CODE\SRC\FDI\FDI_DDS_LIB\DEBUG\WIN32\DDI_LANG.OBJ|C:\USERS\PARTHASARTHI.BK\DESKTOP\SOURCES\BUILD\FDI EDD ENGINE\CODE\SRC\FDI\FDI_DDS_LIB\DEBUG\WIN32\DDI_TAB.OBJ|C:\USERS\PARTHASARTHI.BK\DESKTOP\SOURCES\BUILD\FDI EDD ENGINE\CODE\SRC\FDI\FDI_DDS_LIB\DEBUG\WIN32\DDS_CHK.OBJ|C:\USERS\PARTHASARTHI.BK\DESKTOP\SOURCES\BUILD\FDI EDD ENGINE\CODE\SRC\FDI\FDI_DDS_LIB\DEBUG\WIN32\DDS_ERR.OBJ|C:\USERS\PARTHASARTHI.BK\DESKTOP\SOURCES\BUILD\FDI EDD ENGINE\CODE\SRC\FDI\FDI_DDS_LIB\DEBUG\WIN32\DDS_TAB.OBJ|C:\USERS\PARTHASARTHI.BK\DESKTOP\SOURCES\BUILD\FDI EDD ENGINE\CODE\SRC\FDI\FDI_DDS_LIB\DEBUG\WIN32\EVL_BASE.OBJ|C:\USERS\PARTHASARTHI.BK\DESKTOP\SOURCES\BUILD\FDI EDD ENGINE\CODE\SRC\FDI\FDI_DDS_LIB\DEBUG\WIN32\EVL_CLN.OBJ|C:\USERS\PARTHASARTHI.BK\DESKTOP\SOURCES\BUILD\FDI EDD ENGINE\CODE\SRC\FDI\FDI_DDS_LIB\DEBUG\WIN32\EVL_COMPONENT.OBJ|C:\USERS\PARTHASARTHI.BK\DESKTOP\SOURCES\BUILD\FDI EDD ENGINE\CODE\SRC\FDI\FDI_DDS_LIB\DEBUG\WIN32\EVL_COND.OBJ|C:\USERS\PARTHASARTHI.BK\DESKTOP\SOURCES\BUILD\FDI EDD ENGINE\CODE\SRC\FDI\FDI_DDS_LIB\DEBUG\WIN32\EVL_DIR.OBJ|C:\USERS\PARTHASARTHI.BK\DESKTOP\SOURCES\BUILD\FDI EDD ENGINE\CODE\SRC\FDI\FDI_DDS_LIB\DEBUG\WIN32\EVL_ENUM.OBJ|C:\USERS\PARTHASARTHI.BK\DESKTOP\SOURCES\BUILD\FDI EDD ENGINE\CODE\SRC\FDI\FDI_DDS_LIB\DEBUG\WIN32\EVL_EXPR.OBJ|C:\USERS\PARTHASARTHI.BK\DESKTOP\SOURCES\BUILD\FDI EDD ENGINE\CODE\SRC\FDI\FDI_DDS_LIB\DEBUG\WIN32\EVL_IARY.OBJ|C:\USERS\PARTHASARTHI.BK\DESKTOP\SOURCES\BUILD\FDI EDD ENGINE\CODE\SRC\FDI\FDI_DDS_LIB\DEBUG\WIN32\EVL_ITEM.OBJ|C:\USERS\PARTHASARTHI.BK\DESKTOP\SOURCES\BUILD\FDI EDD ENGINE\CODE\SRC\FDI\FDI_DDS_LIB\DEBUG\WIN32\EVL_MEM.OBJ|C:\USERS\PARTHASARTHI.BK\DESKTOP\SOURCES\BUILD\FDI EDD ENGINE\CODE\SRC\FDI\FDI_DDS_LIB\DEBUG\WIN32\EVL_MENU.OBJ|C:\USERS\PARTHASARTHI.BK\DESKTOP\SOURCES\BUILD\FDI EDD ENGINE\CODE\SRC\FDI\FDI_DDS_LIB\DEBUG\WIN32\EVL_REF.OBJ|C:\USERS\PARTHASARTHI.BK\DESKTOP\SOURCES\BUILD\FDI EDD ENGINE\CODE\SRC\FDI\FDI_DDS_LIB\DEBUG\WIN32\EVL_REL.OBJ|C:\USERS\PARTHASARTHI.BK\DESKTOP\SOURCES\BUILD\FDI EDD ENGINE\CODE\SRC\FDI\FDI_DDS_LIB\DEBUG\WIN32\EVL_RESP.OBJ|C:\USERS\PARTHASARTHI.BK\DESKTOP\SOURCES\BUILD\FDI EDD ENGINE\CODE\SRC\FDI\FDI_DDS_LIB\DEBUG\WIN32\EVL_RSLV.OBJ|C:\USERS\PARTHASARTHI.BK\DESKTOP\SOURCES\BUILD\FDI EDD ENGINE\CODE\SRC\FDI\FDI_DDS_LIB\DEBUG\WIN32\EVL_STR.OBJ|C:\USERS\PARTHASARTHI.BK\DESKTOP\SOURCES\BUILD\FDI EDD ENGINE\CODE\SRC\FDI\FDI_DDS_LIB\DEBUG\WIN32\EVL_TRAN.OBJ|C:\USERS\PARTHASARTHI.BK\DESKTOP\SOURCES\BUILD\FDI EDD ENGINE\CODE\SRC\FDI\FDI_DDS_LIB\DEBUG\WIN32\EVL_TYPE.OBJ|C:\USERS\PARTHASARTHI.BK\DESKTOP\SOURCES\BUILD\FDI EDD ENGINE\CODE\SRC\FDI\FDI_DDS_LIB\DEBUG\WIN32\FCH_RDIR.OBJ|C:\USERS\PARTHASARTHI.BK\DESKTOP\SOURCES\BUILD\FDI EDD ENGINE\CODE\SRC\FDI\FDI_DDS_LIB\DEBUG\WIN32\FCH_RITM.OBJ|C:\USERS\PARTHASARTHI.BK\DESKTOP\SOURCES\BUILD\FDI EDD ENGINE\CODE\SRC\FDI\FDI_DDS_LIB\DEBUG\WIN32\FCH_RODF.OBJ|C:\USERS\PARTHASARTHI.BK\DESKTOP\SOURCES\BUILD\FDI EDD ENGINE\CODE\SRC\FDI\FDI_DDS_LIB\DEBUG\WIN32\FCH_SLCT.OBJ|C:\USERS\PARTHASARTHI.BK\DESKTOP\SOURCES\BUILD\FDI EDD ENGINE\CODE\SRC\FDI\FDI_DDS_LIB\DEBUG\WIN32\MANUALUNITLOOKUP.OBJ|C:\USERS\PARTHASARTHI.BK\DESKTOP\SOURCES\BUILD\FDI EDD ENGINE\CODE\SRC\FDI\FDI_DDS_LIB\DEBUG\WIN32\STDAFX.OBJ
C:\WINDOWS\GLOBALIZATION\SORTING\SORTDEFAULT.NLS
C:\USERS\PARTHASARTHI.BK\DESKTOP\SOURCES\BUILD\FDI EDD ENGINE\CODE\SRC\FDI\FDI_DDS_LIB\DEBUG\WIN32\CONVERSIONS.OBJ
C:\WINDOWS\SYSTEM32\TZRES.DLL
C:\USERS\PARTHASARTHI.BK\DESKTOP\SOURCES\BUILD\FDI EDD ENGINE\CODE\SRC\FDI\FDI_DDS_LIB\DEBUG\WIN32\DDI_CMI.OBJ
C:\USERS\PARTHASARTHI.BK\DESKTOP\SOURCES\BUILD\FDI EDD ENGINE\CODE\SRC\FDI\FDI_DDS_LIB\DEBUG\WIN32\DDI_CONV.OBJ
C:\USERS\PARTHASARTHI.BK\DESKTOP\SOURCES\BUILD\FDI EDD ENGINE\CODE\SRC\FDI\FDI_DDS_LIB\DEBUG\WIN32\DDI_DIR.OBJ
C:\USERS\PARTHASARTHI.BK\DESKTOP\SOURCES\BUILD\FDI EDD ENGINE\CODE\SRC\FDI\FDI_DDS_LIB\DEBUG\WIN32\DDI_ITEM.OBJ
C:\USERS\PARTHASARTHI.BK\DESKTOP\SOURCES\BUILD\FDI EDD ENGINE\CODE\SRC\FDI\FDI_DDS_LIB\DEBUG\WIN32\DDI_LANG.OBJ
C:\USERS\PARTHASARTHI.BK\DESKTOP\SOURCES\BUILD\FDI EDD ENGINE\CODE\SRC\FDI\FDI_DDS_LIB\DEBUG\WIN32\DDI_TAB.OBJ
C:\USERS\PARTHASARTHI.BK\DESKTOP\SOURCES\BUILD\FDI EDD ENGINE\CODE\SRC\FDI\FDI_DDS_LIB\DEBUG\WIN32\DDS_CHK.OBJ
C:\USERS\PARTHASARTHI.BK\DESKTOP\SOURCES\BUILD\FDI EDD ENGINE\CODE\SRC\FDI\FDI_DDS_LIB\DEBUG\WIN32\DDS_ERR.OBJ
C:\USERS\PARTHASARTHI.BK\DESKTOP\SOURCES\BUILD\FDI EDD ENGINE\CODE\SRC\FDI\FDI_DDS_LIB\DEBUG\WIN32\DDS_TAB.OBJ
C:\USERS\PARTHASARTHI.BK\DESKTOP\SOURCES\BUILD\FDI EDD ENGINE\CODE\SRC\FDI\FDI_DDS_LIB\DEBUG\WIN32\EVL_BASE.OBJ
C:\USERS\PARTHASARTHI.BK\DESKTOP\SOURCES\BUILD\FDI EDD ENGINE\CODE\SRC\FDI\FDI_DDS_LIB\DEBUG\WIN32\EVL_CLN.OBJ
C:\USERS\PARTHASARTHI.BK\DESKTOP\SOURCES\BUILD\FDI EDD ENGINE\CODE\SRC\FDI\FDI_DDS_LIB\DEBUG\WIN32\EVL_COMPONENT.OBJ
C:\USERS\PARTHASARTHI.BK\DESKTOP\SOURCES\BUILD\FDI EDD ENGINE\CODE\SRC\FDI\FDI_DDS_LIB\DEBUG\WIN32\EVL_COND.OBJ
C:\USERS\PARTHASARTHI.BK\DESKTOP\SOURCES\BUILD\FDI EDD ENGINE\CODE\SRC\FDI\FDI_DDS_LIB\DEBUG\WIN32\EVL_DIR.OBJ
C:\USERS\PARTHASARTHI.BK\DESKTOP\SOURCES\BUILD\FDI EDD ENGINE\CODE\SRC\FDI\FDI_DDS_LIB\DEBUG\WIN32\EVL_ENUM.OBJ
C:\USERS\PARTHASARTHI.BK\DESKTOP\SOURCES\BUILD\FDI EDD ENGINE\CODE\SRC\FDI\FDI_DDS_LIB\DEBUG\WIN32\EVL_EXPR.OBJ
C:\USERS\PARTHASARTHI.BK\DESKTOP\SOURCES\BUILD\FDI EDD ENGINE\CODE\SRC\FDI\FDI_DDS_LIB\DEBUG\WIN32\EVL_IARY.OBJ
C:\USERS\PARTHASARTHI.BK\DESKTOP\SOURCES\BUILD\FDI EDD ENGINE\CODE\SRC\FDI\FDI_DDS_LIB\DEBUG\WIN32\EVL_ITEM.OBJ
C:\USERS\PARTHASARTHI.BK\DESKTOP\SOURCES\BUILD\FDI EDD ENGINE\CODE\SRC\FDI\FDI_DDS_LIB\DEBUG\WIN32\EVL_MEM.OBJ
C:\USERS\PARTHASARTHI.BK\DESKTOP\SOURCES\BUILD\FDI EDD ENGINE\CODE\SRC\FDI\FDI_DDS_LIB\DEBUG\WIN32\EVL_MENU.OBJ
C:\USERS\PARTHASARTHI.BK\DESKTOP\SOURCES\BUILD\FDI EDD ENGINE\CODE\SRC\FDI\FDI_DDS_LIB\DEBUG\WIN32\EVL_REF.OBJ
C:\USERS\PARTHASARTHI.BK\DESKTOP\SOURCES\BUILD\FDI EDD ENGINE\CODE\SRC\FDI\FDI_DDS_LIB\DEBUG\WIN32\EVL_REL.OBJ
C:\USERS\PARTHASARTHI.BK\DESKTOP\SOURCES\BUILD\FDI EDD ENGINE\CODE\SRC\FDI\FDI_DDS_LIB\DEBUG\WIN32\EVL_RESP.OBJ
C:\USERS\PARTHASARTHI.BK\DESKTOP\SOURCES\BUILD\FDI EDD ENGINE\CODE\SRC\FDI\FDI_DDS_LIB\DEBUG\WIN32\EVL_RSLV.OBJ
C:\USERS\PARTHASARTHI.BK\DESKTOP\SOURCES\BUILD\FDI EDD ENGINE\CODE\SRC\FDI\FDI_DDS_LIB\DEBUG\WIN32\EVL_STR.OBJ
C:\USERS\PARTHASARTHI.BK\DESKTOP\SOURCES\BUILD\FDI EDD ENGINE\CODE\SRC\FDI\FDI_DDS_LIB\DEBUG\WIN32\EVL_TRAN.OBJ
C:\USERS\PARTHASARTHI.BK\DESKTOP\SOURCES\BUILD\FDI EDD ENGINE\CODE\SRC\FDI\FDI_DDS_LIB\DEBUG\WIN32\EVL_TYPE.OBJ
C:\USERS\PARTHASARTHI.BK\DESKTOP\SOURCES\BUILD\FDI EDD ENGINE\CODE\SRC\FDI\FDI_DDS_LIB\DEBUG\WIN32\FCH_RDIR.OBJ
C:\USERS\PARTHASARTHI.BK\DESKTOP\SOURCES\BUILD\FDI EDD ENGINE\CODE\SRC\FDI\FDI_DDS_LIB\DEBUG\WIN32\FCH_RITM.OBJ
C:\USERS\PARTHASARTHI.BK\DESKTOP\SOURCES\BUILD\FDI EDD ENGINE\CODE\SRC\FDI\FDI_DDS_LIB\DEBUG\WIN32\FCH_RODF.OBJ
C:\USERS\PARTHASARTHI.BK\DESKTOP\SOURCES\BUILD\FDI EDD ENGINE\CODE\SRC\FDI\FDI_DDS_LIB\DEBUG\WIN32\FCH_SLCT.OBJ
C:\USERS\PARTHASARTHI.BK\DESKTOP\SOURCES\BUILD\FDI EDD ENGINE\CODE\SRC\FDI\FDI_DDS_LIB\DEBUG\WIN32\MANUALUNITLOOKUP.OBJ
C:\USERS\PARTHASARTHI.BK\DESKTOP\SOURCES\BUILD\FDI EDD ENGINE\CODE\SRC\FDI\FDI_DDS_LIB\DEBUG\WIN32\STDAFX.OBJ
