^C:\USERS\PARTHASARTHI.BK\DESKTOP\SOURCES\BUILD\FDI EDD ENGINE\CODE\LEGACY\CODE\SRC\OLE\EDDLMETHINTERP\EDD_ENGINE_MI\STDAFX.CPP
/c /I..\APPS\APPSUPPORT\BUILTINLIB /I..\APPS\APPSUPPORT\DDPARSER /I..\APPS\APPSUPPORT\DEVSERVICES /I..\APPS\APPSUPPORT\INTERPRETER /I..\APPS\APPSUPPORT\MEE /I..\APPS\APPSUPPORT\PARSERINFC /I..\COMMON /I..\..\..\..\INC /I..\..\..\..\..\..\INTERFACES\EDD_ENGINE_INTERFACES /I..\GENBASELIB /I..\..\..\..\..\..\SRC\EDD_ENGINE_COMMON /I..\..\..\..\..\..\SRC\EDD_ENGINE_WINDOWS /Zi /nologo /W4 /WX- /Od /Oy- /D WIN32 /D _DEBUG /D _WINDOWS /D _USRDLL /D EDDENGINEMI_EXPORTS /D _CRT_SECURE_NO_WARNINGS /D _VC80_UPGRADE=0x0700 /D _WINDLL /D _UNICODE /D UNICODE /D _AFXDLL /Gm- /EHsc /MDd /GS /Gy /fp:precise /Zc:wchar_t /Zc:forScope /Zc:inline /Yc"stdafx.h" /Fp"DEBUG\WIN32\EDD_ENGINE_MI.PCH" /Fo"DEBUG\WIN32\\" /Fd"DEBUG\WIN32\VC140.PDB" /FR"Debug\Win32\\" /Gd /TP /analyze- C:\USERS\PARTHASARTHI.BK\DESKTOP\SOURCES\BUILD\FDI EDD ENGINE\CODE\LEGACY\CODE\SRC\OLE\EDDLMETHINTERP\EDD_ENGINE_MI\STDAFX.CPP
^C:\USERS\PARTHASARTHI.BK\DESKTOP\SOURCES\BUILD\FDI EDD ENGINE\CODE\LEGACY\CODE\SRC\SERVERPROJECTS\NTCSPECIES\NTCSPECIESLOG.CPP
/c /I..\APPS\APPSUPPORT\BUILTINLIB /I..\APPS\APPSUPPORT\DDPARSER /I..\APPS\APPSUPPORT\DEVSERVICES /I..\APPS\APPSUPPORT\INTERPRETER /I..\APPS\APPSUPPORT\MEE /I..\APPS\APPSUPPORT\PARSERINFC /I..\COMMON /I..\..\..\..\INC /I..\..\..\..\..\..\INTERFACES\EDD_ENGINE_INTERFACES /I..\GENBASELIB /I..\..\..\..\..\..\SRC\EDD_ENGINE_COMMON /I..\..\..\..\..\..\SRC\EDD_ENGINE_WINDOWS /Zi /nologo /W4 /WX- /Od /Oy- /D WIN32 /D _DEBUG /D _WINDOWS /D _USRDLL /D EDDENGINEMI_EXPORTS /D _CRT_SECURE_NO_WARNINGS /D _VC80_UPGRADE=0x0700 /D _WINDLL /D _UNICODE /D UNICODE /D _AFXDLL /Gm- /EHsc /MDd /GS /Gy /fp:precise /Zc:wchar_t /Zc:forScope /Zc:inline /Fo"DEBUG\WIN32\\" /Fd"DEBUG\WIN32\VC140.PDB" /FR"Debug\Win32\\" /Gd /TP /analyze- C:\USERS\PARTHASARTHI.BK\DESKTOP\SOURCES\BUILD\FDI EDD ENGINE\CODE\LEGACY\CODE\SRC\SERVERPROJECTS\NTCSPECIES\NTCSPECIESLOG.CPP
^C:\USERS\PARTHASARTHI.BK\DESKTOP\SOURCES\BUILD\FDI EDD ENGINE\CODE\LEGACY\CODE\SRC\OLE\EDDLMETHINTERP\EDD_ENGINE_MI\AMSMETHODFUNCTION.CPP
/c /I..\APPS\APPSUPPORT\BUILTINLIB /I..\APPS\APPSUPPORT\DDPARSER /I..\APPS\APPSUPPORT\DEVSERVICES /I..\APPS\APPSUPPORT\INTERPRETER /I..\APPS\APPSUPPORT\MEE /I..\APPS\APPSUPPORT\PARSERINFC /I..\COMMON /I..\..\..\..\INC /I..\..\..\..\..\..\INTERFACES\EDD_ENGINE_INTERFACES /I..\GENBASELIB /I..\..\..\..\..\..\SRC\EDD_ENGINE_COMMON /I..\..\..\..\..\..\SRC\EDD_ENGINE_WINDOWS /Zi /nologo /W4 /WX- /Od /Oy- /D WIN32 /D _DEBUG /D _WINDOWS /D _USRDLL /D EDDENGINEMI_EXPORTS /D _CRT_SECURE_NO_WARNINGS /D _VC80_UPGRADE=0x0700 /D _WINDLL /D _UNICODE /D UNICODE /D _AFXDLL /Gm- /EHsc /MDd /GS /Gy /fp:precise /Zc:wchar_t /Zc:forScope /Zc:inline /Yu"stdafx.h" /Fp"DEBUG\WIN32\EDD_ENGINE_MI.PCH" /Fo"DEBUG\WIN32\\" /Fd"DEBUG\WIN32\VC140.PDB" /FR"Debug\Win32\\" /Gd /TP /analyze- C:\USERS\PARTHASARTHI.BK\DESKTOP\SOURCES\BUILD\FDI EDD ENGINE\CODE\LEGACY\CODE\SRC\OLE\EDDLMETHINTERP\EDD_ENGINE_MI\AMSMETHODFUNCTION.CPP
^C:\USERS\PARTHASARTHI.BK\DESKTOP\SOURCES\BUILD\FDI EDD ENGINE\CODE\LEGACY\CODE\SRC\OLE\EDDLMETHINTERP\EDD_ENGINE_MI\EDD_ENGINE_MI.CPP
/c /I..\APPS\APPSUPPORT\BUILTINLIB /I..\APPS\APPSUPPORT\DDPARSER /I..\APPS\APPSUPPORT\DEVSERVICES /I..\APPS\APPSUPPORT\INTERPRETER /I..\APPS\APPSUPPORT\MEE /I..\APPS\APPSUPPORT\PARSERINFC /I..\COMMON /I..\..\..\..\INC /I..\..\..\..\..\..\INTERFACES\EDD_ENGINE_INTERFACES /I..\GENBASELIB /I..\..\..\..\..\..\SRC\EDD_ENGINE_COMMON /I..\..\..\..\..\..\SRC\EDD_ENGINE_WINDOWS /Zi /nologo /W4 /WX- /Od /Oy- /D WIN32 /D _DEBUG /D _WINDOWS /D _USRDLL /D EDDENGINEMI_EXPORTS /D _CRT_SECURE_NO_WARNINGS /D _VC80_UPGRADE=0x0700 /D _WINDLL /D _UNICODE /D UNICODE /D _AFXDLL /Gm- /EHsc /MDd /GS /Gy /fp:precise /Zc:wchar_t /Zc:forScope /Zc:inline /Yu"stdafx.h" /Fp"DEBUG\WIN32\EDD_ENGINE_MI.PCH" /Fo"DEBUG\WIN32\\" /Fd"DEBUG\WIN32\VC140.PDB" /FR"Debug\Win32\\" /Gd /TP /analyze- C:\USERS\PARTHASARTHI.BK\DESKTOP\SOURCES\BUILD\FDI EDD ENGINE\CODE\LEGACY\CODE\SRC\OLE\EDDLMETHINTERP\EDD_ENGINE_MI\EDD_ENGINE_MI.CPP
^C:\USERS\PARTHASARTHI.BK\DESKTOP\SOURCES\BUILD\FDI EDD ENGINE\CODE\LEGACY\CODE\SRC\OLE\EDDLMETHINTERP\EDD_ENGINE_MI\CPROFIDPSERVERDEVICE.CPP
/c /I..\APPS\APPSUPPORT\BUILTINLIB /I..\APPS\APPSUPPORT\DDPARSER /I..\APPS\APPSUPPORT\DEVSERVICES /I..\APPS\APPSUPPORT\INTERPRETER /I..\APPS\APPSUPPORT\MEE /I..\APPS\APPSUPPORT\PARSERINFC /I..\COMMON /I..\..\..\..\INC /I..\..\..\..\..\..\INTERFACES\EDD_ENGINE_INTERFACES /I..\GENBASELIB /I..\..\..\..\..\..\SRC\EDD_ENGINE_COMMON /I..\..\..\..\..\..\SRC\EDD_ENGINE_WINDOWS /Zi /nologo /W4 /WX- /Od /Oy- /D WIN32 /D _DEBUG /D _WINDOWS /D _USRDLL /D EDDENGINEMI_EXPORTS /D _CRT_SECURE_NO_WARNINGS /D _VC80_UPGRADE=0x0700 /D _WINDLL /D _UNICODE /D UNICODE /D _AFXDLL /Gm- /EHsc /MDd /GS /Gy /fp:precise /Zc:wchar_t /Zc:forScope /Zc:inline /Yu"stdafx.h" /Fp"DEBUG\WIN32\EDD_ENGINE_MI.PCH" /Fo"DEBUG\WIN32\\" /Fd"DEBUG\WIN32\VC140.PDB" /FR"Debug\Win32\\" /Gd /TP /analyze- C:\USERS\PARTHASARTHI.BK\DESKTOP\SOURCES\BUILD\FDI EDD ENGINE\CODE\LEGACY\CODE\SRC\OLE\EDDLMETHINTERP\EDD_ENGINE_MI\CPROFIDPSERVERDEVICE.CPP
^C:\USERS\PARTHASARTHI.BK\DESKTOP\SOURCES\BUILD\FDI EDD ENGINE\CODE\LEGACY\CODE\SRC\OLE\EDDLMETHINTERP\EDD_ENGINE_MI\MANAGEDSERVERMI.CPP
/c /I..\APPS\APPSUPPORT\BUILTINLIB /I..\APPS\APPSUPPORT\DDPARSER /I..\APPS\APPSUPPORT\DEVSERVICES /I..\APPS\APPSUPPORT\INTERPRETER /I..\APPS\APPSUPPORT\MEE /I..\APPS\APPSUPPORT\PARSERINFC /I..\COMMON /I..\..\..\..\INC /I..\..\..\..\..\..\INTERFACES\EDD_ENGINE_INTERFACES /I..\GENBASELIB /I..\..\..\..\..\..\SRC\EDD_ENGINE_COMMON /I..\..\..\..\..\..\SRC\EDD_ENGINE_WINDOWS /Zi /nologo /W4 /WX- /Od /Oy- /D WIN32 /D _DEBUG /D _WINDOWS /D _USRDLL /D EDDENGINEMI_EXPORTS /D _CRT_SECURE_NO_WARNINGS /D _VC80_UPGRADE=0x0700 /D _WINDLL /D _UNICODE /D UNICODE /D _AFXDLL /Gm- /EHsc /MDd /GS /Gy /fp:precise /Zc:wchar_t /Zc:forScope /Zc:inline /Yu"stdafx.h" /Fp"DEBUG\WIN32\EDD_ENGINE_MI.PCH" /Fo"DEBUG\WIN32\\" /Fd"DEBUG\WIN32\VC140.PDB" /FR"Debug\Win32\\" /Gd /TP /analyze- C:\USERS\PARTHASARTHI.BK\DESKTOP\SOURCES\BUILD\FDI EDD ENGINE\CODE\LEGACY\CODE\SRC\OLE\EDDLMETHINTERP\EDD_ENGINE_MI\MANAGEDSERVERMI.CPP
