variable        __ffddinfo                enumerated      0x80020000 
variable        __ffddinfo                enumerated      0x80020000 
variable        __ffddinfo                enumerated      0x80020000 
variable        __ffddinfo                enumerated      0x80020000 
