method          WriteRampRate                             16840 
variable        uint16_var_blk_char       unsigned        2147548933 
variable        burst_mode_control_code   enumerated      2032 (std,imp) 
variable        CTI_Cycle_Count           unsigned        16466 
member          blk_profile_rev           record          3221290759 
variable        physical_signaling_codes  enumerated      2033 (std,imp) 
variable        PT_Alpha_Filter           integer         16439 
member          VIEWHRLPOSWAVE1           graph           16814 
method          EC_Build_meth                             16691 
variable        LifeTimeHours             float           16677 
variable        position_lower_limit      float           16387 
variable        date                      date            166 (std,mand,imp) 
command         Write_System_cmd                          16514 
member          blk_num_params            record          3221290761 
method          BurstStateMethod                          16668 
member          LIMIT_STATUS                              248 (std) 
command         Read_System_cmd                           16511 
menu            Device_Info_menu                          16586 
menu            HRLPage                                   16863 
command         write_tag_descriptor_date                 186 (std,mand,imp) 
method          Reset_Cycle_meth                          16576 
variable        SlopeMValue               float           16726 
method          ReadIntAsFloat                            16833 
variable        status_output             enumerated      2147548930 
variable        message                   packed-ascii    164 (std,mand,imp) 
member          TEMP                      source          16767 
member          SUB_DEVICE_MANUFACTUER                    4219 (std) 
member          LOWER_ENDPOINT_VALUE                      4087 (std) 
member          SENSOR_UNIT                               6003 (std) 
variable        company_identification_code enumerated      2031 (std,imp) 
value-array     AvgErrors                                 16739 
method          LoadSig                                   16832 
waveform        ViewHrlCmdWave                            16795 
method          GetCharacterization                       16781 
variable        VALVE_Pack_Type           enumerated      16522 
command         Read_Valve_Trim_cmd                       16531 
array           dynamic_variables         collection      172 (std,mand) 
variable        I_Gain                    float           16641 
member          CLASSIFICATION                            218 (std) 
axis            ErrAxis                                   16772 
menu            HRLView                                   16861 
waveform        Dec1                                      16784 
variable        EC_Build_Year             integer         16685 
waveform        Dec2                                      16785 
command         read_final_assembly_number                 184 (std,mand,imp) 
member          ARESPONSE                 chart           16774 
member          FILETYPE                  collection      16848 
member          NUMFILES                  file            16842 
variable        Slot4Unit                 unsigned        16704 
variable        EH_Sixth                  enumerated      16501 
waveform        ViewCompWave                              16793 
command         Write_Cal_Loop_cmd                        16487 
variable        PowerTempMin              float           16615 
member          DAQ                                       213 (std) 
variable        SLC_Limit_LowF            float           16652 
collection      SENSOR                    variable        16607 
menu            AvgPage                                   16856 
member          POINTS                    collection      16847 
variable        micro_motion_model_code   enumerated      2040 (std,imp) 
variable        position_units            enumerated      16385 
member          PARAM20                   parameter       3221266195 
member          PARAM21                   parameter       3221266196 
command         Read_Charact_cmd2                         16545 
member          PARAM22                   parameter       3221266197 
member          PARAM23                   parameter       3221266198 
record          DIGVAL_RECORD80                           2147549024 
menu            device_root_menu                          1020 (std) 
menu            Soft_Limit_Cutoff                         16660 
member          PARAM24                   parameter       3221266199 
record          DIGVAL_RECORD81                           2147549025 
member          PARAM25                   parameter       3221266200 
record          DIGVAL_RECORD82                           2147549026 
member          PARAM26                   parameter       3221266201 
record          DIGVAL_RECORD83                           2147549027 
member          PARAM27                   parameter       3221266202 
record          DIGVAL_RECORD84                           2147549028 
variable        CAL_Cal_Mode              unsigned        16482 
member          PARAM28                   parameter       3221266203 
record          DIGVAL_RECORD85                           2147549029 
member          PARAM29                   parameter       3221266204 
record          DIGVAL_RECORD86                           2147549030 
record          DIGVAL_RECORD87                           2147549031 
variable        __sensor_upper_limit      float           959 (std) 
variable        device_id                 unsigned        161 (std,mand,imp) 
variable        Future20                  integer         16662 
record          DIGVAL_RECORD88                           2147549032 
record          DIGVAL_RECORD89                           2147549033 
member          SOURCE_DEVICE_TYPE                        4214 (std) 
member          PARAM10                   parameter       3221266185 
member          PARAM11                   parameter       3221266186 
member          blk_class                 record          3221290754 
member          PARAM12                   parameter       3221266187 
variable        SLC_Mpc                   integer         16450 
member          PARAM13                   parameter       3221266188 
record          DIGVAL_RECORD70                           2147549014 
menu            AvgGroup                                  16855 
member          PARAM14                   parameter       3221266189 
record          DIGVAL_RECORD71                           2147549015 
member          PARAM15                   parameter       3221266190 
record          DIGVAL_RECORD72                           2147549016 
graph           CharGraph                                 16736 
member          PARAM16                   parameter       3221266191 
record          DIGVAL_RECORD73                           2147549017 
variable        MyFileList                ascii           16722 
member          PARAM17                   parameter       3221266192 
record          DIGVAL_RECORD74                           2147549018 
variable        AA_Internal_Flags         bit-enumerated  16489 
member          PARAM18                   parameter       3221266193 
record          DIGVAL_RECORD75                           2147549019 
member          PARAM19                   parameter       3221266194 
member          blk_execution_time        record          3221290760 
record          DIGVAL_RECORD76                           2147549020 
record          DIGVAL_RECORD77                           2147549021 
variable        AvgRepeat                 float           16712 
variable        Future10                  integer         16625 
record          DIGVAL_RECORD78                           2147549022 
variable        Future11                  float           16656 
record          DIGVAL_RECORD79                           2147549023 
variable        Future12                  integer         16657 
variable        Future15                  integer         16634 
member          PARAM40                   parameter       3221266215 
variable        Future16                  integer         16674 
member          PARAM41                   parameter       3221266217 
variable        ViewMaxRepeat             float           16733 
member          PARAM42                   parameter       3221266218 
variable        ResetFlag                 integer         16627 
menu            System_Info_menu                          16595 
member          PARAM43                   parameter       3221266219 
record          DIGVAL_RECORD60                           2147549004 
member          PARAM44                   parameter       3221266220 
record          DIGVAL_RECORD61                           2147549005 
member          PARAM45                   parameter       3221266221 
record          DIGVAL_RECORD62                           2147549006 
member          PARAM46                   parameter       3221266222 
record          DIGVAL_RECORD63                           2147549007 
member          PARAM47                   parameter       3221266223 
record          DIGVAL_RECORD64                           2147549008 
member          PARAM48                   parameter       3221266224 
record          DIGVAL_RECORD65                           2147549009 
variable        TS_25VDc_Ref_Cur          integer         16565 
member          PARAM49                   parameter       3221266225 
record          DIGVAL_RECORD66                           2147549010 
member          blk_num_display_lists     record          3221290763 
record          DIGVAL_RECORD67                           2147549011 
record          DIGVAL_RECORD68                           2147549012 
record          DIGVAL_RECORD69                           2147549013 
member          PARAM30                   parameter       3221266205 
member          PARAM31                   parameter       3221266206 
member          PARAM32                   parameter       3221266207 
member          PARAM33                   parameter       3221266208 
record          DIGVAL_RECORD50                           2147548994 
member          PARAM34                   parameter       3221266209 
record          DIGVAL_RECORD51                           2147548995 
member          PARAM35                   parameter       3221266210 
record          DIGVAL_RECORD52                           2147548996 
member          PARAM36                   parameter       3221266211 
record          DIGVAL_RECORD53                           2147548997 
member          CAPTURE_MODE                              4212 (std) 
member          PARAM37                   parameter       3221266212 
record          DIGVAL_RECORD54                           2147548998 
member          PARAM38                   parameter       3221266213 
record          DIGVAL_RECORD55                           2147548999 
variable        operating_mode_code       enumerated      2035 (std,imp) 
member          PARAM39                   parameter       3221266214 
record          DIGVAL_RECORD56                           2147549000 
record          DIGVAL_RECORD57                           2147549001 
record          DIGVAL_RECORD58                           2147549002 
record          DIGVAL_RECORD59                           2147549003 
menu            OnlineWindow_display                      7024 (std) 
record          DIGVAL_RECORD1                            2147548945 
variable        MaxCutoff                 float           16653 
record          DIGVAL_RECORD2                            2147548946 
record          DIGVAL_RECORD3                            2147548947 
record          DIGVAL_RECORD4                            2147548948 
record          DIGVAL_RECORD5                            2147548949 
record          DIGVAL_RECORD6                            2147548950 
record          DIGVAL_RECORD7                            2147548951 
record          DIGVAL_RECORD8                            2147548952 
method          SaveSignature                             16836 
waveform        ResponseWave                              16789 
record          DIGVAL_RECORD9                            2147548953 
value-array     ListOfData1                               16751 
value-array     ListOfData2                               16753 
variable        PowerTempMax              float           16614 
method          AbortLoopCal                              16672 
variable        LocalPanel                enumerated      16628 
record          DIGVAL_RECORD90                           2147549034 
record          DIGVAL_RECORD91                           2147549035 
record          DIGVAL_RECORD92                           2147549036 
record          DIGVAL_RECORD93                           2147549037 
record          DIGVAL_RECORD94                           2147549038 
collection      __SENSOR                  variable        950 (std) 
record          DIGVAL_RECORD95                           2147549039 
variable        device_type               enumerated      154 (std,mand,imp) 
record          DIGVAL_RECORD96                           2147549040 
variable        AA_Hall_Flags             bit-enumerated  16490 
record          DIGVAL_RECORD97                           2147549041 
variable        POSA_Dev_Time_Frm         unsigned        16476 
record          DIGVAL_RECORD98                           2147549042 
record          DIGVAL_RECORD99                           2147549043 
member          VIEWHRLCMDWAVE1           graph           16813 
waveform        ResponseWave2                             16790 
menu            RepeatabilityPage                         16865 
unit            __digital_units_relation                  971 (std) 
menu            Tests                                     16858 
member          PARAM90                   parameter       3221266266 
member          SOURCE_SLOT_NUMBER                        4217 (std) 
variable        POSA_Trvl_High_Alert      integer         16473 
member          PARAM91                   parameter       3221266267 
member          PARAM92                   parameter       3221266268 
member          PARAM93                   parameter       3221266269 
variable        Velocity                  float           16644 
member          PARAM94                   parameter       3221266270 
axis            TempAxis                                  16766 
variable        DISC_Discrete_In_Stat     enumerated      16558 
member          PARAM95                   parameter       3221266271 
member          PARAM96                   parameter       3221266272 
member          PARAM97                   parameter       3221266273 
waveform        ViewCompBase2                             16792 
member          PARAM98                   parameter       3221266274 
member          PARAM99                   parameter       3221266275 
refresh         __pv_unit_refresh                         977 (std) 
variable        Slot1Value                float           16699 
menu            AcqSig                                    16854 
variable        Valve_Inlet_Press         float           16535 
member          POSNRESP                  graph           16806 
command         Read_Hours                                16680 
member          ANALOG_CHANNEL_FLAGS                      217 (std) 
variable        hardware_revision         unsigned        159 (std,mand,imp) 
member          blk_parent_class          record          3221290755 
member          THETEMP                   source          16769 
command         read_pv_current_and_percent_range                 176 (std,mand,imp) 
member          PARAM60                   parameter       3221266236 
member          PARAM61                   parameter       3221266237 
member          PARAM62                   parameter       3221266238 
member          PARAM63                   parameter       3221266239 
record          DIGVAL_RECORD40                           2147548984 
member          PARAM64                   parameter       3221266240 
record          DIGVAL_RECORD41                           2147548985 
variable        MaxXValue                 float           16719 
member          PARAM65                   parameter       3221266241 
record          DIGVAL_RECORD42                           2147548986 
member          PARAM66                   parameter       3221266242 
record          DIGVAL_RECORD43                           2147548987 
variable        ACT_Size                  enumerated      16508 
member          PARAM67                   parameter       3221266243 
record          DIGVAL_RECORD44                           2147548988 
member          PARAM68                   parameter       3221266244 
record          DIGVAL_RECORD45                           2147548989 
member          PARAM69                   parameter       3221266245 
record          DIGVAL_RECORD46                           2147548990 
method          BuildFileList                             16823 
record          DIGVAL_RECORD47                           2147548991 
member          SHED_TIME                                 4218 (std) 
record          DIGVAL_RECORD48                           2147548992 
record          DIGVAL_RECORD49                           2147548993 
member          ANALOG_VALUE              collection      193 (std) 
variable        physical_signaling_code   enumerated      171 (std,mand,imp) 
member          PARAM50                   parameter       3221266226 
member          PARAM51                   parameter       3221266227 
member          PARAM52                   parameter       3221266228 
variable        comm_status               bit-enumerated  152 (std,mand,imp) 
member          PARAM53                   parameter       3221266229 
record          DIGVAL_RECORD30                           2147548974 
member          PARAM54                   parameter       3221266230 
record          DIGVAL_RECORD31                           2147548975 
method          Reset_Valve_Config_meth                   16579 
member          PARAM55                   parameter       3221266231 
record          DIGVAL_RECORD32                           2147548976 
member          SOURCE_DEVICE_ID                          4215 (std) 
variable        EH_Seventh                enumerated      16502 
member          PARAM56                   parameter       3221266232 
record          DIGVAL_RECORD33                           2147548977 
method          pre_send_configuration_method                 1007 (std) 
member          POSNSOURCE                chart           16777 
member          PARAM57                   parameter       3221266233 
record          DIGVAL_RECORD34                           2147548978 
member          PARAM58                   parameter       3221266234 
record          DIGVAL_RECORD35                           2147548979 
menu            Configuration_menu                        16583 
member          PARAM59                   parameter       3221266235 
record          DIGVAL_RECORD36                           2147548980 
record          DIGVAL_RECORD37                           2147548981 
record          DIGVAL_RECORD38                           2147548982 
record          DIGVAL_RECORD39                           2147548983 
member          PARAM80                   parameter       3221266256 
variable        final_assembly_number     unsigned        169 (std,mand,imp) 
member          PARAM81                   parameter       3221266257 
variable        universal_revision        unsigned        156 (std,mand,imp) 
member          PARAM82                   parameter       3221266258 
variable        BM_Slot1                  unsigned        16664 
member          PARAM83                   parameter       3221266259 
record          DIGVAL_RECORD20                           2147548964 
variable        BM_Slot2                  unsigned        16665 
member          PARAM84                   parameter       3221266260 
record          DIGVAL_RECORD21                           2147548965 
source          ChartSource                               16758 
variable        BM_Slot3                  unsigned        16666 
member          PARAM85                   parameter       3221266261 
record          DIGVAL_RECORD22                           2147548966 
variable        BM_Slot4                  unsigned        16667 
member          PARAM86                   parameter       3221266262 
record          DIGVAL_RECORD23                           2147548967 
graph           ViewSigGraph                              16820 
member          PARAM87                   parameter       3221266263 
record          DIGVAL_RECORD24                           2147548968 
member          PARAM88                   parameter       3221266264 
record          DIGVAL_RECORD25                           2147548969 
variable        EC_Build_Min              integer         16689 
member          PARAM89                   parameter       3221266265 
record          DIGVAL_RECORD26                           2147548970 
array           transmitter_variables     collection      4109 (std) 
variable        Reset1                    integer         16638 
record          DIGVAL_RECORD27                           2147548971 
variable        Reset2                    integer         16639 
record          DIGVAL_RECORD28                           2147548972 
variable        Reset3                    integer         16640 
record          DIGVAL_RECORD29                           2147548973 
variable        position_value            float           16384 
variable        DAC_value                 float           16397 
member          PARAM70                   parameter       3221266246 
member          PARAM71                   parameter       3221266247 
member          PARAM72                   parameter       3221266248 
member          PARAM73                   parameter       3221266249 
record          DIGVAL_RECORD10                           2147548954 
member          PARAM74                   parameter       3221266250 
record          DIGVAL_RECORD11                           2147548955 
member          PARAM75                   parameter       3221266251 
record          DIGVAL_RECORD12                           2147548956 
variable        material_code             enumerated      2028 (std,imp) 
member          PARAM76                   parameter       3221266252 
record          DIGVAL_RECORD13                           2147548957 
member          PARAM77                   parameter       3221266253 
record          DIGVAL_RECORD14                           2147548958 
variable        TCM_Stroke_Time           unsigned        16540 
member          PARAM78                   parameter       3221266254 
record          DIGVAL_RECORD15                           2147548959 
member          PARAM79                   parameter       3221266255 
record          DIGVAL_RECORD16                           2147548960 
record          DIGVAL_RECORD17                           2147548961 
collection      __INPT                    variable        951 (std) 
record          DIGVAL_RECORD18                           2147548962 
record          DIGVAL_RECORD19                           2147548963 
menu            Files                                     16859 
array           deviceVariables           collection      269 (std) 
member          WAVE1                     graph           16798 
member          WAVE2                     graph           16799 
variable        METHOD_Calib_Press        unsigned        16564 
variable        SLC_Char_Type             enumerated      16447 
waveform        ViewCompBase                              16791 
variable        PT_Max_Prop_Gain          integer         16435 
member          TESTPOSN                  collection      16845 
member          TARGET                    source          16760 
command         read_dynamic_variables_and_pv_current                 177 (std,mand,imp) 
variable        EC_Build_Month            integer         16686 
variable        Friction                  enumerated      16630 
variable        rosemount_analytical_model_code enumerated      2038 (std,imp) 
method          std_CheckWriteProtect                     1016 (std) 
value-array     PosnResp2                                 16755 
value-array     PosnResp3                                 16756 
value-array     PosnResp4                                 16757 
graph           POSNERR                                   16807 
menu            view_menu                                 1009 (std) 
waveform        Inc1                                      16786 
waveform        Inc2                                      16787 
variable        PT_IL_Offset_Zero         integer         16441 
variable        command_perc              float           16600 
command         read_additional_transmitter_status                 4046 (std,imp) 
variable        Char_Register_Number      unsigned        16408 
variable        VALVE_Stroke_Length       float           16533 
command         Write_Tuning_cmd                          16445 
waveform        AvgWave                                   16779 
variable        __sensor_lower_limit      float           958 (std) 
method          SaveHRLTest                               16835 
value-array     PosnResp                                  16754 
variable        EC_Minor                  integer         16684 
variable        Valve_Rated_Travel        float           16534 
variable        Int_Register_Value        integer         16412 
command         Read_Actuator_cmd                         16505 
member          _MNG_VALUE                record          3221290752 
variable        PT_Prop_Gain_Multi        integer         16437 
menu            Units_menu                                16593 
variable        VALVE_Stem_Diam           float           16532 
variable        device_flags              bit-enumerated  160 (std,mand,imp) 
command         Read_Tuning_cmd                           16433 
menu            Character_menu                            16590 
variable        Char_Register_Value       unsigned        16411 
menu            offline_root_menu                         1002 (std) 
variable        PT_IL_Set_Time            integer         16444 
member          DIGITAL_UNITS             collection      190 (std) 
collection      __ANALOG                  variable        952 (std) 
variable        transmitter_revision      unsigned        157 (std,imp) 
variable        BM_Select                 enumerated      16663 
command         Write_Misc_cmd                            16414 
method          post_edit_Pdef_Tuning_Set                 16566 
member          MAXIMUM_LOWER_TRIM_POINT                  4197 (std) 
member          UPPER_ENDPOINT_VALUE                      4086 (std) 
command         Read_Temp_History                         16675 
variable        NeverCal                  enumerated      16632 
variable        xmtr_specific_status_0    bit-enumerated  4021 (std,imp) 
variable        xmtr_specific_status_1    bit-enumerated  4022 (std,imp) 
variable        xmtr_specific_status_2    bit-enumerated  4023 (std,imp) 
variable        xmtr_specific_status_3    bit-enumerated  4024 (std,imp) 
variable        CTI_TRAVEL_leng           float           16608 
variable        EC_Build_Day              integer         16687 
variable        xmtr_specific_status_4    bit-enumerated  4025 (std,imp) 
variable        xmtr_specific_status_5    bit-enumerated  4026 (std,imp) 
method          Stroke_Cal_meth                           16574 
member          POSN                      source          16759 
menu            Burst_Mode_menu                           16671 
member          THEPOS                    source          16763 
variable        private_label_distributor enumerated      168 (std,mand,imp) 
command         Write_Charact_cmd2                        16557 
variable        Int_Register_Reply        unsigned        16661 
variable        ViewAvgRepeat             float           16730 
variable        EH_Third                  enumerated      16498 
variable        DS_Cmd_Source2            integer         16635 
variable        EH_Eighth                 enumerated      16503 
variable        StartPoint                float           16727 
member          VIEWWAVE1                 graph           16821 
member          VIEWWAVE2                 graph           16822 
menu            process_variables_root_menu                 1019 (std) 
variable        METHOD_Open_Time          unsigned        16567 
axis            NewXAxis                                  16773 
variable        Loop_Current              float           16599 
menu            Device_Config_menu                        16587 
variable        METHOD_Close_Time         unsigned        16568 
member          blk_dd_reference          record          3221290756 
command         Read_Units                                16478 
variable        DISC_Discrete_Out2_Stat   enumerated      16560 
variable        __analog_value            float           961 (std) 
menu            Temp_History_menu                         16676 
method          Reset_Travel_meth                         16577 
command         Write_Config_cmd                          16432 
variable        analog_output_numbers_code enumerated      2036 (std,imp) 
variable        SLC_Limit_Low             integer         16449 
variable        POSA_Trvl_Low_Alert       integer         16474 
value-array     IncrArray1                                16749 
member          SOURCE_MANUFACTURER                       4213 (std) 
member          UPPER_TRIM_POINT                          4199 (std) 
value-array     IncrArray2                                16750 
method          Reset_Error_History_meth                  16578 
member          PARAM210                  parameter       3221266386 
member          PARAM211                  parameter       3221266387 
variable        VALVE_Flow_Dir            enumerated      16519 
member          PARAM212                  parameter       3221266388 
variable        VT_Trim_Char              enumerated      16526 
member          PARAM213                  parameter       3221266389 
variable        DS_Cmd_Digital            integer         16417 
member          PARAM214                  parameter       3221266390 
member          PARAM215                  parameter       3221266391 
member          PARAM216                  parameter       3221266392 
member          PARAM217                  parameter       3221266393 
member          PARAM218                  parameter       3221266394 
member          ENDING                    collection      16851 
variable        EH_Second                 enumerated      16497 
member          PARAM219                  parameter       3221266395 
variable        ACT_Spring_Type           enumerated      16509 
member          PARAM220                  parameter       3221266396 
member          PARAM221                  parameter       3221266397 
member          PARAM222                  parameter       3221266398 
member          PARAM223                  parameter       3221266399 
member          PARAM224                  parameter       3221266400 
member          PARAM225                  parameter       3221266401 
member          PARAM226                  parameter       3221266402 
member          PARAM227                  parameter       3221266403 
member          PARAM228                  parameter       3221266404 
member          PARAM229                  parameter       3221266405 
variable        tag                       packed-ascii    163 (std,mand,imp) 
member          PARAM230                  parameter       3221266406 
member          PARAM231                  parameter       3221266407 
member          PARAM232                  parameter       3221266408 
member          PARAM233                  parameter       3221266409 
member          PARAM234                  parameter       3221266410 
collection      __DEV                     variable        963 (std) 
variable        ClosedSignal              enumerated      16626 
member          PARAM235                  parameter       3221266411 
member          PARAM236                  parameter       3221266412 
member          PARAM237                  parameter       3221266413 
member          PARAM238                  parameter       3221266414 
variable        Temperature_value         float           16401 
member          PARAM239                  parameter       3221266415 
member          SENSOR_SERIAL_NUMBER      collection      199 (std) 
menu            Calibration_menu                          16585 
variable        software_revision         unsigned        158 (std,mand,imp) 
member          PARAM240                  parameter       3221266416 
method          BurstCommandMethod                        16669 
member          PARAM241                  parameter       3221266417 
member          PARAM242                  parameter       3221266418 
member          PARAM243                  parameter       3221266419 
member          PARAM244                  parameter       3221266420 
member          PARAM245                  parameter       3221266421 
member          PARAM246                  parameter       3221266422 
member          PARAM247                  parameter       3221266423 
member          ALARM_CODE                collection      196 (std) 
member          PARAM248                  parameter       3221266424 
member          PARAM249                  parameter       3221266425 
chart           AThermometer                              16738 
member          DIGITAL_VALUE             collection      191 (std) 
menu            User_Preferences_menu                     16584 
command         read_unique_identifier                    174 (std,mand,imp) 
variable        __input_percent_range     float           965 (std) 
graph           ViewHRLGraph                              16812 
menu            Menu_Main_Maintenance                     1017 (std) 
variable        VALVE_Model               enumerated      16524 
method          ClearMainArrays                           16826 
variable        ViewMaxHDError            float           16732 
source          PosnCmd                                   16761 
chart           AChart                                    16737 
method          std_CheckDeviceIdentificationDownload                 1015 (std) 
member          PARAM200                  parameter       3221266376 
member          PARAM201                  parameter       3221266377 
member          PARAM202                  parameter       3221266378 
member          PARAM203                  parameter       3221266379 
method          Loop_Cal_meth                             16575 
member          PARAM204                  parameter       3221266380 
member          PARAM205                  parameter       3221266381 
member          PARAM206                  parameter       3221266382 
member          PARAM207                  parameter       3221266383 
member          PARAM208                  parameter       3221266384 
member          PARAM209                  parameter       3221266385 
command         Write_Charact_cmd                         16464 
command         write_message                             185 (std,mand,imp) 
waveform        Conformity                                16783 
collection      ADataPoint                UNDEFINED       16752 
variable        Slot2Value                float           16701 
variable        MyFileCount               integer         16721 
command         Read_CTI_cmd                              16465 
variable        alarm_selection_code      enumerated      2027 (std,imp) 
variable        __sensor_units            enumerated      957 (std) 
variable        InputValue                float           16715 
member          TESTCOMMAND               collection      16844 
member          THECOMMAND                source          16762 
method          std_CheckDeviceIdentificationUpload                 1014 (std) 
command         Write_Error_Hist_cmd                      16504 
collection      Signature_data            UNDEFINED       16748 
member          _MNG_STATUS               record          3221290753 
variable        uint8_var_blk_char        unsigned        2147548932 
member          DATA_QUALITY                              247 (std) 
graph           AcqSigGraph                               16797 
menu            ViewHRLPage                               16866 
member          MINIMUM_LOWER_TRIM_POINT                  4196 (std) 
variable        TEMPERATURE_units         enumerated      16402 
member          PARAM250                  parameter       3221266426 
member          PARAM251                  parameter       3221266427 
member          PARAM252                  parameter       3221266428 
member          PARAM253                  parameter       3221266429 
member          PARAM254                  parameter       3221266430 
variable        CTI_Travel_Limit          float           16470 
member          PARAM255                  parameter       3221266431 
member          PARAM256                  parameter       3221266432 
member          PARAM257                  parameter       3221266433 
member          PARAM258                  parameter       3221266434 
member          PARAM259                  parameter       3221266435 
method          Read_Register_meth                        16572 
member          BEGINNING                 collection      16849 
variable        CutoffHyst                float           16655 
variable        TCM_Quick_Cal             enumerated      16539 
member          PARAM260                  parameter       3221266436 
member          PARAM261                  parameter       3221266437 
variable        TCM_EEMode                unsigned        16543 
member          PARAM262                  parameter       3221266438 
variable        int8_var_blk_char         integer         2147548931 
member          PARAM263                  parameter       3221266439 
member          PARAM264                  parameter       3221266440 
member          PARAM265                  parameter       3221266441 
member          PARAM266                  parameter       3221266442 
member          DAMPING_VALUE             collection      198 (std) 
member          PARAM267                  parameter       3221266443 
member          PARAM268                  parameter       3221266444 
variable        ViewLinearityVar          float           16731 
member          PARAM269                  parameter       3221266445 
command         read_unique_identifier_with_tag                 179 (std,mand,imp) 
member          PARAM270                  parameter       3221266446 
member          PARAM271                  parameter       3221266447 
member          PARAM272                  parameter       3221266448 
variable        AA_Press_Flags            bit-enumerated  16673 
member          PARAM273                  parameter       3221266449 
member          PARAM274                  parameter       3221266450 
member          PARAM275                  parameter       3221266451 
member          PARAM276                  parameter       3221266452 
member          PARAM277                  parameter       3221266453 
member          PARAM278                  parameter       3221266454 
source          TempSource                                16765 
variable        DC_Large_Act              enumerated      16431 
command         Read_Config_cmd                           16425 
variable        __input_transfer_function enumerated      966 (std) 
member          PARAM110                  parameter       3221266286 
member          PARAM111                  parameter       3221266287 
member          PARAM112                  parameter       3221266288 
member          PARAM113                  parameter       3221266289 
member          PARAM114                  parameter       3221266290 
menu            upload_variables                          1003 (std) 
member          PARAM115                  parameter       3221266291 
member          PARAM1                    parameter       3221266176 
method          StabilizeAt                               16837 
member          PARAM116                  parameter       3221266292 
member          PARAM2                    parameter       3221266177 
member          PARAM117                  parameter       3221266293 
member          PARAM3                    parameter       3221266178 
member          PARAM118                  parameter       3221266294 
member          PARAM4                    parameter       3221266179 
member          PARAM119                  parameter       3221266295 
member          PARAM5                    parameter       3221266180 
member          PARAM6                    parameter       3221266181 
member          PARAM7                    parameter       3221266182 
variable        position_damping_value    float           16389 
member          PARAM8                    parameter       3221266183 
member          PARAM9                    parameter       3221266184 
member          PARAM120                  parameter       3221266296 
member          PARAM121                  parameter       3221266297 
member          PARAM122                  parameter       3221266298 
member          PARAM123                  parameter       3221266299 
member          PARAM124                  parameter       3221266300 
method          WriteFloatAsInt                           16839 
member          PARAM125                  parameter       3221266301 
member          PARAM126                  parameter       3221266302 
method          LoadHRL                                   16831 
member          PARAM127                  parameter       3221266303 
member          PARAM128                  parameter       3221266304 
variable        EH_First                  enumerated      16496 
member          PARAM129                  parameter       3221266305 
menu            Status_menu                               16582 
variable        DS_PCntrl_flag            enumerated      16422 
menu            Positioner_Tuning_menu                    16588 
variable        PoweredHours              float           16679 
member          PARAM130                  parameter       3221266306 
variable        AA_Command_Flags          bit-enumerated  16492 
member          PARAM131                  parameter       3221266307 
member          PARAM132                  parameter       3221266308 
member          PARAM133                  parameter       3221266309 
member          PARAM134                  parameter       3221266310 
variable        units_code                enumerated      2025 (std,imp) 
member          PARAM135                  parameter       3221266311 
member          PARAM136                  parameter       3221266312 
variable        tv_unit                   enumerated      16603 
member          PARAM137                  parameter       3221266313 
member          PARAM138                  parameter       3221266314 
member          PARAM139                  parameter       3221266315 
menu            StableWise                                16649 
member          PARAM140                  parameter       3221266316 
command         Read_Error_Hist_cmd                       16488 
member          PARAM141                  parameter       3221266317 
member          PARAM142                  parameter       3221266318 
member          PARAM143                  parameter       3221266319 
member          EGRAPH                    graph           16801 
member          PARAM144                  parameter       3221266320 
member          PARAM145                  parameter       3221266321 
member          PARAM146                  parameter       3221266322 
member          PARAM147                  parameter       3221266323 
member          PARAM148                  parameter       3221266324 
member          PARAM149                  parameter       3221266325 
command         read_transmitter_variables                 4005 (std,imp) 
command         write_polling_address                     178 (std,mand,imp) 
menu            DynamicVars                               16616 
variable        DS_Cmd_Source             enumerated      16416 
variable        LinearityVar              float           16716 
member          DEVICE_FAMILY_STATUS                      249 (std) 
method          RunHRL                                    16834 
variable        AutoTune                  enumerated      16629 
variable        DS_Pos_Deviation          integer         16421 
unit            __input_units_relation                    976 (std) 
member          LOWER_TRIM_POINT                          4198 (std) 
edit-display    __key_pad_rerange                         954 (std) 
variable        __sensor_serial_number    unsigned        955 (std) 
member          blk_dd_revision           record          3221290757 
menu            LogData                                   16867 
menu            Alerts_Alarms_menu                        16581 
member          PARAM100                  parameter       3221266276 
member          PARAM101                  parameter       3221266277 
method          Not_implement                             16580 
variable        CAL_Strk_Date             ascii           16483 
member          PARAM102                  parameter       3221266278 
member          PARAM103                  parameter       3221266279 
variable        PT_IL_Offset_Mid          integer         16440 
member          PARAM104                  parameter       3221266280 
member          PARAM105                  parameter       3221266281 
member          PARAM106                  parameter       3221266282 
menu            CharactizeMenu                            16637 
member          PARAM107                  parameter       3221266283 
variable        MinXValue                 float           16720 
member          PARAM108                  parameter       3221266284 
member          PARAM109                  parameter       3221266285 
variable        Slot1                     integer         16694 
variable        Slot2                     integer         16695 
variable        Slot3                     integer         16696 
variable        Slot4                     integer         16697 
member          PARAM190                  parameter       3221266366 
member          PARAM191                  parameter       3221266367 
menu            Position_Alerts_Conf_menu                 16592 
member          PARAM192                  parameter       3221266368 
member          PARAM193                  parameter       3221266369 
variable        MaxHDError                float           16717 
member          PARAM194                  parameter       3221266370 
member          PARAM195                  parameter       3221266371 
waveform        ViewSigWave                               16796 
member          PARAM196                  parameter       3221266372 
member          PARAM197                  parameter       3221266373 
member          PARAM198                  parameter       3221266374 
variable        POSA_Toll_Err_Band        integer         16475 
member          PARAM199                  parameter       3221266375 
variable        position_upper_value      float           16394 
variable        DS_MPC_flag               enumerated      16423 
member          HRLSETTLETIME             collection      16850 
record          hart_blk_char                             2147548929 
method          Write_Register_meth                       16573 
member          SOURCE_COMMAND_NUMBER                     4216 (std) 
variable        command_unit              enumerated      16601 
variable        Long_Register_Number      unsigned        16410 
menu            ComparisonView                            16857 
variable        ResetTempMax              float           16612 
menu            Menu_Main_Specialist                      1012 (std) 
member          INCREMENT1                graph           16808 
member          INCREMENT2                graph           16809 
variable        SlopeBValue               float           16725 
variable        EH_Count                  unsigned        16494 
menu            Valve_Info_menu                           16596 
variable        VALVE_Body_Mat            enumerated      16516 
menu            Cycle_Travel_Info_menu                    16591 
method          process_warn                              16563 
method          GetRampRate                               16829 
variable        Stroke_Cal_Type           enumerated      16631 
member          PARAM150                  parameter       3221266326 
member          PARAM151                  parameter       3221266327 
member          PARAM152                  parameter       3221266328 
member          PARAM153                  parameter       3221266329 
member          PARAM154                  parameter       3221266330 
member          PARAM155                  parameter       3221266331 
member          PARAM156                  parameter       3221266332 
member          PARAM157                  parameter       3221266333 
member          PARAM158                  parameter       3221266334 
member          PARAM159                  parameter       3221266335 
variable        VALVE_Manufact            enumerated      16521 
variable        EndPoint                  float           16714 
member          PARAM160                  parameter       3221266336 
member          PARAM161                  parameter       3221266337 
variable        Int_Register_Number       unsigned        16409 
member          PARAM162                  parameter       3221266338 
member          PARAM163                  parameter       3221266339 
variable        DC_Fail_Position          enumerated      16427 
member          PARAM164                  parameter       3221266340 
member          PARAM165                  parameter       3221266341 
member          PARAM166                  parameter       3221266342 
member          PARAM167                  parameter       3221266343 
member          PARAM168                  parameter       3221266344 
member          PARAM169                  parameter       3221266345 
variable        PT_Pdef_Tuning_Set        enumerated      16434 
variable        VALVE_End_Con             enumerated      16518 
member          PARAM170                  parameter       3221266346 
member          PARAM171                  parameter       3221266347 
list            FileArray                                 16747 
menu            RepeatGroup                               16868 
member          PARAM172                  parameter       3221266348 
member          PARAM173                  parameter       3221266349 
member          PARAM174                  parameter       3221266350 
member          PARAM175                  parameter       3221266351 
variable        DISC_Discrete_Out1_Stat   enumerated      16559 
member          PARAM176                  parameter       3221266352 
member          ANALOG_CHANNEL                            212 (std) 
member          PARAM177                  parameter       3221266353 
member          PARAM178                  parameter       3221266354 
member          PARAM179                  parameter       3221266355 
variable        ACT_Manufact_Id           enumerated      16506 
command         ReadLimitsChar                            16658 
variable        Open_Limit                float           16645 
variable        __sensor_damping_value    float           964 (std) 
member          LOWER_SENSOR_LIMIT        collection      202 (std) 
method          CheckRampRange                            16825 
member          PARAM180                  parameter       3221266356 
member          PARAM181                  parameter       3221266357 
member          PARAM182                  parameter       3221266358 
member          DEVICE_STATUS                             216 (std) 
member          PARAM183                  parameter       3221266359 
member          PARAM184                  parameter       3221266360 
member          PARAM185                  parameter       3221266361 
member          PARAM186                  parameter       3221266362 
member          SENSOR_UPPER_TRIM                         6007 (std) 
member          PARAM187                  parameter       3221266363 
member          PARAM188                  parameter       3221266364 
member          PARAM189                  parameter       3221266365 
variable        DataPoints                integer         16713 
member          DEVICE_FAMILY                             253 (std) 
chart           DataLogger                                16776 
member          UPPER_RANGE_VALUE         collection      204 (std) 
variable        ResetTempMin              float           16613 
variable        StableWindow              float           16648 
unit            temp                                      16571 
method          post_send_configuration_method                 1008 (std) 
menu            hot_key                                   1001 (std) 
menu            PosnrSettings                             16709 
command         Read_Tech_Config_cmd                      16538 
variable        TCM_Stroke_Open           unsigned        16541 
variable        operating_mode_1          enumerated      4038 (std,imp) 
member          TRANSFER_FUNCTION         collection      197 (std) 
variable        operating_mode_2          enumerated      4039 (std,imp) 
variable        TRAVEL_leng               float           16399 
member          FIRSTSET                  collection      16852 
variable        __new_digital_units       enumerated      970 (std) 
variable        device_status             bit-enumerated  151 (std,mand,imp) 
variable        VT_Trim_Material          enumerated      16525 
member          blk_index_dis             record          3221290762 
block           _MNG_HART_BLOCK                           2147548928 
method          SelectCmd33Vars                           16670 
member          ANALOG_UNITS                              4070 (std) 
variable        OutputValue               float           16723 
variable        AA_Travel_Flags           bit-enumerated  16493 
variable        position_transfer_function enumerated      16393 
member          DECREMENT1                graph           16810 
member          DEVICE_VARIABLE                           211 (std) 
member          DECREMENT2                graph           16811 
command         Read_Cal_Loop_cmd                         16485 
array           factory_protection_array  variable        1006 (std) 
variable        CHAR_Sig_50               integer         16546 
variable        StableEnable              enumerated      16636 
variable        CHAR_Sig_55               integer         16547 
variable        uint32_var_blk_char       unsigned        2147548934 
command         read_message                              180 (std,mand,imp) 
variable        Slot1Unit                 unsigned        16698 
variable        CHAR_Sig_60               integer         16548 
variable        __input_lower_value       float           969 (std) 
variable        CHAR_Sig_65               integer         16549 
variable        __input_units             enumerated      967 (std) 
menu            Error_History_menu                        16594 
variable        CTI_Travel_Dbnd           integer         16469 
member          DUMMY                                     246 (std) 
variable        CHAR_Sig_70               integer         16550 
variable        response_code             enumerated      150 (std,mand,imp) 
menu            fms_menu                                  2147548944 
variable        flag_assignment           enumerated      2034 (std,imp) 
variable        position_upper_limit      float           16386 
variable        CHAR_Sig_75               integer         16551 
variable        VALVE_Press_Class         enumerated      16523 
source          TempSrc                                   16768 
variable        __sensor_value            float           956 (std) 
variable        VALVE_Body_Size           enumerated      16517 
variable        CHAR_Sig_80               integer         16552 
variable        CHAR_Sig_85               integer         16553 
variable        sensor_serial_number      unsigned        16396 
variable        CHAR_Sig_90               integer         16554 
variable        EH_PTR                    unsigned        16495 
member          SENSOR_UNITS              collection      200 (std) 
variable        CHAR_Sig_95               integer         16555 
image           FLSImage                                  16735 
variable        Slot3Value                float           16703 
variable        CHAR_Sig_99               integer         16556 
variable        hart_functions            bit-enumerated  1005 (std) 
variable        ACT_Type_LR               enumerated      16507 
variable        DS_Pos_FB                 integer         16420 
command         Read_SLC_cmd                              16446 
variable        polling_address           unsigned        162 (std,mand,imp) 
variable        DC_Air_Action             enumerated      16426 
variable        PT_Integral_Gain          integer         16438 
variable        CTI_Cycle_Dbnd            integer         16467 
variable        IL_Offset                 float           16647 
menu            PositionInfo                              16707 
collection      __pv                      variable        974 (std) 
command         read_tag_descriptor_date                  181 (std,mand,imp) 
variable        position_percent_range    float           16392 
member          RANGING                                   214 (std) 
variable        EC_Major                  integer         16683 
variable        EC_Build_Hour             integer         16688 
variable        TheDate                   ascii           16728 
variable        X1                        float           16734 
variable        DC_Sing_Dbl_Acting        enumerated      16429 
variable        __input_upper_value       float           968 (std) 
variable        CTI_Cycle_Limit           unsigned        16468 
command         Read_Calibration_cmd                      16481 
menu            Table_Main_Maintenance                    1011 (std) 
member          SECONDSET                 collection      16853 
command         Write_SLC_cmd                             16452 
file            DataFiles                                 16841 
member          MAXIMUM_UPPER_TRIM_POINT                  4201 (std) 
refresh         __x1                                      972 (std) 
refresh         __x2                                      973 (std) 
menu            HRLTest                                   16864 
variable        StableLocked              enumerated      16617 
variable        tv_value                  float           16602 
member          ATHERM                    chart           16775 
variable        CHAR_Sig_00               integer         16454 
variable        sv_value                  float           16605 
variable        CHAR_Sig_05               integer         16455 
member          CHARACTERIZE              graph           16803 
member          COMMANDRESP               graph           16805 
variable        CHAR_Sig_10               integer         16456 
command         WriteLimitsChar                           16659 
variable        CHAR_Sig_15               integer         16457 
member          LOWER_RANGE_VALUE         collection      205 (std) 
member          VIEWCOMP1                 graph           16816 
member          VIEWCOMP2                 graph           16817 
member          VIEWCOMP3                 graph           16818 
member          blk_profile               record          3221290758 
member          VIEWCOMP4                 graph           16819 
command         Read_Charact_cmd                          16453 
method          LoadComparison                            16830 
variable        CHAR_Sig_20               integer         16458 
command         Read_Revisions                            16692 
variable        qv_value                  float           16606 
variable        CHAR_Sig_25               integer         16459 
value-array     ConformityArray                           16744 
variable        command_out               float           16604 
variable        VT_Trim_Num               enumerated      16528 
variable        VALVE_Leak_Class          enumerated      16520 
variable        CHAR_Sig_30               integer         16460 
variable        CHAR_Sig_35               integer         16461 
member          MINIMUM_UPPER_TRIM_POINT                  4200 (std) 
variable        analog_value              float           16390 
unit            travel                                    16569 
variable        CHAR_Sig_40               integer         16462 
variable        ViewAvgHDError            float           16729 
variable        CHAR_Sig_45               integer         16463 
variable        D_Gain                    float           16642 
variable        DS_Pos_Cmd                integer         16419 
graph           AvgErrorGraph                             16800 
command         read_pv_sensor_info                       182 (std,mand,imp) 
variable        AFileType                 ascii           16710 
command         Write_Calibration_cmd                     16484 
image           device_icon                               1021 (std) 
member          TEMP2                     chart           16778 
member          TRIM_POINT_UNITS                          4121 (std) 
variable        DC_Valve_LR               enumerated      16430 
member          ANALOG_DAMPING                            4078 (std) 
variable        Slot2Unit                 unsigned        16700 
variable        AA_Stroke_Flags           bit-enumerated  16491 
variable        PT_IL_Offset_Span         integer         16442 
variable        ResetHours                float           16678 
command         Read_Valve_cmd                            16515 
member          DEVICE_CLASS                              215 (std) 
variable        EH_Fourth                 enumerated      16499 
variable        DAC_units                 enumerated      16398 
unit            PS_Stuff                                  16570 
waveform        PosnWave                                  16788 
variable        PT_Auto_Tune_Fctr         integer         16443 
menu            ViewSig                                   16860 
variable        Valve_Outlet_Press        float           16536 
method          cmd_warn                                  16562 
method          startSig                                  16838 
menu            diagnostic_root_menu                      1018 (std) 
waveform        CmdWave                                   16782 
variable        PT_Min_Prop_Gain          integer         16436 
member          RANGE_UNITS               collection      203 (std) 
method          std_CheckDeviceIdentification                 1013 (std) 
menu            TempInfo                                  16708 
menu            Hour_Meter                                16681 
method          __univ_self_test                          953 (std) 
graph           ViewSigComparison                         16815 
variable        SLC_Mpc_Hyst              integer         16451 
variable        SYS_Relay_Id              enumerated      16512 
menu            root_menu                                 1000 (std) 
command         Read_Position_Alrt_cmd                    16472 
menu            Soft_Limit_charact_menu                   16589 
member          UPPER_SENSOR_LIMIT        collection      201 (std) 
method          ClearViewArrays                           16827 
variable        kayray_model_code         enumerated      2039 (std,imp) 
variable        write_protect_code        enumerated      2030 (std,imp) 
command         write_final_assembly_number                 187 (std,mand,imp) 
variable        unique_device_type_code   enumerated      2029 (std,imp) 
method          DeleteFiles                               16828 
variable        AvgHDError                float           16711 
variable        position_lower_value      float           16395 
menu            HDGroup                                   16862 
variable        Register_Type             unsigned        16561 
waveform        ViewCompWave2                             16794 
member          DATEID                    collection      16846 
variable        SLC_Limit_High            integer         16448 
command         Write_Status_cmd                          16424 
value-array     CommandIn2                                16741 
value-array     CommandIn3                                16742 
value-array     CommandIn4                                16743 
variable        AODetected                enumerated      16633 
axis            HRLAxis                                   16771 
variable        MaxRepeat                 float           16718 
value-array     CommandIn                                 16740 
value-array     DecArray1                                 16745 
value-array     DecArray2                                 16746 
axis            SigAxis                                   16770 
variable        VALVE_Sn                  ascii           16529 
command         Write_CTI_cmd                             16471 
variable        manufacturer_id           enumerated      153 (std,mand,imp) 
command         Write_Position_Alrt_cmd                   16477 
unit            __sensor_units_relation                   975 (std) 
variable        write_protect             enumerated      167 (std,mand,imp) 
variable        descriptor                packed-ascii    165 (std,mand,imp) 
member          TRIM_POINT_SUPPORT                        4120 (std) 
variable        UNITS_Press               enumerated      16479 
variable        request_preambles         unsigned        155 (std,mand,imp) 
collection      sensor_a                  variable        6001 (std) 
variable        MaxLifeTimeTemp           float           16610 
variable        P_Gain                    float           16643 
variable        Close_Limit               float           16646 
command         Read_Status_cmd                           16415 
variable        position_minimum_span     float           16388 
variable        BGMPassMarker             integer         16706 
menu            Table_Main_Specialist                     1010 (std) 
variable        CAL_Loop_Date             ascii           16486 
member          THEANALOGCMD              source          16764 
variable        MinLifeTimeTemp           float           16611 
variable        Long_Register_Value       unsigned        16413 
member          MINIMUM_SPAN              collection      195 (std) 
array           loop_warning_variables    variable        1004 (std) 
member          SENSOR_LOWER_TRIM                         6005 (std) 
command         Write_Actuator_cmd                        16510 
graph           HRLResponses                              16804 
variable        SLC_Limit_HighF           float           16651 
collection      pv                        variable        16403 
variable        DS_Cmd_Analog             integer         16418 
variable        Future1                   integer         16618 
menu            Actuator_Info_menu                        16598 
variable        Slot3Unit                 unsigned        16702 
variable        Future2                   integer         16619 
variable        Future3                   integer         16620 
unit            ThirdValueUnit                            16609 
collection      qv                        variable        16406 
variable        Future4                   integer         16621 
variable        Future5                   integer         16622 
variable        Future6                   integer         16623 
variable        Future7                   integer         16624 
variable        Future8                   integer         16650 
variable        Future9                   integer         16682 
variable        Slot4Value                float           16705 
waveform        CharWave                                  16780 
command         Write_Valve_cmd                           16530 
menu            PositionerRevs_menu                       16693 
member          MINIMUM_TRIM_DIFFERENTIAL                 4156 (std) 
variable        VT_Trim_Type              enumerated      16527 
variable        transfer_function_code    enumerated      2026 (std,imp) 
collection      sv                        variable        16404 
variable        TRAVEL_units              enumerated      16400 
variable        __analog_alarm_code       enumerated      962 (std) 
command         read_pv                                   175 (std,mand,imp) 
variable        SYS_Electr_Sn             ascii           16513 
variable        __sensor_minimum_span     float           960 (std) 
command         read_pv_output_info                       183 (std,mand,imp) 
collection      tv                        variable        16405 
variable        EC_Build_Sec              integer         16690 
variable        analog_alarm_code         enumerated      16391 
member          SIGDATA                   file            16843 
command         Write_Valve_Trim_cmd                      16537 
variable        DC_Model_BA               enumerated      16428 
command         Write_Tech_Config_cmd                     16544 
command         Read_Misc_cmd                             16407 
variable        MinCutoff                 float           16654 
variable        rosemount_model_code      enumerated      2037 (std,imp) 
variable        SettleTime                integer         16724 
variable        TCM_Stroke_Close          unsigned        16542 
command         Write_Units                               16480 
method          CheckFileName                             16824 
variable        EH_Fifth                  enumerated      16500 
array           subDevice                 collection      4220 (std) 
member          CGRAPH                    graph           16802 
menu            Valve_Trim_Info_menu                      16597 
member          PERCENT_RANGE             collection      194 (std) 
