^C:\USERS\PARTHASARTHI.BK\DESKTOP\SOURCES\BUILD\FDI EDD ENGINE\CODE\LEGACY\CODE\SRC\FF\AMSDDS\DDI_CMI.C
/c /I..\..\..\INC\FF\AMSGENFILES /I..\..\..\INC\FF\AMSDDS /I..\..\..\INC\FF\FFHELPER /I..\..\..\INC\FF /I..\..\..\INC /I..\..\..\..\..\INTERFACES\EDD_ENGINE_INTERFACES /I..\..\..\..\..\INC /I..\..\..\..\..\SRC\EDD_ENGINE_WINDOWS /I..\..\..\..\..\SRC\EDD_ENGINE_COMMON /Zi /nologo /W4 /WX- /Od /Oy- /D WIN32 /D _DEBUG /D DEBUG /D _WINDOWS /D _CRT_SECURE_NO_WARNINGS /D _VC80_UPGRADE=0x0710 /D _UNICODE /D UNICODE /D _AFXDLL /Gm- /EHsc /MDd /GS /fp:precise /Zc:wchar_t /Zc:forScope /Zc:inline /Fo"DEBUG\WIN32\\" /Fd"DEBUG\WIN32\AMSDDS.PDB" /FR"Debug\Win32\\" /Gd /TP /analyze- C:\USERS\PARTHASARTHI.BK\DESKTOP\SOURCES\BUILD\FDI EDD ENGINE\CODE\LEGACY\CODE\SRC\FF\AMSDDS\DDI_CMI.C
^C:\USERS\PARTHASARTHI.BK\DESKTOP\SOURCES\BUILD\FDI EDD ENGINE\CODE\LEGACY\CODE\SRC\FF\AMSDDS\DDI_CONV.C
/c /I..\..\..\INC\FF\AMSGENFILES /I..\..\..\INC\FF\AMSDDS /I..\..\..\INC\FF\FFHELPER /I..\..\..\INC\FF /I..\..\..\INC /I..\..\..\..\..\INTERFACES\EDD_ENGINE_INTERFACES /I..\..\..\..\..\INC /I..\..\..\..\..\SRC\EDD_ENGINE_WINDOWS /I..\..\..\..\..\SRC\EDD_ENGINE_COMMON /Zi /nologo /W4 /WX- /Od /Oy- /D WIN32 /D _DEBUG /D DEBUG /D _WINDOWS /D _CRT_SECURE_NO_WARNINGS /D _VC80_UPGRADE=0x0710 /D _UNICODE /D UNICODE /D _AFXDLL /Gm- /EHsc /MDd /GS /fp:precise /Zc:wchar_t /Zc:forScope /Zc:inline /Fo"DEBUG\WIN32\\" /Fd"DEBUG\WIN32\AMSDDS.PDB" /FR"Debug\Win32\\" /Gd /TP /analyze- C:\USERS\PARTHASARTHI.BK\DESKTOP\SOURCES\BUILD\FDI EDD ENGINE\CODE\LEGACY\CODE\SRC\FF\AMSDDS\DDI_CONV.C
^C:\USERS\PARTHASARTHI.BK\DESKTOP\SOURCES\BUILD\FDI EDD ENGINE\CODE\LEGACY\CODE\SRC\FF\AMSDDS\DDI_DIR.C
/c /I..\..\..\INC\FF\AMSGENFILES /I..\..\..\INC\FF\AMSDDS /I..\..\..\INC\FF\FFHELPER /I..\..\..\INC\FF /I..\..\..\INC /I..\..\..\..\..\INTERFACES\EDD_ENGINE_INTERFACES /I..\..\..\..\..\INC /I..\..\..\..\..\SRC\EDD_ENGINE_WINDOWS /I..\..\..\..\..\SRC\EDD_ENGINE_COMMON /Zi /nologo /W4 /WX- /Od /Oy- /D WIN32 /D _DEBUG /D DEBUG /D _WINDOWS /D _CRT_SECURE_NO_WARNINGS /D _VC80_UPGRADE=0x0710 /D _UNICODE /D UNICODE /D _AFXDLL /Gm- /EHsc /MDd /GS /fp:precise /Zc:wchar_t /Zc:forScope /Zc:inline /Fo"DEBUG\WIN32\\" /Fd"DEBUG\WIN32\AMSDDS.PDB" /FR"Debug\Win32\\" /Gd /TP /analyze- C:\USERS\PARTHASARTHI.BK\DESKTOP\SOURCES\BUILD\FDI EDD ENGINE\CODE\LEGACY\CODE\SRC\FF\AMSDDS\DDI_DIR.C
^C:\USERS\PARTHASARTHI.BK\DESKTOP\SOURCES\BUILD\FDI EDD ENGINE\CODE\LEGACY\CODE\SRC\FF\AMSDDS\DDI_ITEM.C
/c /I..\..\..\INC\FF\AMSGENFILES /I..\..\..\INC\FF\AMSDDS /I..\..\..\INC\FF\FFHELPER /I..\..\..\INC\FF /I..\..\..\INC /I..\..\..\..\..\INTERFACES\EDD_ENGINE_INTERFACES /I..\..\..\..\..\INC /I..\..\..\..\..\SRC\EDD_ENGINE_WINDOWS /I..\..\..\..\..\SRC\EDD_ENGINE_COMMON /Zi /nologo /W4 /WX- /Od /Oy- /D WIN32 /D _DEBUG /D DEBUG /D _WINDOWS /D _CRT_SECURE_NO_WARNINGS /D _VC80_UPGRADE=0x0710 /D _UNICODE /D UNICODE /D _AFXDLL /Gm- /EHsc /MDd /GS /fp:precise /Zc:wchar_t /Zc:forScope /Zc:inline /Fo"DEBUG\WIN32\\" /Fd"DEBUG\WIN32\AMSDDS.PDB" /FR"Debug\Win32\\" /Gd /TP /analyze- C:\USERS\PARTHASARTHI.BK\DESKTOP\SOURCES\BUILD\FDI EDD ENGINE\CODE\LEGACY\CODE\SRC\FF\AMSDDS\DDI_ITEM.C
^C:\USERS\PARTHASARTHI.BK\DESKTOP\SOURCES\BUILD\FDI EDD ENGINE\CODE\LEGACY\CODE\SRC\FF\AMSDDS\DDI_LANG.C
/c /I..\..\..\INC\FF\AMSGENFILES /I..\..\..\INC\FF\AMSDDS /I..\..\..\INC\FF\FFHELPER /I..\..\..\INC\FF /I..\..\..\INC /I..\..\..\..\..\INTERFACES\EDD_ENGINE_INTERFACES /I..\..\..\..\..\INC /I..\..\..\..\..\SRC\EDD_ENGINE_WINDOWS /I..\..\..\..\..\SRC\EDD_ENGINE_COMMON /Zi /nologo /W4 /WX- /Od /Oy- /D WIN32 /D _DEBUG /D DEBUG /D _WINDOWS /D _CRT_SECURE_NO_WARNINGS /D _VC80_UPGRADE=0x0710 /D _UNICODE /D UNICODE /D _AFXDLL /Gm- /EHsc /MDd /GS /fp:precise /Zc:wchar_t /Zc:forScope /Zc:inline /Fo"DEBUG\WIN32\\" /Fd"DEBUG\WIN32\AMSDDS.PDB" /FR"Debug\Win32\\" /Gd /TP /analyze- C:\USERS\PARTHASARTHI.BK\DESKTOP\SOURCES\BUILD\FDI EDD ENGINE\CODE\LEGACY\CODE\SRC\FF\AMSDDS\DDI_LANG.C
^C:\USERS\PARTHASARTHI.BK\DESKTOP\SOURCES\BUILD\FDI EDD ENGINE\CODE\LEGACY\CODE\SRC\FF\AMSDDS\DDI_TAB.C
/c /I..\..\..\INC\FF\AMSGENFILES /I..\..\..\INC\FF\AMSDDS /I..\..\..\INC\FF\FFHELPER /I..\..\..\INC\FF /I..\..\..\INC /I..\..\..\..\..\INTERFACES\EDD_ENGINE_INTERFACES /I..\..\..\..\..\INC /I..\..\..\..\..\SRC\EDD_ENGINE_WINDOWS /I..\..\..\..\..\SRC\EDD_ENGINE_COMMON /Zi /nologo /W4 /WX- /Od /Oy- /D WIN32 /D _DEBUG /D DEBUG /D _WINDOWS /D _CRT_SECURE_NO_WARNINGS /D _VC80_UPGRADE=0x0710 /D _UNICODE /D UNICODE /D _AFXDLL /Gm- /EHsc /MDd /GS /fp:precise /Zc:wchar_t /Zc:forScope /Zc:inline /Fo"DEBUG\WIN32\\" /Fd"DEBUG\WIN32\AMSDDS.PDB" /FR"Debug\Win32\\" /Gd /TP /analyze- C:\USERS\PARTHASARTHI.BK\DESKTOP\SOURCES\BUILD\FDI EDD ENGINE\CODE\LEGACY\CODE\SRC\FF\AMSDDS\DDI_TAB.C
^C:\USERS\PARTHASARTHI.BK\DESKTOP\SOURCES\BUILD\FDI EDD ENGINE\CODE\LEGACY\CODE\SRC\FF\AMSDDS\DDS_CHK.C
/c /I..\..\..\INC\FF\AMSGENFILES /I..\..\..\INC\FF\AMSDDS /I..\..\..\INC\FF\FFHELPER /I..\..\..\INC\FF /I..\..\..\INC /I..\..\..\..\..\INTERFACES\EDD_ENGINE_INTERFACES /I..\..\..\..\..\INC /I..\..\..\..\..\SRC\EDD_ENGINE_WINDOWS /I..\..\..\..\..\SRC\EDD_ENGINE_COMMON /Zi /nologo /W4 /WX- /Od /Oy- /D WIN32 /D _DEBUG /D DEBUG /D _WINDOWS /D _CRT_SECURE_NO_WARNINGS /D _VC80_UPGRADE=0x0710 /D _UNICODE /D UNICODE /D _AFXDLL /Gm- /EHsc /MDd /GS /fp:precise /Zc:wchar_t /Zc:forScope /Zc:inline /Fo"DEBUG\WIN32\\" /Fd"DEBUG\WIN32\AMSDDS.PDB" /FR"Debug\Win32\\" /Gd /TP /analyze- C:\USERS\PARTHASARTHI.BK\DESKTOP\SOURCES\BUILD\FDI EDD ENGINE\CODE\LEGACY\CODE\SRC\FF\AMSDDS\DDS_CHK.C
^C:\USERS\PARTHASARTHI.BK\DESKTOP\SOURCES\BUILD\FDI EDD ENGINE\CODE\LEGACY\CODE\SRC\FF\AMSDDS\DDS_ERR.C
/c /I..\..\..\INC\FF\AMSGENFILES /I..\..\..\INC\FF\AMSDDS /I..\..\..\INC\FF\FFHELPER /I..\..\..\INC\FF /I..\..\..\INC /I..\..\..\..\..\INTERFACES\EDD_ENGINE_INTERFACES /I..\..\..\..\..\INC /I..\..\..\..\..\SRC\EDD_ENGINE_WINDOWS /I..\..\..\..\..\SRC\EDD_ENGINE_COMMON /Zi /nologo /W4 /WX- /Od /Oy- /D WIN32 /D _DEBUG /D DEBUG /D _WINDOWS /D _CRT_SECURE_NO_WARNINGS /D _VC80_UPGRADE=0x0710 /D _UNICODE /D UNICODE /D _AFXDLL /Gm- /EHsc /MDd /GS /fp:precise /Zc:wchar_t /Zc:forScope /Zc:inline /Fo"DEBUG\WIN32\\" /Fd"DEBUG\WIN32\AMSDDS.PDB" /FR"Debug\Win32\\" /Gd /TP /analyze- C:\USERS\PARTHASARTHI.BK\DESKTOP\SOURCES\BUILD\FDI EDD ENGINE\CODE\LEGACY\CODE\SRC\FF\AMSDDS\DDS_ERR.C
^C:\USERS\PARTHASARTHI.BK\DESKTOP\SOURCES\BUILD\FDI EDD ENGINE\CODE\LEGACY\CODE\SRC\FF\AMSDDS\DDS_TAB.C
/c /I..\..\..\INC\FF\AMSGENFILES /I..\..\..\INC\FF\AMSDDS /I..\..\..\INC\FF\FFHELPER /I..\..\..\INC\FF /I..\..\..\INC /I..\..\..\..\..\INTERFACES\EDD_ENGINE_INTERFACES /I..\..\..\..\..\INC /I..\..\..\..\..\SRC\EDD_ENGINE_WINDOWS /I..\..\..\..\..\SRC\EDD_ENGINE_COMMON /Zi /nologo /W4 /WX- /Od /Oy- /D WIN32 /D _DEBUG /D DEBUG /D _WINDOWS /D _CRT_SECURE_NO_WARNINGS /D _VC80_UPGRADE=0x0710 /D _UNICODE /D UNICODE /D _AFXDLL /Gm- /EHsc /MDd /GS /fp:precise /Zc:wchar_t /Zc:forScope /Zc:inline /Fo"DEBUG\WIN32\\" /Fd"DEBUG\WIN32\AMSDDS.PDB" /FR"Debug\Win32\\" /Gd /TP /analyze- C:\USERS\PARTHASARTHI.BK\DESKTOP\SOURCES\BUILD\FDI EDD ENGINE\CODE\LEGACY\CODE\SRC\FF\AMSDDS\DDS_TAB.C
^C:\USERS\PARTHASARTHI.BK\DESKTOP\SOURCES\BUILD\FDI EDD ENGINE\CODE\LEGACY\CODE\SRC\FF\AMSDDS\EVL_BASE.C
/c /I..\..\..\INC\FF\AMSGENFILES /I..\..\..\INC\FF\AMSDDS /I..\..\..\INC\FF\FFHELPER /I..\..\..\INC\FF /I..\..\..\INC /I..\..\..\..\..\INTERFACES\EDD_ENGINE_INTERFACES /I..\..\..\..\..\INC /I..\..\..\..\..\SRC\EDD_ENGINE_WINDOWS /I..\..\..\..\..\SRC\EDD_ENGINE_COMMON /Zi /nologo /W4 /WX- /Od /Oy- /D WIN32 /D _DEBUG /D DEBUG /D _WINDOWS /D _CRT_SECURE_NO_WARNINGS /D _VC80_UPGRADE=0x0710 /D _UNICODE /D UNICODE /D _AFXDLL /Gm- /EHsc /MDd /GS /fp:precise /Zc:wchar_t /Zc:forScope /Zc:inline /Fo"DEBUG\WIN32\\" /Fd"DEBUG\WIN32\AMSDDS.PDB" /FR"Debug\Win32\\" /Gd /TP /analyze- C:\USERS\PARTHASARTHI.BK\DESKTOP\SOURCES\BUILD\FDI EDD ENGINE\CODE\LEGACY\CODE\SRC\FF\AMSDDS\EVL_BASE.C
^C:\USERS\PARTHASARTHI.BK\DESKTOP\SOURCES\BUILD\FDI EDD ENGINE\CODE\LEGACY\CODE\SRC\FF\AMSDDS\EVL_CLN.C
/c /I..\..\..\INC\FF\AMSGENFILES /I..\..\..\INC\FF\AMSDDS /I..\..\..\INC\FF\FFHELPER /I..\..\..\INC\FF /I..\..\..\INC /I..\..\..\..\..\INTERFACES\EDD_ENGINE_INTERFACES /I..\..\..\..\..\INC /I..\..\..\..\..\SRC\EDD_ENGINE_WINDOWS /I..\..\..\..\..\SRC\EDD_ENGINE_COMMON /Zi /nologo /W4 /WX- /Od /Oy- /D WIN32 /D _DEBUG /D DEBUG /D _WINDOWS /D _CRT_SECURE_NO_WARNINGS /D _VC80_UPGRADE=0x0710 /D _UNICODE /D UNICODE /D _AFXDLL /Gm- /EHsc /MDd /GS /fp:precise /Zc:wchar_t /Zc:forScope /Zc:inline /Fo"DEBUG\WIN32\\" /Fd"DEBUG\WIN32\AMSDDS.PDB" /FR"Debug\Win32\\" /Gd /TP /analyze- C:\USERS\PARTHASARTHI.BK\DESKTOP\SOURCES\BUILD\FDI EDD ENGINE\CODE\LEGACY\CODE\SRC\FF\AMSDDS\EVL_CLN.C
^C:\USERS\PARTHASARTHI.BK\DESKTOP\SOURCES\BUILD\FDI EDD ENGINE\CODE\LEGACY\CODE\SRC\FF\AMSDDS\EVL_COND.C
/c /I..\..\..\INC\FF\AMSGENFILES /I..\..\..\INC\FF\AMSDDS /I..\..\..\INC\FF\FFHELPER /I..\..\..\INC\FF /I..\..\..\INC /I..\..\..\..\..\INTERFACES\EDD_ENGINE_INTERFACES /I..\..\..\..\..\INC /I..\..\..\..\..\SRC\EDD_ENGINE_WINDOWS /I..\..\..\..\..\SRC\EDD_ENGINE_COMMON /Zi /nologo /W4 /WX- /Od /Oy- /D WIN32 /D _DEBUG /D DEBUG /D _WINDOWS /D _CRT_SECURE_NO_WARNINGS /D _VC80_UPGRADE=0x0710 /D _UNICODE /D UNICODE /D _AFXDLL /Gm- /EHsc /MDd /GS /fp:precise /Zc:wchar_t /Zc:forScope /Zc:inline /Fo"DEBUG\WIN32\\" /Fd"DEBUG\WIN32\AMSDDS.PDB" /FR"Debug\Win32\\" /Gd /TP /analyze- C:\USERS\PARTHASARTHI.BK\DESKTOP\SOURCES\BUILD\FDI EDD ENGINE\CODE\LEGACY\CODE\SRC\FF\AMSDDS\EVL_COND.C
^C:\USERS\PARTHASARTHI.BK\DESKTOP\SOURCES\BUILD\FDI EDD ENGINE\CODE\LEGACY\CODE\SRC\FF\AMSDDS\EVL_DIR.C
/c /I..\..\..\INC\FF\AMSGENFILES /I..\..\..\INC\FF\AMSDDS /I..\..\..\INC\FF\FFHELPER /I..\..\..\INC\FF /I..\..\..\INC /I..\..\..\..\..\INTERFACES\EDD_ENGINE_INTERFACES /I..\..\..\..\..\INC /I..\..\..\..\..\SRC\EDD_ENGINE_WINDOWS /I..\..\..\..\..\SRC\EDD_ENGINE_COMMON /Zi /nologo /W4 /WX- /Od /Oy- /D WIN32 /D _DEBUG /D DEBUG /D _WINDOWS /D _CRT_SECURE_NO_WARNINGS /D _VC80_UPGRADE=0x0710 /D _UNICODE /D UNICODE /D _AFXDLL /Gm- /EHsc /MDd /GS /fp:precise /Zc:wchar_t /Zc:forScope /Zc:inline /Fo"DEBUG\WIN32\\" /Fd"DEBUG\WIN32\AMSDDS.PDB" /FR"Debug\Win32\\" /Gd /TP /analyze- C:\USERS\PARTHASARTHI.BK\DESKTOP\SOURCES\BUILD\FDI EDD ENGINE\CODE\LEGACY\CODE\SRC\FF\AMSDDS\EVL_DIR.C
^C:\USERS\PARTHASARTHI.BK\DESKTOP\SOURCES\BUILD\FDI EDD ENGINE\CODE\LEGACY\CODE\SRC\FF\AMSDDS\EVL_ENUM.C
/c /I..\..\..\INC\FF\AMSGENFILES /I..\..\..\INC\FF\AMSDDS /I..\..\..\INC\FF\FFHELPER /I..\..\..\INC\FF /I..\..\..\INC /I..\..\..\..\..\INTERFACES\EDD_ENGINE_INTERFACES /I..\..\..\..\..\INC /I..\..\..\..\..\SRC\EDD_ENGINE_WINDOWS /I..\..\..\..\..\SRC\EDD_ENGINE_COMMON /Zi /nologo /W4 /WX- /Od /Oy- /D WIN32 /D _DEBUG /D DEBUG /D _WINDOWS /D _CRT_SECURE_NO_WARNINGS /D _VC80_UPGRADE=0x0710 /D _UNICODE /D UNICODE /D _AFXDLL /Gm- /EHsc /MDd /GS /fp:precise /Zc:wchar_t /Zc:forScope /Zc:inline /Fo"DEBUG\WIN32\\" /Fd"DEBUG\WIN32\AMSDDS.PDB" /FR"Debug\Win32\\" /Gd /TP /analyze- C:\USERS\PARTHASARTHI.BK\DESKTOP\SOURCES\BUILD\FDI EDD ENGINE\CODE\LEGACY\CODE\SRC\FF\AMSDDS\EVL_ENUM.C
^C:\USERS\PARTHASARTHI.BK\DESKTOP\SOURCES\BUILD\FDI EDD ENGINE\CODE\LEGACY\CODE\SRC\FF\AMSDDS\EVL_EXPR.C
/c /I..\..\..\INC\FF\AMSGENFILES /I..\..\..\INC\FF\AMSDDS /I..\..\..\INC\FF\FFHELPER /I..\..\..\INC\FF /I..\..\..\INC /I..\..\..\..\..\INTERFACES\EDD_ENGINE_INTERFACES /I..\..\..\..\..\INC /I..\..\..\..\..\SRC\EDD_ENGINE_WINDOWS /I..\..\..\..\..\SRC\EDD_ENGINE_COMMON /Zi /nologo /W4 /WX- /Od /Oy- /D WIN32 /D _DEBUG /D DEBUG /D _WINDOWS /D _CRT_SECURE_NO_WARNINGS /D _VC80_UPGRADE=0x0710 /D _UNICODE /D UNICODE /D _AFXDLL /Gm- /EHsc /MDd /GS /fp:precise /Zc:wchar_t /Zc:forScope /Zc:inline /Fo"DEBUG\WIN32\\" /Fd"DEBUG\WIN32\AMSDDS.PDB" /FR"Debug\Win32\\" /Gd /TP /analyze- C:\USERS\PARTHASARTHI.BK\DESKTOP\SOURCES\BUILD\FDI EDD ENGINE\CODE\LEGACY\CODE\SRC\FF\AMSDDS\EVL_EXPR.C
^C:\USERS\PARTHASARTHI.BK\DESKTOP\SOURCES\BUILD\FDI EDD ENGINE\CODE\LEGACY\CODE\SRC\FF\AMSDDS\EVL_IARY.C
/c /I..\..\..\INC\FF\AMSGENFILES /I..\..\..\INC\FF\AMSDDS /I..\..\..\INC\FF\FFHELPER /I..\..\..\INC\FF /I..\..\..\INC /I..\..\..\..\..\INTERFACES\EDD_ENGINE_INTERFACES /I..\..\..\..\..\INC /I..\..\..\..\..\SRC\EDD_ENGINE_WINDOWS /I..\..\..\..\..\SRC\EDD_ENGINE_COMMON /Zi /nologo /W4 /WX- /Od /Oy- /D WIN32 /D _DEBUG /D DEBUG /D _WINDOWS /D _CRT_SECURE_NO_WARNINGS /D _VC80_UPGRADE=0x0710 /D _UNICODE /D UNICODE /D _AFXDLL /Gm- /EHsc /MDd /GS /fp:precise /Zc:wchar_t /Zc:forScope /Zc:inline /Fo"DEBUG\WIN32\\" /Fd"DEBUG\WIN32\AMSDDS.PDB" /FR"Debug\Win32\\" /Gd /TP /analyze- C:\USERS\PARTHASARTHI.BK\DESKTOP\SOURCES\BUILD\FDI EDD ENGINE\CODE\LEGACY\CODE\SRC\FF\AMSDDS\EVL_IARY.C
^C:\USERS\PARTHASARTHI.BK\DESKTOP\SOURCES\BUILD\FDI EDD ENGINE\CODE\LEGACY\CODE\SRC\FF\AMSDDS\EVL_ITEM.C
/c /I..\..\..\INC\FF\AMSGENFILES /I..\..\..\INC\FF\AMSDDS /I..\..\..\INC\FF\FFHELPER /I..\..\..\INC\FF /I..\..\..\INC /I..\..\..\..\..\INTERFACES\EDD_ENGINE_INTERFACES /I..\..\..\..\..\INC /I..\..\..\..\..\SRC\EDD_ENGINE_WINDOWS /I..\..\..\..\..\SRC\EDD_ENGINE_COMMON /Zi /nologo /W4 /WX- /Od /Oy- /D WIN32 /D _DEBUG /D DEBUG /D _WINDOWS /D _CRT_SECURE_NO_WARNINGS /D _VC80_UPGRADE=0x0710 /D _UNICODE /D UNICODE /D _AFXDLL /Gm- /EHsc /MDd /GS /fp:precise /Zc:wchar_t /Zc:forScope /Zc:inline /Fo"DEBUG\WIN32\\" /Fd"DEBUG\WIN32\AMSDDS.PDB" /FR"Debug\Win32\\" /Gd /TP /analyze- C:\USERS\PARTHASARTHI.BK\DESKTOP\SOURCES\BUILD\FDI EDD ENGINE\CODE\LEGACY\CODE\SRC\FF\AMSDDS\EVL_ITEM.C
^C:\USERS\PARTHASARTHI.BK\DESKTOP\SOURCES\BUILD\FDI EDD ENGINE\CODE\LEGACY\CODE\SRC\FF\AMSDDS\EVL_MEM.C
/c /I..\..\..\INC\FF\AMSGENFILES /I..\..\..\INC\FF\AMSDDS /I..\..\..\INC\FF\FFHELPER /I..\..\..\INC\FF /I..\..\..\INC /I..\..\..\..\..\INTERFACES\EDD_ENGINE_INTERFACES /I..\..\..\..\..\INC /I..\..\..\..\..\SRC\EDD_ENGINE_WINDOWS /I..\..\..\..\..\SRC\EDD_ENGINE_COMMON /Zi /nologo /W4 /WX- /Od /Oy- /D WIN32 /D _DEBUG /D DEBUG /D _WINDOWS /D _CRT_SECURE_NO_WARNINGS /D _VC80_UPGRADE=0x0710 /D _UNICODE /D UNICODE /D _AFXDLL /Gm- /EHsc /MDd /GS /fp:precise /Zc:wchar_t /Zc:forScope /Zc:inline /Fo"DEBUG\WIN32\\" /Fd"DEBUG\WIN32\AMSDDS.PDB" /FR"Debug\Win32\\" /Gd /TP /analyze- C:\USERS\PARTHASARTHI.BK\DESKTOP\SOURCES\BUILD\FDI EDD ENGINE\CODE\LEGACY\CODE\SRC\FF\AMSDDS\EVL_MEM.C
^C:\USERS\PARTHASARTHI.BK\DESKTOP\SOURCES\BUILD\FDI EDD ENGINE\CODE\LEGACY\CODE\SRC\FF\AMSDDS\EVL_MENU.C
/c /I..\..\..\INC\FF\AMSGENFILES /I..\..\..\INC\FF\AMSDDS /I..\..\..\INC\FF\FFHELPER /I..\..\..\INC\FF /I..\..\..\INC /I..\..\..\..\..\INTERFACES\EDD_ENGINE_INTERFACES /I..\..\..\..\..\INC /I..\..\..\..\..\SRC\EDD_ENGINE_WINDOWS /I..\..\..\..\..\SRC\EDD_ENGINE_COMMON /Zi /nologo /W4 /WX- /Od /Oy- /D WIN32 /D _DEBUG /D DEBUG /D _WINDOWS /D _CRT_SECURE_NO_WARNINGS /D _VC80_UPGRADE=0x0710 /D _UNICODE /D UNICODE /D _AFXDLL /Gm- /EHsc /MDd /GS /fp:precise /Zc:wchar_t /Zc:forScope /Zc:inline /Fo"DEBUG\WIN32\\" /Fd"DEBUG\WIN32\AMSDDS.PDB" /FR"Debug\Win32\\" /Gd /TP /analyze- C:\USERS\PARTHASARTHI.BK\DESKTOP\SOURCES\BUILD\FDI EDD ENGINE\CODE\LEGACY\CODE\SRC\FF\AMSDDS\EVL_MENU.C
^C:\USERS\PARTHASARTHI.BK\DESKTOP\SOURCES\BUILD\FDI EDD ENGINE\CODE\LEGACY\CODE\SRC\FF\AMSDDS\EVL_REF.C
/c /I..\..\..\INC\FF\AMSGENFILES /I..\..\..\INC\FF\AMSDDS /I..\..\..\INC\FF\FFHELPER /I..\..\..\INC\FF /I..\..\..\INC /I..\..\..\..\..\INTERFACES\EDD_ENGINE_INTERFACES /I..\..\..\..\..\INC /I..\..\..\..\..\SRC\EDD_ENGINE_WINDOWS /I..\..\..\..\..\SRC\EDD_ENGINE_COMMON /Zi /nologo /W4 /WX- /Od /Oy- /D WIN32 /D _DEBUG /D DEBUG /D _WINDOWS /D _CRT_SECURE_NO_WARNINGS /D _VC80_UPGRADE=0x0710 /D _UNICODE /D UNICODE /D _AFXDLL /Gm- /EHsc /MDd /GS /fp:precise /Zc:wchar_t /Zc:forScope /Zc:inline /Fo"DEBUG\WIN32\\" /Fd"DEBUG\WIN32\AMSDDS.PDB" /FR"Debug\Win32\\" /Gd /TP /analyze- C:\USERS\PARTHASARTHI.BK\DESKTOP\SOURCES\BUILD\FDI EDD ENGINE\CODE\LEGACY\CODE\SRC\FF\AMSDDS\EVL_REF.C
^C:\USERS\PARTHASARTHI.BK\DESKTOP\SOURCES\BUILD\FDI EDD ENGINE\CODE\LEGACY\CODE\SRC\FF\AMSDDS\EVL_REL.C
/c /I..\..\..\INC\FF\AMSGENFILES /I..\..\..\INC\FF\AMSDDS /I..\..\..\INC\FF\FFHELPER /I..\..\..\INC\FF /I..\..\..\INC /I..\..\..\..\..\INTERFACES\EDD_ENGINE_INTERFACES /I..\..\..\..\..\INC /I..\..\..\..\..\SRC\EDD_ENGINE_WINDOWS /I..\..\..\..\..\SRC\EDD_ENGINE_COMMON /Zi /nologo /W4 /WX- /Od /Oy- /D WIN32 /D _DEBUG /D DEBUG /D _WINDOWS /D _CRT_SECURE_NO_WARNINGS /D _VC80_UPGRADE=0x0710 /D _UNICODE /D UNICODE /D _AFXDLL /Gm- /EHsc /MDd /GS /fp:precise /Zc:wchar_t /Zc:forScope /Zc:inline /Fo"DEBUG\WIN32\\" /Fd"DEBUG\WIN32\AMSDDS.PDB" /FR"Debug\Win32\\" /Gd /TP /analyze- C:\USERS\PARTHASARTHI.BK\DESKTOP\SOURCES\BUILD\FDI EDD ENGINE\CODE\LEGACY\CODE\SRC\FF\AMSDDS\EVL_REL.C
^C:\USERS\PARTHASARTHI.BK\DESKTOP\SOURCES\BUILD\FDI EDD ENGINE\CODE\LEGACY\CODE\SRC\FF\AMSDDS\EVL_RESP.C
/c /I..\..\..\INC\FF\AMSGENFILES /I..\..\..\INC\FF\AMSDDS /I..\..\..\INC\FF\FFHELPER /I..\..\..\INC\FF /I..\..\..\INC /I..\..\..\..\..\INTERFACES\EDD_ENGINE_INTERFACES /I..\..\..\..\..\INC /I..\..\..\..\..\SRC\EDD_ENGINE_WINDOWS /I..\..\..\..\..\SRC\EDD_ENGINE_COMMON /Zi /nologo /W4 /WX- /Od /Oy- /D WIN32 /D _DEBUG /D DEBUG /D _WINDOWS /D _CRT_SECURE_NO_WARNINGS /D _VC80_UPGRADE=0x0710 /D _UNICODE /D UNICODE /D _AFXDLL /Gm- /EHsc /MDd /GS /fp:precise /Zc:wchar_t /Zc:forScope /Zc:inline /Fo"DEBUG\WIN32\\" /Fd"DEBUG\WIN32\AMSDDS.PDB" /FR"Debug\Win32\\" /Gd /TP /analyze- C:\USERS\PARTHASARTHI.BK\DESKTOP\SOURCES\BUILD\FDI EDD ENGINE\CODE\LEGACY\CODE\SRC\FF\AMSDDS\EVL_RESP.C
^C:\USERS\PARTHASARTHI.BK\DESKTOP\SOURCES\BUILD\FDI EDD ENGINE\CODE\LEGACY\CODE\SRC\FF\AMSDDS\EVL_RSLV.C
/c /I..\..\..\INC\FF\AMSGENFILES /I..\..\..\INC\FF\AMSDDS /I..\..\..\INC\FF\FFHELPER /I..\..\..\INC\FF /I..\..\..\INC /I..\..\..\..\..\INTERFACES\EDD_ENGINE_INTERFACES /I..\..\..\..\..\INC /I..\..\..\..\..\SRC\EDD_ENGINE_WINDOWS /I..\..\..\..\..\SRC\EDD_ENGINE_COMMON /Zi /nologo /W4 /WX- /Od /Oy- /D WIN32 /D _DEBUG /D DEBUG /D _WINDOWS /D _CRT_SECURE_NO_WARNINGS /D _VC80_UPGRADE=0x0710 /D _UNICODE /D UNICODE /D _AFXDLL /Gm- /EHsc /MDd /GS /fp:precise /Zc:wchar_t /Zc:forScope /Zc:inline /Fo"DEBUG\WIN32\\" /Fd"DEBUG\WIN32\AMSDDS.PDB" /FR"Debug\Win32\\" /Gd /TP /analyze- C:\USERS\PARTHASARTHI.BK\DESKTOP\SOURCES\BUILD\FDI EDD ENGINE\CODE\LEGACY\CODE\SRC\FF\AMSDDS\EVL_RSLV.C
^C:\USERS\PARTHASARTHI.BK\DESKTOP\SOURCES\BUILD\FDI EDD ENGINE\CODE\LEGACY\CODE\SRC\FF\AMSDDS\EVL_STR.C
/c /I..\..\..\INC\FF\AMSGENFILES /I..\..\..\INC\FF\AMSDDS /I..\..\..\INC\FF\FFHELPER /I..\..\..\INC\FF /I..\..\..\INC /I..\..\..\..\..\INTERFACES\EDD_ENGINE_INTERFACES /I..\..\..\..\..\INC /I..\..\..\..\..\SRC\EDD_ENGINE_WINDOWS /I..\..\..\..\..\SRC\EDD_ENGINE_COMMON /Zi /nologo /W4 /WX- /Od /Oy- /D WIN32 /D _DEBUG /D DEBUG /D _WINDOWS /D _CRT_SECURE_NO_WARNINGS /D _VC80_UPGRADE=0x0710 /D _UNICODE /D UNICODE /D _AFXDLL /Gm- /EHsc /MDd /GS /fp:precise /Zc:wchar_t /Zc:forScope /Zc:inline /Fo"DEBUG\WIN32\\" /Fd"DEBUG\WIN32\AMSDDS.PDB" /FR"Debug\Win32\\" /Gd /TP /analyze- C:\USERS\PARTHASARTHI.BK\DESKTOP\SOURCES\BUILD\FDI EDD ENGINE\CODE\LEGACY\CODE\SRC\FF\AMSDDS\EVL_STR.C
^C:\USERS\PARTHASARTHI.BK\DESKTOP\SOURCES\BUILD\FDI EDD ENGINE\CODE\LEGACY\CODE\SRC\FF\AMSDDS\EVL_TMPL.C
/c /I..\..\..\INC\FF\AMSGENFILES /I..\..\..\INC\FF\AMSDDS /I..\..\..\INC\FF\FFHELPER /I..\..\..\INC\FF /I..\..\..\INC /I..\..\..\..\..\INTERFACES\EDD_ENGINE_INTERFACES /I..\..\..\..\..\INC /I..\..\..\..\..\SRC\EDD_ENGINE_WINDOWS /I..\..\..\..\..\SRC\EDD_ENGINE_COMMON /Zi /nologo /W4 /WX- /Od /Oy- /D WIN32 /D _DEBUG /D DEBUG /D _WINDOWS /D _CRT_SECURE_NO_WARNINGS /D _VC80_UPGRADE=0x0710 /D _UNICODE /D UNICODE /D _AFXDLL /Gm- /EHsc /MDd /GS /fp:precise /Zc:wchar_t /Zc:forScope /Zc:inline /Fo"DEBUG\WIN32\\" /Fd"DEBUG\WIN32\AMSDDS.PDB" /FR"Debug\Win32\\" /Gd /TP /analyze- C:\USERS\PARTHASARTHI.BK\DESKTOP\SOURCES\BUILD\FDI EDD ENGINE\CODE\LEGACY\CODE\SRC\FF\AMSDDS\EVL_TMPL.C
^C:\USERS\PARTHASARTHI.BK\DESKTOP\SOURCES\BUILD\FDI EDD ENGINE\CODE\LEGACY\CODE\SRC\FF\AMSDDS\EVL_TRAN.C
/c /I..\..\..\INC\FF\AMSGENFILES /I..\..\..\INC\FF\AMSDDS /I..\..\..\INC\FF\FFHELPER /I..\..\..\INC\FF /I..\..\..\INC /I..\..\..\..\..\INTERFACES\EDD_ENGINE_INTERFACES /I..\..\..\..\..\INC /I..\..\..\..\..\SRC\EDD_ENGINE_WINDOWS /I..\..\..\..\..\SRC\EDD_ENGINE_COMMON /Zi /nologo /W4 /WX- /Od /Oy- /D WIN32 /D _DEBUG /D DEBUG /D _WINDOWS /D _CRT_SECURE_NO_WARNINGS /D _VC80_UPGRADE=0x0710 /D _UNICODE /D UNICODE /D _AFXDLL /Gm- /EHsc /MDd /GS /fp:precise /Zc:wchar_t /Zc:forScope /Zc:inline /Fo"DEBUG\WIN32\\" /Fd"DEBUG\WIN32\AMSDDS.PDB" /FR"Debug\Win32\\" /Gd /TP /analyze- C:\USERS\PARTHASARTHI.BK\DESKTOP\SOURCES\BUILD\FDI EDD ENGINE\CODE\LEGACY\CODE\SRC\FF\AMSDDS\EVL_TRAN.C
^C:\USERS\PARTHASARTHI.BK\DESKTOP\SOURCES\BUILD\FDI EDD ENGINE\CODE\LEGACY\CODE\SRC\FF\AMSDDS\EVL_TYPE.C
/c /I..\..\..\INC\FF\AMSGENFILES /I..\..\..\INC\FF\AMSDDS /I..\..\..\INC\FF\FFHELPER /I..\..\..\INC\FF /I..\..\..\INC /I..\..\..\..\..\INTERFACES\EDD_ENGINE_INTERFACES /I..\..\..\..\..\INC /I..\..\..\..\..\SRC\EDD_ENGINE_WINDOWS /I..\..\..\..\..\SRC\EDD_ENGINE_COMMON /Zi /nologo /W4 /WX- /Od /Oy- /D WIN32 /D _DEBUG /D DEBUG /D _WINDOWS /D _CRT_SECURE_NO_WARNINGS /D _VC80_UPGRADE=0x0710 /D _UNICODE /D UNICODE /D _AFXDLL /Gm- /EHsc /MDd /GS /fp:precise /Zc:wchar_t /Zc:forScope /Zc:inline /Fo"DEBUG\WIN32\\" /Fd"DEBUG\WIN32\AMSDDS.PDB" /FR"Debug\Win32\\" /Gd /TP /analyze- C:\USERS\PARTHASARTHI.BK\DESKTOP\SOURCES\BUILD\FDI EDD ENGINE\CODE\LEGACY\CODE\SRC\FF\AMSDDS\EVL_TYPE.C
^C:\USERS\PARTHASARTHI.BK\DESKTOP\SOURCES\BUILD\FDI EDD ENGINE\CODE\LEGACY\CODE\SRC\FF\AMSDDS\FCH_RDIR.C
/c /I..\..\..\INC\FF\AMSGENFILES /I..\..\..\INC\FF\AMSDDS /I..\..\..\INC\FF\FFHELPER /I..\..\..\INC\FF /I..\..\..\INC /I..\..\..\..\..\INTERFACES\EDD_ENGINE_INTERFACES /I..\..\..\..\..\INC /I..\..\..\..\..\SRC\EDD_ENGINE_WINDOWS /I..\..\..\..\..\SRC\EDD_ENGINE_COMMON /Zi /nologo /W4 /WX- /Od /Oy- /D WIN32 /D _DEBUG /D DEBUG /D _WINDOWS /D _CRT_SECURE_NO_WARNINGS /D _VC80_UPGRADE=0x0710 /D _UNICODE /D UNICODE /D _AFXDLL /Gm- /EHsc /MDd /GS /fp:precise /Zc:wchar_t /Zc:forScope /Zc:inline /Fo"DEBUG\WIN32\\" /Fd"DEBUG\WIN32\AMSDDS.PDB" /FR"Debug\Win32\\" /Gd /TP /analyze- C:\USERS\PARTHASARTHI.BK\DESKTOP\SOURCES\BUILD\FDI EDD ENGINE\CODE\LEGACY\CODE\SRC\FF\AMSDDS\FCH_RDIR.C
^C:\USERS\PARTHASARTHI.BK\DESKTOP\SOURCES\BUILD\FDI EDD ENGINE\CODE\LEGACY\CODE\SRC\FF\AMSDDS\FCH_RITM.C
/c /I..\..\..\INC\FF\AMSGENFILES /I..\..\..\INC\FF\AMSDDS /I..\..\..\INC\FF\FFHELPER /I..\..\..\INC\FF /I..\..\..\INC /I..\..\..\..\..\INTERFACES\EDD_ENGINE_INTERFACES /I..\..\..\..\..\INC /I..\..\..\..\..\SRC\EDD_ENGINE_WINDOWS /I..\..\..\..\..\SRC\EDD_ENGINE_COMMON /Zi /nologo /W4 /WX- /Od /Oy- /D WIN32 /D _DEBUG /D DEBUG /D _WINDOWS /D _CRT_SECURE_NO_WARNINGS /D _VC80_UPGRADE=0x0710 /D _UNICODE /D UNICODE /D _AFXDLL /Gm- /EHsc /MDd /GS /fp:precise /Zc:wchar_t /Zc:forScope /Zc:inline /Fo"DEBUG\WIN32\\" /Fd"DEBUG\WIN32\AMSDDS.PDB" /FR"Debug\Win32\\" /Gd /TP /analyze- C:\USERS\PARTHASARTHI.BK\DESKTOP\SOURCES\BUILD\FDI EDD ENGINE\CODE\LEGACY\CODE\SRC\FF\AMSDDS\FCH_RITM.C
^C:\USERS\PARTHASARTHI.BK\DESKTOP\SOURCES\BUILD\FDI EDD ENGINE\CODE\LEGACY\CODE\SRC\FF\AMSDDS\FCH_RODF.C
/c /I..\..\..\INC\FF\AMSGENFILES /I..\..\..\INC\FF\AMSDDS /I..\..\..\INC\FF\FFHELPER /I..\..\..\INC\FF /I..\..\..\INC /I..\..\..\..\..\INTERFACES\EDD_ENGINE_INTERFACES /I..\..\..\..\..\INC /I..\..\..\..\..\SRC\EDD_ENGINE_WINDOWS /I..\..\..\..\..\SRC\EDD_ENGINE_COMMON /Zi /nologo /W4 /WX- /Od /Oy- /D WIN32 /D _DEBUG /D DEBUG /D _WINDOWS /D _CRT_SECURE_NO_WARNINGS /D _VC80_UPGRADE=0x0710 /D _UNICODE /D UNICODE /D _AFXDLL /Gm- /EHsc /MDd /GS /fp:precise /Zc:wchar_t /Zc:forScope /Zc:inline /Fo"DEBUG\WIN32\\" /Fd"DEBUG\WIN32\AMSDDS.PDB" /FR"Debug\Win32\\" /Gd /TP /analyze- C:\USERS\PARTHASARTHI.BK\DESKTOP\SOURCES\BUILD\FDI EDD ENGINE\CODE\LEGACY\CODE\SRC\FF\AMSDDS\FCH_RODF.C
^C:\USERS\PARTHASARTHI.BK\DESKTOP\SOURCES\BUILD\FDI EDD ENGINE\CODE\LEGACY\CODE\SRC\FF\AMSDDS\FCH_SLCT.C
/c /I..\..\..\INC\FF\AMSGENFILES /I..\..\..\INC\FF\AMSDDS /I..\..\..\INC\FF\FFHELPER /I..\..\..\INC\FF /I..\..\..\INC /I..\..\..\..\..\INTERFACES\EDD_ENGINE_INTERFACES /I..\..\..\..\..\INC /I..\..\..\..\..\SRC\EDD_ENGINE_WINDOWS /I..\..\..\..\..\SRC\EDD_ENGINE_COMMON /Zi /nologo /W4 /WX- /Od /Oy- /D WIN32 /D _DEBUG /D DEBUG /D _WINDOWS /D _CRT_SECURE_NO_WARNINGS /D _VC80_UPGRADE=0x0710 /D _UNICODE /D UNICODE /D _AFXDLL /Gm- /EHsc /MDd /GS /fp:precise /Zc:wchar_t /Zc:forScope /Zc:inline /Fo"DEBUG\WIN32\\" /Fd"DEBUG\WIN32\AMSDDS.PDB" /FR"Debug\Win32\\" /Gd /TP /analyze- C:\USERS\PARTHASARTHI.BK\DESKTOP\SOURCES\BUILD\FDI EDD ENGINE\CODE\LEGACY\CODE\SRC\FF\AMSDDS\FCH_SLCT.C
