^C:\USERS\PARTHASARTHI.BK\DESKTOP\SOURCES\BUILD\FDI EDD ENGINE\CODE\LEGACY\CODE\SRC\FF\AMSDDS\DDI_CMI.C|C:\USERS\PARTHASARTHI.BK\DESKTOP\SOURCES\BUILD\FDI EDD ENGINE\CODE\LEGACY\CODE\SRC\FF\AMSDDS\DDI_CONV.C|C:\USERS\PARTHASARTHI.BK\DESKTOP\SOURCES\BUILD\FDI EDD ENGINE\CODE\LEGACY\CODE\SRC\FF\AMSDDS\DDI_DIR.C|C:\USERS\PARTHASARTHI.BK\DESKTOP\SOURCES\BUILD\FDI EDD ENGINE\CODE\LEGACY\CODE\SRC\FF\AMSDDS\DDI_ITEM.C|C:\USERS\PARTHASARTHI.BK\DESKTOP\SOURCES\BUILD\FDI EDD ENGINE\CODE\LEGACY\CODE\SRC\FF\AMSDDS\DDI_LANG.C|C:\USERS\PARTHASARTHI.BK\DESKTOP\SOURCES\BUILD\FDI EDD ENGINE\CODE\LEGACY\CODE\SRC\FF\AMSDDS\DDI_TAB.C|C:\USERS\PARTHASARTHI.BK\DESKTOP\SOURCES\BUILD\FDI EDD ENGINE\CODE\LEGACY\CODE\SRC\FF\AMSDDS\DDS_CHK.C|C:\USERS\PARTHASARTHI.BK\DESKTOP\SOURCES\BUILD\FDI EDD ENGINE\CODE\LEGACY\CODE\SRC\FF\AMSDDS\DDS_ERR.C|C:\USERS\PARTHASARTHI.BK\DESKTOP\SOURCES\BUILD\FDI EDD ENGINE\CODE\LEGACY\CODE\SRC\FF\AMSDDS\DDS_TAB.C|C:\USERS\PARTHASARTHI.BK\DESKTOP\SOURCES\BUILD\FDI EDD ENGINE\CODE\LEGACY\CODE\SRC\FF\AMSDDS\EVL_BASE.C|C:\USERS\PARTHASARTHI.BK\DESKTOP\SOURCES\BUILD\FDI EDD ENGINE\CODE\LEGACY\CODE\SRC\FF\AMSDDS\EVL_CLN.C|C:\USERS\PARTHASARTHI.BK\DESKTOP\SOURCES\BUILD\FDI EDD ENGINE\CODE\LEGACY\CODE\SRC\FF\AMSDDS\EVL_COND.C|C:\USERS\PARTHASARTHI.BK\DESKTOP\SOURCES\BUILD\FDI EDD ENGINE\CODE\LEGACY\CODE\SRC\FF\AMSDDS\EVL_DIR.C|C:\USERS\PARTHASARTHI.BK\DESKTOP\SOURCES\BUILD\FDI EDD ENGINE\CODE\LEGACY\CODE\SRC\FF\AMSDDS\EVL_ENUM.C|C:\USERS\PARTHASARTHI.BK\DESKTOP\SOURCES\BUILD\FDI EDD ENGINE\CODE\LEGACY\CODE\SRC\FF\AMSDDS\EVL_EXPR.C|C:\USERS\PARTHASARTHI.BK\DESKTOP\SOURCES\BUILD\FDI EDD ENGINE\CODE\LEGACY\CODE\SRC\FF\AMSDDS\EVL_IARY.C|C:\USERS\PARTHASARTHI.BK\DESKTOP\SOURCES\BUILD\FDI EDD ENGINE\CODE\LEGACY\CODE\SRC\FF\AMSDDS\EVL_ITEM.C|C:\USERS\PARTHASARTHI.BK\DESKTOP\SOURCES\BUILD\FDI EDD ENGINE\CODE\LEGACY\CODE\SRC\FF\AMSDDS\EVL_MEM.C|C:\USERS\PARTHASARTHI.BK\DESKTOP\SOURCES\BUILD\FDI EDD ENGINE\CODE\LEGACY\CODE\SRC\FF\AMSDDS\EVL_MENU.C|C:\USERS\PARTHASARTHI.BK\DESKTOP\SOURCES\BUILD\FDI EDD ENGINE\CODE\LEGACY\CODE\SRC\FF\AMSDDS\EVL_REF.C|C:\USERS\PARTHASARTHI.BK\DESKTOP\SOURCES\BUILD\FDI EDD ENGINE\CODE\LEGACY\CODE\SRC\FF\AMSDDS\EVL_REL.C|C:\USERS\PARTHASARTHI.BK\DESKTOP\SOURCES\BUILD\FDI EDD ENGINE\CODE\LEGACY\CODE\SRC\FF\AMSDDS\EVL_RESP.C|C:\USERS\PARTHASARTHI.BK\DESKTOP\SOURCES\BUILD\FDI EDD ENGINE\CODE\LEGACY\CODE\SRC\FF\AMSDDS\EVL_RSLV.C|C:\USERS\PARTHASARTHI.BK\DESKTOP\SOURCES\BUILD\FDI EDD ENGINE\CODE\LEGACY\CODE\SRC\FF\AMSDDS\EVL_STR.C|C:\USERS\PARTHASARTHI.BK\DESKTOP\SOURCES\BUILD\FDI EDD ENGINE\CODE\LEGACY\CODE\SRC\FF\AMSDDS\EVL_TMPL.C|C:\USERS\PARTHASARTHI.BK\DESKTOP\SOURCES\BUILD\FDI EDD ENGINE\CODE\LEGACY\CODE\SRC\FF\AMSDDS\EVL_TRAN.C|C:\USERS\PARTHASARTHI.BK\DESKTOP\SOURCES\BUILD\FDI EDD ENGINE\CODE\LEGACY\CODE\SRC\FF\AMSDDS\EVL_TYPE.C|C:\USERS\PARTHASARTHI.BK\DESKTOP\SOURCES\BUILD\FDI EDD ENGINE\CODE\LEGACY\CODE\SRC\FF\AMSDDS\FCH_RDIR.C|C:\USERS\PARTHASARTHI.BK\DESKTOP\SOURCES\BUILD\FDI EDD ENGINE\CODE\LEGACY\CODE\SRC\FF\AMSDDS\FCH_RITM.C|C:\USERS\PARTHASARTHI.BK\DESKTOP\SOURCES\BUILD\FDI EDD ENGINE\CODE\LEGACY\CODE\SRC\FF\AMSDDS\FCH_RODF.C|C:\USERS\PARTHASARTHI.BK\DESKTOP\SOURCES\BUILD\FDI EDD ENGINE\CODE\LEGACY\CODE\SRC\FF\AMSDDS\FCH_SLCT.C
C:\USERS\PARTHASARTHI.BK\DESKTOP\SOURCES\BUILD\FDI EDD ENGINE\CODE\LEGACY\CODE\SRC\FF\AMSDDS\DEBUG\WIN32\AMSDDS.PDB
C:\USERS\PARTHASARTHI.BK\DESKTOP\SOURCES\BUILD\FDI EDD ENGINE\CODE\LEGACY\CODE\SRC\FF\AMSDDS\DEBUG\WIN32\DDI_CMI.SBR
C:\USERS\PARTHASARTHI.BK\DESKTOP\SOURCES\BUILD\FDI EDD ENGINE\CODE\LEGACY\CODE\SRC\FF\AMSDDS\DEBUG\WIN32\DDI_CONV.SBR
C:\USERS\PARTHASARTHI.BK\DESKTOP\SOURCES\BUILD\FDI EDD ENGINE\CODE\LEGACY\CODE\SRC\FF\AMSDDS\DEBUG\WIN32\DDI_DIR.SBR
C:\USERS\PARTHASARTHI.BK\DESKTOP\SOURCES\BUILD\FDI EDD ENGINE\CODE\LEGACY\CODE\SRC\FF\AMSDDS\DEBUG\WIN32\DDI_ITEM.SBR
C:\USERS\PARTHASARTHI.BK\DESKTOP\SOURCES\BUILD\FDI EDD ENGINE\CODE\LEGACY\CODE\SRC\FF\AMSDDS\DEBUG\WIN32\DDI_LANG.SBR
C:\USERS\PARTHASARTHI.BK\DESKTOP\SOURCES\BUILD\FDI EDD ENGINE\CODE\LEGACY\CODE\SRC\FF\AMSDDS\DEBUG\WIN32\DDI_TAB.SBR
C:\USERS\PARTHASARTHI.BK\DESKTOP\SOURCES\BUILD\FDI EDD ENGINE\CODE\LEGACY\CODE\SRC\FF\AMSDDS\DEBUG\WIN32\DDS_CHK.SBR
C:\USERS\PARTHASARTHI.BK\DESKTOP\SOURCES\BUILD\FDI EDD ENGINE\CODE\LEGACY\CODE\SRC\FF\AMSDDS\DEBUG\WIN32\DDS_ERR.SBR
C:\USERS\PARTHASARTHI.BK\DESKTOP\SOURCES\BUILD\FDI EDD ENGINE\CODE\LEGACY\CODE\SRC\FF\AMSDDS\DEBUG\WIN32\DDS_TAB.SBR
C:\USERS\PARTHASARTHI.BK\DESKTOP\SOURCES\BUILD\FDI EDD ENGINE\CODE\LEGACY\CODE\SRC\FF\AMSDDS\DEBUG\WIN32\EVL_BASE.SBR
C:\USERS\PARTHASARTHI.BK\DESKTOP\SOURCES\BUILD\FDI EDD ENGINE\CODE\LEGACY\CODE\SRC\FF\AMSDDS\DEBUG\WIN32\EVL_CLN.SBR
C:\USERS\PARTHASARTHI.BK\DESKTOP\SOURCES\BUILD\FDI EDD ENGINE\CODE\LEGACY\CODE\SRC\FF\AMSDDS\DEBUG\WIN32\EVL_COND.SBR
C:\USERS\PARTHASARTHI.BK\DESKTOP\SOURCES\BUILD\FDI EDD ENGINE\CODE\LEGACY\CODE\SRC\FF\AMSDDS\DEBUG\WIN32\EVL_DIR.SBR
C:\USERS\PARTHASARTHI.BK\DESKTOP\SOURCES\BUILD\FDI EDD ENGINE\CODE\LEGACY\CODE\SRC\FF\AMSDDS\DEBUG\WIN32\EVL_ENUM.SBR
C:\USERS\PARTHASARTHI.BK\DESKTOP\SOURCES\BUILD\FDI EDD ENGINE\CODE\LEGACY\CODE\SRC\FF\AMSDDS\DEBUG\WIN32\EVL_EXPR.SBR
C:\USERS\PARTHASARTHI.BK\DESKTOP\SOURCES\BUILD\FDI EDD ENGINE\CODE\LEGACY\CODE\SRC\FF\AMSDDS\DEBUG\WIN32\EVL_IARY.SBR
C:\USERS\PARTHASARTHI.BK\DESKTOP\SOURCES\BUILD\FDI EDD ENGINE\CODE\LEGACY\CODE\SRC\FF\AMSDDS\DEBUG\WIN32\EVL_ITEM.SBR
C:\USERS\PARTHASARTHI.BK\DESKTOP\SOURCES\BUILD\FDI EDD ENGINE\CODE\LEGACY\CODE\SRC\FF\AMSDDS\DEBUG\WIN32\EVL_MEM.SBR
C:\USERS\PARTHASARTHI.BK\DESKTOP\SOURCES\BUILD\FDI EDD ENGINE\CODE\LEGACY\CODE\SRC\FF\AMSDDS\DEBUG\WIN32\EVL_MENU.SBR
C:\USERS\PARTHASARTHI.BK\DESKTOP\SOURCES\BUILD\FDI EDD ENGINE\CODE\LEGACY\CODE\SRC\FF\AMSDDS\DEBUG\WIN32\EVL_REF.SBR
C:\USERS\PARTHASARTHI.BK\DESKTOP\SOURCES\BUILD\FDI EDD ENGINE\CODE\LEGACY\CODE\SRC\FF\AMSDDS\DEBUG\WIN32\EVL_REF.OBJ
C:\USERS\PARTHASARTHI.BK\DESKTOP\SOURCES\BUILD\FDI EDD ENGINE\CODE\LEGACY\CODE\SRC\FF\AMSDDS\DEBUG\WIN32\EVL_MENU.OBJ
C:\USERS\PARTHASARTHI.BK\DESKTOP\SOURCES\BUILD\FDI EDD ENGINE\CODE\LEGACY\CODE\SRC\FF\AMSDDS\DEBUG\WIN32\EVL_MEM.OBJ
C:\USERS\PARTHASARTHI.BK\DESKTOP\SOURCES\BUILD\FDI EDD ENGINE\CODE\LEGACY\CODE\SRC\FF\AMSDDS\DEBUG\WIN32\EVL_ITEM.OBJ
C:\USERS\PARTHASARTHI.BK\DESKTOP\SOURCES\BUILD\FDI EDD ENGINE\CODE\LEGACY\CODE\SRC\FF\AMSDDS\DEBUG\WIN32\EVL_IARY.OBJ
C:\USERS\PARTHASARTHI.BK\DESKTOP\SOURCES\BUILD\FDI EDD ENGINE\CODE\LEGACY\CODE\SRC\FF\AMSDDS\DEBUG\WIN32\EVL_EXPR.OBJ
C:\USERS\PARTHASARTHI.BK\DESKTOP\SOURCES\BUILD\FDI EDD ENGINE\CODE\LEGACY\CODE\SRC\FF\AMSDDS\DEBUG\WIN32\EVL_ENUM.OBJ
C:\USERS\PARTHASARTHI.BK\DESKTOP\SOURCES\BUILD\FDI EDD ENGINE\CODE\LEGACY\CODE\SRC\FF\AMSDDS\DEBUG\WIN32\EVL_DIR.OBJ
C:\USERS\PARTHASARTHI.BK\DESKTOP\SOURCES\BUILD\FDI EDD ENGINE\CODE\LEGACY\CODE\SRC\FF\AMSDDS\DEBUG\WIN32\EVL_COND.OBJ
C:\USERS\PARTHASARTHI.BK\DESKTOP\SOURCES\BUILD\FDI EDD ENGINE\CODE\LEGACY\CODE\SRC\FF\AMSDDS\DEBUG\WIN32\EVL_CLN.OBJ
C:\USERS\PARTHASARTHI.BK\DESKTOP\SOURCES\BUILD\FDI EDD ENGINE\CODE\LEGACY\CODE\SRC\FF\AMSDDS\DEBUG\WIN32\EVL_BASE.OBJ
C:\USERS\PARTHASARTHI.BK\DESKTOP\SOURCES\BUILD\FDI EDD ENGINE\CODE\LEGACY\CODE\SRC\FF\AMSDDS\DEBUG\WIN32\DDS_TAB.OBJ
C:\USERS\PARTHASARTHI.BK\DESKTOP\SOURCES\BUILD\FDI EDD ENGINE\CODE\LEGACY\CODE\SRC\FF\AMSDDS\DEBUG\WIN32\DDS_ERR.OBJ
C:\USERS\PARTHASARTHI.BK\DESKTOP\SOURCES\BUILD\FDI EDD ENGINE\CODE\LEGACY\CODE\SRC\FF\AMSDDS\DEBUG\WIN32\DDS_CHK.OBJ
C:\USERS\PARTHASARTHI.BK\DESKTOP\SOURCES\BUILD\FDI EDD ENGINE\CODE\LEGACY\CODE\SRC\FF\AMSDDS\DEBUG\WIN32\DDI_TAB.OBJ
C:\USERS\PARTHASARTHI.BK\DESKTOP\SOURCES\BUILD\FDI EDD ENGINE\CODE\LEGACY\CODE\SRC\FF\AMSDDS\DEBUG\WIN32\DDI_LANG.OBJ
C:\USERS\PARTHASARTHI.BK\DESKTOP\SOURCES\BUILD\FDI EDD ENGINE\CODE\LEGACY\CODE\SRC\FF\AMSDDS\DEBUG\WIN32\DDI_ITEM.OBJ
C:\USERS\PARTHASARTHI.BK\DESKTOP\SOURCES\BUILD\FDI EDD ENGINE\CODE\LEGACY\CODE\SRC\FF\AMSDDS\DEBUG\WIN32\DDI_DIR.OBJ
C:\USERS\PARTHASARTHI.BK\DESKTOP\SOURCES\BUILD\FDI EDD ENGINE\CODE\LEGACY\CODE\SRC\FF\AMSDDS\DEBUG\WIN32\DDI_CONV.OBJ
C:\USERS\PARTHASARTHI.BK\DESKTOP\SOURCES\BUILD\FDI EDD ENGINE\CODE\LEGACY\CODE\SRC\FF\AMSDDS\DEBUG\WIN32\DDI_CMI.OBJ
C:\USERS\PARTHASARTHI.BK\DESKTOP\SOURCES\BUILD\FDI EDD ENGINE\CODE\LEGACY\CODE\SRC\FF\AMSDDS\DEBUG\WIN32\EVL_REL.SBR
C:\USERS\PARTHASARTHI.BK\DESKTOP\SOURCES\BUILD\FDI EDD ENGINE\CODE\LEGACY\CODE\SRC\FF\AMSDDS\DEBUG\WIN32\EVL_RESP.SBR
C:\USERS\PARTHASARTHI.BK\DESKTOP\SOURCES\BUILD\FDI EDD ENGINE\CODE\LEGACY\CODE\SRC\FF\AMSDDS\DEBUG\WIN32\EVL_RSLV.SBR
C:\USERS\PARTHASARTHI.BK\DESKTOP\SOURCES\BUILD\FDI EDD ENGINE\CODE\LEGACY\CODE\SRC\FF\AMSDDS\DEBUG\WIN32\EVL_STR.SBR
C:\USERS\PARTHASARTHI.BK\DESKTOP\SOURCES\BUILD\FDI EDD ENGINE\CODE\LEGACY\CODE\SRC\FF\AMSDDS\DEBUG\WIN32\EVL_TMPL.SBR
C:\USERS\PARTHASARTHI.BK\DESKTOP\SOURCES\BUILD\FDI EDD ENGINE\CODE\LEGACY\CODE\SRC\FF\AMSDDS\DEBUG\WIN32\EVL_TRAN.SBR
C:\USERS\PARTHASARTHI.BK\DESKTOP\SOURCES\BUILD\FDI EDD ENGINE\CODE\LEGACY\CODE\SRC\FF\AMSDDS\DEBUG\WIN32\EVL_TYPE.SBR
C:\USERS\PARTHASARTHI.BK\DESKTOP\SOURCES\BUILD\FDI EDD ENGINE\CODE\LEGACY\CODE\SRC\FF\AMSDDS\DEBUG\WIN32\FCH_RDIR.SBR
C:\USERS\PARTHASARTHI.BK\DESKTOP\SOURCES\BUILD\FDI EDD ENGINE\CODE\LEGACY\CODE\SRC\FF\AMSDDS\DEBUG\WIN32\FCH_RITM.SBR
C:\USERS\PARTHASARTHI.BK\DESKTOP\SOURCES\BUILD\FDI EDD ENGINE\CODE\LEGACY\CODE\SRC\FF\AMSDDS\DEBUG\WIN32\FCH_RODF.SBR
C:\USERS\PARTHASARTHI.BK\DESKTOP\SOURCES\BUILD\FDI EDD ENGINE\CODE\LEGACY\CODE\SRC\FF\AMSDDS\DEBUG\WIN32\FCH_SLCT.SBR
C:\USERS\PARTHASARTHI.BK\DESKTOP\SOURCES\BUILD\FDI EDD ENGINE\CODE\LEGACY\CODE\SRC\FF\AMSDDS\DEBUG\WIN32\FCH_SLCT.OBJ
C:\USERS\PARTHASARTHI.BK\DESKTOP\SOURCES\BUILD\FDI EDD ENGINE\CODE\LEGACY\CODE\SRC\FF\AMSDDS\DEBUG\WIN32\FCH_RODF.OBJ
C:\USERS\PARTHASARTHI.BK\DESKTOP\SOURCES\BUILD\FDI EDD ENGINE\CODE\LEGACY\CODE\SRC\FF\AMSDDS\DEBUG\WIN32\FCH_RITM.OBJ
C:\USERS\PARTHASARTHI.BK\DESKTOP\SOURCES\BUILD\FDI EDD ENGINE\CODE\LEGACY\CODE\SRC\FF\AMSDDS\DEBUG\WIN32\FCH_RDIR.OBJ
C:\USERS\PARTHASARTHI.BK\DESKTOP\SOURCES\BUILD\FDI EDD ENGINE\CODE\LEGACY\CODE\SRC\FF\AMSDDS\DEBUG\WIN32\EVL_TYPE.OBJ
C:\USERS\PARTHASARTHI.BK\DESKTOP\SOURCES\BUILD\FDI EDD ENGINE\CODE\LEGACY\CODE\SRC\FF\AMSDDS\DEBUG\WIN32\EVL_TRAN.OBJ
C:\USERS\PARTHASARTHI.BK\DESKTOP\SOURCES\BUILD\FDI EDD ENGINE\CODE\LEGACY\CODE\SRC\FF\AMSDDS\DEBUG\WIN32\EVL_TMPL.OBJ
C:\USERS\PARTHASARTHI.BK\DESKTOP\SOURCES\BUILD\FDI EDD ENGINE\CODE\LEGACY\CODE\SRC\FF\AMSDDS\DEBUG\WIN32\EVL_STR.OBJ
C:\USERS\PARTHASARTHI.BK\DESKTOP\SOURCES\BUILD\FDI EDD ENGINE\CODE\LEGACY\CODE\SRC\FF\AMSDDS\DEBUG\WIN32\EVL_RSLV.OBJ
C:\USERS\PARTHASARTHI.BK\DESKTOP\SOURCES\BUILD\FDI EDD ENGINE\CODE\LEGACY\CODE\SRC\FF\AMSDDS\DEBUG\WIN32\EVL_RESP.OBJ
C:\USERS\PARTHASARTHI.BK\DESKTOP\SOURCES\BUILD\FDI EDD ENGINE\CODE\LEGACY\CODE\SRC\FF\AMSDDS\DEBUG\WIN32\EVL_REL.OBJ
^C:\USERS\PARTHASARTHI.BK\DESKTOP\SOURCES\BUILD\FDI EDD ENGINE\CODE\LEGACY\CODE\SRC\FF\AMSDDS\DDI_CMI.C
C:\USERS\PARTHASARTHI.BK\DESKTOP\SOURCES\BUILD\FDI EDD ENGINE\CODE\LEGACY\CODE\SRC\FF\AMSDDS\DEBUG\WIN32\AMSDDS.PDB
^C:\USERS\PARTHASARTHI.BK\DESKTOP\SOURCES\BUILD\FDI EDD ENGINE\CODE\LEGACY\CODE\SRC\FF\AMSDDS\DDI_CONV.C
C:\USERS\PARTHASARTHI.BK\DESKTOP\SOURCES\BUILD\FDI EDD ENGINE\CODE\LEGACY\CODE\SRC\FF\AMSDDS\DEBUG\WIN32\AMSDDS.PDB
^C:\USERS\PARTHASARTHI.BK\DESKTOP\SOURCES\BUILD\FDI EDD ENGINE\CODE\LEGACY\CODE\SRC\FF\AMSDDS\DDI_DIR.C
C:\USERS\PARTHASARTHI.BK\DESKTOP\SOURCES\BUILD\FDI EDD ENGINE\CODE\LEGACY\CODE\SRC\FF\AMSDDS\DEBUG\WIN32\AMSDDS.PDB
^C:\USERS\PARTHASARTHI.BK\DESKTOP\SOURCES\BUILD\FDI EDD ENGINE\CODE\LEGACY\CODE\SRC\FF\AMSDDS\DDI_ITEM.C
C:\USERS\PARTHASARTHI.BK\DESKTOP\SOURCES\BUILD\FDI EDD ENGINE\CODE\LEGACY\CODE\SRC\FF\AMSDDS\DEBUG\WIN32\AMSDDS.PDB
^C:\USERS\PARTHASARTHI.BK\DESKTOP\SOURCES\BUILD\FDI EDD ENGINE\CODE\LEGACY\CODE\SRC\FF\AMSDDS\DDI_LANG.C
C:\USERS\PARTHASARTHI.BK\DESKTOP\SOURCES\BUILD\FDI EDD ENGINE\CODE\LEGACY\CODE\SRC\FF\AMSDDS\DEBUG\WIN32\AMSDDS.PDB
^C:\USERS\PARTHASARTHI.BK\DESKTOP\SOURCES\BUILD\FDI EDD ENGINE\CODE\LEGACY\CODE\SRC\FF\AMSDDS\DDI_TAB.C
C:\USERS\PARTHASARTHI.BK\DESKTOP\SOURCES\BUILD\FDI EDD ENGINE\CODE\LEGACY\CODE\SRC\FF\AMSDDS\DEBUG\WIN32\AMSDDS.PDB
^C:\USERS\PARTHASARTHI.BK\DESKTOP\SOURCES\BUILD\FDI EDD ENGINE\CODE\LEGACY\CODE\SRC\FF\AMSDDS\DDS_CHK.C
C:\USERS\PARTHASARTHI.BK\DESKTOP\SOURCES\BUILD\FDI EDD ENGINE\CODE\LEGACY\CODE\SRC\FF\AMSDDS\DEBUG\WIN32\AMSDDS.PDB
^C:\USERS\PARTHASARTHI.BK\DESKTOP\SOURCES\BUILD\FDI EDD ENGINE\CODE\LEGACY\CODE\SRC\FF\AMSDDS\DDS_ERR.C
C:\USERS\PARTHASARTHI.BK\DESKTOP\SOURCES\BUILD\FDI EDD ENGINE\CODE\LEGACY\CODE\SRC\FF\AMSDDS\DEBUG\WIN32\AMSDDS.PDB
^C:\USERS\PARTHASARTHI.BK\DESKTOP\SOURCES\BUILD\FDI EDD ENGINE\CODE\LEGACY\CODE\SRC\FF\AMSDDS\DDS_TAB.C
C:\USERS\PARTHASARTHI.BK\DESKTOP\SOURCES\BUILD\FDI EDD ENGINE\CODE\LEGACY\CODE\SRC\FF\AMSDDS\DEBUG\WIN32\AMSDDS.PDB
^C:\USERS\PARTHASARTHI.BK\DESKTOP\SOURCES\BUILD\FDI EDD ENGINE\CODE\LEGACY\CODE\SRC\FF\AMSDDS\EVL_BASE.C
C:\USERS\PARTHASARTHI.BK\DESKTOP\SOURCES\BUILD\FDI EDD ENGINE\CODE\LEGACY\CODE\SRC\FF\AMSDDS\DEBUG\WIN32\AMSDDS.PDB
^C:\USERS\PARTHASARTHI.BK\DESKTOP\SOURCES\BUILD\FDI EDD ENGINE\CODE\LEGACY\CODE\SRC\FF\AMSDDS\EVL_CLN.C
C:\USERS\PARTHASARTHI.BK\DESKTOP\SOURCES\BUILD\FDI EDD ENGINE\CODE\LEGACY\CODE\SRC\FF\AMSDDS\DEBUG\WIN32\AMSDDS.PDB
^C:\USERS\PARTHASARTHI.BK\DESKTOP\SOURCES\BUILD\FDI EDD ENGINE\CODE\LEGACY\CODE\SRC\FF\AMSDDS\EVL_COND.C
C:\USERS\PARTHASARTHI.BK\DESKTOP\SOURCES\BUILD\FDI EDD ENGINE\CODE\LEGACY\CODE\SRC\FF\AMSDDS\DEBUG\WIN32\AMSDDS.PDB
^C:\USERS\PARTHASARTHI.BK\DESKTOP\SOURCES\BUILD\FDI EDD ENGINE\CODE\LEGACY\CODE\SRC\FF\AMSDDS\EVL_DIR.C
C:\USERS\PARTHASARTHI.BK\DESKTOP\SOURCES\BUILD\FDI EDD ENGINE\CODE\LEGACY\CODE\SRC\FF\AMSDDS\DEBUG\WIN32\AMSDDS.PDB
^C:\USERS\PARTHASARTHI.BK\DESKTOP\SOURCES\BUILD\FDI EDD ENGINE\CODE\LEGACY\CODE\SRC\FF\AMSDDS\EVL_ENUM.C
C:\USERS\PARTHASARTHI.BK\DESKTOP\SOURCES\BUILD\FDI EDD ENGINE\CODE\LEGACY\CODE\SRC\FF\AMSDDS\DEBUG\WIN32\AMSDDS.PDB
^C:\USERS\PARTHASARTHI.BK\DESKTOP\SOURCES\BUILD\FDI EDD ENGINE\CODE\LEGACY\CODE\SRC\FF\AMSDDS\EVL_EXPR.C
C:\USERS\PARTHASARTHI.BK\DESKTOP\SOURCES\BUILD\FDI EDD ENGINE\CODE\LEGACY\CODE\SRC\FF\AMSDDS\DEBUG\WIN32\AMSDDS.PDB
^C:\USERS\PARTHASARTHI.BK\DESKTOP\SOURCES\BUILD\FDI EDD ENGINE\CODE\LEGACY\CODE\SRC\FF\AMSDDS\EVL_IARY.C
C:\USERS\PARTHASARTHI.BK\DESKTOP\SOURCES\BUILD\FDI EDD ENGINE\CODE\LEGACY\CODE\SRC\FF\AMSDDS\DEBUG\WIN32\AMSDDS.PDB
^C:\USERS\PARTHASARTHI.BK\DESKTOP\SOURCES\BUILD\FDI EDD ENGINE\CODE\LEGACY\CODE\SRC\FF\AMSDDS\EVL_ITEM.C
C:\USERS\PARTHASARTHI.BK\DESKTOP\SOURCES\BUILD\FDI EDD ENGINE\CODE\LEGACY\CODE\SRC\FF\AMSDDS\DEBUG\WIN32\AMSDDS.PDB
^C:\USERS\PARTHASARTHI.BK\DESKTOP\SOURCES\BUILD\FDI EDD ENGINE\CODE\LEGACY\CODE\SRC\FF\AMSDDS\EVL_MEM.C
C:\USERS\PARTHASARTHI.BK\DESKTOP\SOURCES\BUILD\FDI EDD ENGINE\CODE\LEGACY\CODE\SRC\FF\AMSDDS\DEBUG\WIN32\AMSDDS.PDB
^C:\USERS\PARTHASARTHI.BK\DESKTOP\SOURCES\BUILD\FDI EDD ENGINE\CODE\LEGACY\CODE\SRC\FF\AMSDDS\EVL_MENU.C
C:\USERS\PARTHASARTHI.BK\DESKTOP\SOURCES\BUILD\FDI EDD ENGINE\CODE\LEGACY\CODE\SRC\FF\AMSDDS\DEBUG\WIN32\AMSDDS.PDB
^C:\USERS\PARTHASARTHI.BK\DESKTOP\SOURCES\BUILD\FDI EDD ENGINE\CODE\LEGACY\CODE\SRC\FF\AMSDDS\EVL_REF.C
C:\USERS\PARTHASARTHI.BK\DESKTOP\SOURCES\BUILD\FDI EDD ENGINE\CODE\LEGACY\CODE\SRC\FF\AMSDDS\DEBUG\WIN32\AMSDDS.PDB
^C:\USERS\PARTHASARTHI.BK\DESKTOP\SOURCES\BUILD\FDI EDD ENGINE\CODE\LEGACY\CODE\SRC\FF\AMSDDS\EVL_REL.C
C:\USERS\PARTHASARTHI.BK\DESKTOP\SOURCES\BUILD\FDI EDD ENGINE\CODE\LEGACY\CODE\SRC\FF\AMSDDS\DEBUG\WIN32\AMSDDS.PDB
^C:\USERS\PARTHASARTHI.BK\DESKTOP\SOURCES\BUILD\FDI EDD ENGINE\CODE\LEGACY\CODE\SRC\FF\AMSDDS\EVL_RESP.C
C:\USERS\PARTHASARTHI.BK\DESKTOP\SOURCES\BUILD\FDI EDD ENGINE\CODE\LEGACY\CODE\SRC\FF\AMSDDS\DEBUG\WIN32\AMSDDS.PDB
^C:\USERS\PARTHASARTHI.BK\DESKTOP\SOURCES\BUILD\FDI EDD ENGINE\CODE\LEGACY\CODE\SRC\FF\AMSDDS\EVL_RSLV.C
C:\USERS\PARTHASARTHI.BK\DESKTOP\SOURCES\BUILD\FDI EDD ENGINE\CODE\LEGACY\CODE\SRC\FF\AMSDDS\DEBUG\WIN32\AMSDDS.PDB
^C:\USERS\PARTHASARTHI.BK\DESKTOP\SOURCES\BUILD\FDI EDD ENGINE\CODE\LEGACY\CODE\SRC\FF\AMSDDS\EVL_STR.C
C:\USERS\PARTHASARTHI.BK\DESKTOP\SOURCES\BUILD\FDI EDD ENGINE\CODE\LEGACY\CODE\SRC\FF\AMSDDS\DEBUG\WIN32\AMSDDS.PDB
^C:\USERS\PARTHASARTHI.BK\DESKTOP\SOURCES\BUILD\FDI EDD ENGINE\CODE\LEGACY\CODE\SRC\FF\AMSDDS\EVL_TMPL.C
C:\USERS\PARTHASARTHI.BK\DESKTOP\SOURCES\BUILD\FDI EDD ENGINE\CODE\LEGACY\CODE\SRC\FF\AMSDDS\DEBUG\WIN32\AMSDDS.PDB
^C:\USERS\PARTHASARTHI.BK\DESKTOP\SOURCES\BUILD\FDI EDD ENGINE\CODE\LEGACY\CODE\SRC\FF\AMSDDS\EVL_TRAN.C
C:\USERS\PARTHASARTHI.BK\DESKTOP\SOURCES\BUILD\FDI EDD ENGINE\CODE\LEGACY\CODE\SRC\FF\AMSDDS\DEBUG\WIN32\AMSDDS.PDB
^C:\USERS\PARTHASARTHI.BK\DESKTOP\SOURCES\BUILD\FDI EDD ENGINE\CODE\LEGACY\CODE\SRC\FF\AMSDDS\EVL_TYPE.C
C:\USERS\PARTHASARTHI.BK\DESKTOP\SOURCES\BUILD\FDI EDD ENGINE\CODE\LEGACY\CODE\SRC\FF\AMSDDS\DEBUG\WIN32\AMSDDS.PDB
^C:\USERS\PARTHASARTHI.BK\DESKTOP\SOURCES\BUILD\FDI EDD ENGINE\CODE\LEGACY\CODE\SRC\FF\AMSDDS\FCH_RDIR.C
C:\USERS\PARTHASARTHI.BK\DESKTOP\SOURCES\BUILD\FDI EDD ENGINE\CODE\LEGACY\CODE\SRC\FF\AMSDDS\DEBUG\WIN32\AMSDDS.PDB
^C:\USERS\PARTHASARTHI.BK\DESKTOP\SOURCES\BUILD\FDI EDD ENGINE\CODE\LEGACY\CODE\SRC\FF\AMSDDS\FCH_RITM.C
C:\USERS\PARTHASARTHI.BK\DESKTOP\SOURCES\BUILD\FDI EDD ENGINE\CODE\LEGACY\CODE\SRC\FF\AMSDDS\DEBUG\WIN32\AMSDDS.PDB
^C:\USERS\PARTHASARTHI.BK\DESKTOP\SOURCES\BUILD\FDI EDD ENGINE\CODE\LEGACY\CODE\SRC\FF\AMSDDS\FCH_RODF.C
C:\USERS\PARTHASARTHI.BK\DESKTOP\SOURCES\BUILD\FDI EDD ENGINE\CODE\LEGACY\CODE\SRC\FF\AMSDDS\DEBUG\WIN32\AMSDDS.PDB
^C:\USERS\PARTHASARTHI.BK\DESKTOP\SOURCES\BUILD\FDI EDD ENGINE\CODE\LEGACY\CODE\SRC\FF\AMSDDS\FCH_SLCT.C
C:\USERS\PARTHASARTHI.BK\DESKTOP\SOURCES\BUILD\FDI EDD ENGINE\CODE\LEGACY\CODE\SRC\FF\AMSDDS\DEBUG\WIN32\AMSDDS.PDB
