Current HART XML Test failures

HART\\00601A\\e0ad\\010a.fm8 - BssProgLog(1f28,Error,20000001,8192,536870913):
	Assertion failed: "!depbin_ptr->bin_chunk && !depbin_ptr->bin_size".
	d:\fdi edd engine\code\legacy\code\src\serverprojects\ddshart\dds_chk.cpp, 85

HART\\00601A\\e0ad\\0201.fm8 - BssProgLog(1ac8,Error,20000001,8192,536870913):  
	Assertion failed: "!depbin_ptr->bin_chunk && !depbin_ptr->bin_size".	
	d:\fdi edd engine\code\legacy\code\src\serverprojects\ddshart\dds_chk.cpp, 85

HART\\00601A\\e0ad\\0307.fm8 - BssProgLog( 94c,Error,20000001,8192,536870913):  
	Assertion failed: "!depbin_ptr->bin_chunk && !depbin_ptr->bin_size".	
	d:\fdi edd engine\code\legacy\code\src\serverprojects\ddshart\dds_chk.cpp, 85
