^C:\USERS\PARTHASARTHI.BK\DESKTOP\SOURCES\BUILD\FDI EDD ENGINE\CODE\LEGACY\CODE\SRC\OLE\EDDLMETHINTERP\MIENGINEINTERFACE\STDAFX.CPP
/c /I..\ /I..\COMMON /I..\..\..\..\..\..\INTERFACES\EDD_ENGINE_INTERFACES /I..\..\..\..\..\..\INC /I..\..\..\..\INC /I..\..\..\..\..\..\SRC\EDD_ENGINE_WINDOWS /I..\..\..\..\..\..\SRC\EDD_ENGINE_COMMON /I..\APPS\APPSUPPORT\INTERPRETER /Zi /nologo /W4 /WX- /Od /Oy- /D WIN32 /D _DEBUG /D _WINDOWS /D _USRDLL /D _CRT_SECURE_NO_WARNINGS /D _UNICODE /D UNICODE /D _AFXDLL /Gm- /EHsc /RTC1 /MDd /GS /Gy /fp:precise /Zc:wchar_t /Zc:forScope /Zc:inline /Yc"stdafx.h" /Fp"DEBUG\WIN32\MIENGINEINTERFACE.PCH" /Fo"DEBUG\WIN32\\" /Fd"DEBUG\WIN32\MIENGINEINTERFACE.PDB" /FR"Debug\Win32\\" /Gd /TP /analyze- C:\USERS\PARTHASARTHI.BK\DESKTOP\SOURCES\BUILD\FDI EDD ENGINE\CODE\LEGACY\CODE\SRC\OLE\EDDLMETHINTERP\MIENGINEINTERFACE\STDAFX.CPP
^C:\USERS\PARTHASARTHI.BK\DESKTOP\SOURCES\BUILD\FDI EDD ENGINE\CODE\LEGACY\CODE\SRC\OLE\EDDLMETHINTERP\MIENGINEINTERFACE\MIENGINE.CPP
/c /I..\ /I..\COMMON /I..\..\..\..\..\..\INTERFACES\EDD_ENGINE_INTERFACES /I..\..\..\..\..\..\INC /I..\..\..\..\INC /I..\..\..\..\..\..\SRC\EDD_ENGINE_WINDOWS /I..\..\..\..\..\..\SRC\EDD_ENGINE_COMMON /I..\APPS\APPSUPPORT\INTERPRETER /Zi /nologo /W4 /WX- /Od /Oy- /D WIN32 /D _DEBUG /D _WINDOWS /D _USRDLL /D _CRT_SECURE_NO_WARNINGS /D _UNICODE /D UNICODE /D _AFXDLL /Gm- /EHsc /RTC1 /MDd /GS /Gy /fp:precise /Zc:wchar_t /Zc:forScope /Zc:inline /Yu"stdafx.h" /Fp"DEBUG\WIN32\MIENGINEINTERFACE.PCH" /Fo"DEBUG\WIN32\\" /Fd"DEBUG\WIN32\MIENGINEINTERFACE.PDB" /FR"Debug\Win32\\" /Gd /TP /analyze- C:\USERS\PARTHASARTHI.BK\DESKTOP\SOURCES\BUILD\FDI EDD ENGINE\CODE\LEGACY\CODE\SRC\OLE\EDDLMETHINTERP\MIENGINEINTERFACE\MIENGINE.CPP
