^C:\USERS\PARTHASARTHI.BK\DESKTOP\SOURCES\BUILD\FDI EDD ENGINE\CODE\LEGACY\CODE\SRC\OLE\EDDLMETHINTERP\MIENGINEINTERFACE\STDAFX.CPP
C:\USERS\PARTHASARTHI.BK\DESKTOP\SOURCES\BUILD\FDI EDD ENGINE\CODE\LEGACY\CODE\SRC\OLE\EDDLMETHINTERP\MIENGINEINTERFACE\DEBUG\WIN32\MIENGINEINTERFACE.PCH
C:\USERS\PARTHASARTHI.BK\DESKTOP\SOURCES\BUILD\FDI EDD ENGINE\CODE\LEGACY\CODE\SRC\OLE\EDDLMETHINTERP\MIENGINEINTERFACE\DEBUG\WIN32\MIENGINEINTERFACE.PDB
C:\USERS\PARTHASARTHI.BK\DESKTOP\SOURCES\BUILD\FDI EDD ENGINE\CODE\LEGACY\CODE\SRC\OLE\EDDLMETHINTERP\MIENGINEINTERFACE\DEBUG\WIN32\STDAFX.SBR
C:\USERS\PARTHASARTHI.BK\DESKTOP\SOURCES\BUILD\FDI EDD ENGINE\CODE\LEGACY\CODE\SRC\OLE\EDDLMETHINTERP\MIENGINEINTERFACE\DEBUG\WIN32\STDAFX.OBJ
^C:\USERS\PARTHASARTHI.BK\DESKTOP\SOURCES\BUILD\FDI EDD ENGINE\CODE\LEGACY\CODE\SRC\OLE\EDDLMETHINTERP\MIENGINEINTERFACE\MIENGINE.CPP
C:\USERS\PARTHASARTHI.BK\DESKTOP\SOURCES\BUILD\FDI EDD ENGINE\CODE\LEGACY\CODE\SRC\OLE\EDDLMETHINTERP\MIENGINEINTERFACE\DEBUG\WIN32\MIENGINEINTERFACE.PDB
C:\USERS\PARTHASARTHI.BK\DESKTOP\SOURCES\BUILD\FDI EDD ENGINE\CODE\LEGACY\CODE\SRC\OLE\EDDLMETHINTERP\MIENGINEINTERFACE\DEBUG\WIN32\MIENGINE.SBR
C:\USERS\PARTHASARTHI.BK\DESKTOP\SOURCES\BUILD\FDI EDD ENGINE\CODE\LEGACY\CODE\SRC\OLE\EDDLMETHINTERP\MIENGINEINTERFACE\DEBUG\WIN32\MIENGINE.OBJ
