^C:\USERS\PARTHASARTHI.BK\DESKTOP\SOURCES\BUILD\FDI EDD ENGINE\CODE\LEGACY\CODE\SRC\OLE\EDDLMETHINTERP\APPS\APPSUPPORT\DEVSERVICES\STDAFX.CPP
C:\USERS\PARTHASARTHI.BK\DESKTOP\SOURCES\BUILD\FDI EDD ENGINE\CODE\LEGACY\CODE\SRC\OLE\EDDLMETHINTERP\APPS\APPSUPPORT\DEVSERVICES\DEBUG\WIN32\DEVSERVICES.PCH
C:\USERS\PARTHASARTHI.BK\DESKTOP\SOURCES\BUILD\FDI EDD ENGINE\CODE\LEGACY\CODE\SRC\OLE\EDDLMETHINTERP\APPS\APPSUPPORT\DEVSERVICES\DEBUG\WIN32\DEVSERVICES.PDB
C:\USERS\PARTHASARTHI.BK\DESKTOP\SOURCES\BUILD\FDI EDD ENGINE\CODE\LEGACY\CODE\SRC\OLE\EDDLMETHINTERP\APPS\APPSUPPORT\DEVSERVICES\DEBUG\WIN32\STDAFX.SBR
C:\USERS\PARTHASARTHI.BK\DESKTOP\SOURCES\BUILD\FDI EDD ENGINE\CODE\LEGACY\CODE\SRC\OLE\EDDLMETHINTERP\APPS\APPSUPPORT\DEVSERVICES\DEBUG\WIN32\STDAFX.OBJ
^C:\USERS\PARTHASARTHI.BK\DESKTOP\SOURCES\BUILD\FDI EDD ENGINE\CODE\LEGACY\CODE\SRC\OLE\EDDLMETHINTERP\APPS\APPSUPPORT\BUILTINLIB\ABORTBUILTINS.CPP|C:\USERS\PARTHASARTHI.BK\DESKTOP\SOURCES\BUILD\FDI EDD ENGINE\CODE\LEGACY\CODE\SRC\OLE\EDDLMETHINTERP\APPS\APPSUPPORT\BUILTINLIB\BUILTIN.CPP|C:\USERS\PARTHASARTHI.BK\DESKTOP\SOURCES\BUILD\FDI EDD ENGINE\CODE\LEGACY\CODE\SRC\OLE\EDDLMETHINTERP\APPS\APPSUPPORT\BUILTINLIB\BUILTININFO.CPP|C:\USERS\PARTHASARTHI.BK\DESKTOP\SOURCES\BUILD\FDI EDD ENGINE\CODE\LEGACY\CODE\SRC\OLE\EDDLMETHINTERP\APPS\APPSUPPORT\BUILTINLIB\BUILTININVOKE.CPP|C:\USERS\PARTHASARTHI.BK\DESKTOP\SOURCES\BUILD\FDI EDD ENGINE\CODE\LEGACY\CODE\SRC\OLE\EDDLMETHINTERP\APPS\APPSUPPORT\BUILTINLIB\BUILTINMAPPER.CPP|C:\USERS\PARTHASARTHI.BK\DESKTOP\SOURCES\BUILD\FDI EDD ENGINE\CODE\LEGACY\CODE\SRC\OLE\EDDLMETHINTERP\APPS\APPSUPPORT\BUILTINLIB\BUILTINUTIL.CPP|C:\USERS\PARTHASARTHI.BK\DESKTOP\SOURCES\BUILD\FDI EDD ENGINE\CODE\LEGACY\CODE\SRC\OLE\EDDLMETHINTERP\APPS\APPSUPPORT\BUILTINLIB\DATETIMEBUILTINS.CPP|C:\USERS\PARTHASARTHI.BK\DESKTOP\SOURCES\BUILD\FDI EDD ENGINE\CODE\LEGACY\CODE\SRC\OLE\EDDLMETHINTERP\APPS\APPSUPPORT\BUILTINLIB\DELAY_BUILTIN.CPP|C:\USERS\PARTHASARTHI.BK\DESKTOP\SOURCES\BUILD\FDI EDD ENGINE\CODE\LEGACY\CODE\SRC\OLE\EDDLMETHINTERP\APPS\APPSUPPORT\BUILTINLIB\FFBUILTIN.CPP|C:\USERS\PARTHASARTHI.BK\DESKTOP\SOURCES\BUILD\FDI EDD ENGINE\CODE\LEGACY\CODE\SRC\OLE\EDDLMETHINTERP\APPS\APPSUPPORT\BUILTINLIB\HARTBUILTIN.CPP|C:\USERS\PARTHASARTHI.BK\DESKTOP\SOURCES\BUILD\FDI EDD ENGINE\CODE\LEGACY\CODE\SRC\OLE\EDDLMETHINTERP\APPS\APPSUPPORT\BUILTINLIB\INVOKEREPARAMHELPER.CPP|C:\USERS\PARTHASARTHI.BK\DESKTOP\SOURCES\BUILD\FDI EDD ENGINE\CODE\LEGACY\CODE\SRC\OLE\EDDLMETHINTERP\APPS\APPSUPPORT\BUILTINLIB\MATHBUILTINS.CPP|C:\USERS\PARTHASARTHI.BK\DESKTOP\SOURCES\BUILD\FDI EDD ENGINE\CODE\LEGACY\CODE\SRC\OLE\EDDLMETHINTERP\APPS\APPSUPPORT\BUILTINLIB\PREPOSTACTIONSBUILTINS.CPP|C:\USERS\PARTHASARTHI.BK\DESKTOP\SOURCES\BUILD\FDI EDD ENGINE\CODE\LEGACY\CODE\SRC\OLE\EDDLMETHINTERP\APPS\APPSUPPORT\BUILTINLIB\PROFIBUILTIN.CPP|C:\USERS\PARTHASARTHI.BK\DESKTOP\SOURCES\BUILD\FDI EDD ENGINE\CODE\LEGACY\CODE\SRC\OLE\EDDLMETHINTERP\APPS\APPSUPPORT\BUILTINLIB\RESOLVEBUILTINS.CPP|C:\USERS\PARTHASARTHI.BK\DESKTOP\SOURCES\BUILD\FDI EDD ENGINE\CODE\LEGACY\CODE\SRC\OLE\EDDLMETHINTERP\APPS\APPSUPPORT\BUILTINLIB\SENDCMDBUILTINS.CPP|C:\USERS\PARTHASARTHI.BK\DESKTOP\SOURCES\BUILD\FDI EDD ENGINE\CODE\LEGACY\CODE\SRC\OLE\EDDLMETHINTERP\APPS\APPSUPPORT\BUILTINLIB\SETBUILTINS.CPP|C:\USERS\PARTHASARTHI.BK\DESKTOP\SOURCES\BUILD\FDI EDD ENGINE\CODE\LEGACY\CODE\SRC\OLE\EDDLMETHINTERP\APPS\APPSUPPORT\BUILTINLIB\STRINGBUILTINS.CPP|C:\USERS\PARTHASARTHI.BK\DESKTOP\SOURCES\BUILD\FDI EDD ENGINE\CODE\LEGACY\CODE\SRC\OLE\EDDLMETHINTERP\APPS\APPSUPPORT\BUILTINLIB\UIBUILTINS.CPP|C:\USERS\PARTHASARTHI.BK\DESKTOP\SOURCES\BUILD\FDI EDD ENGINE\CODE\LEGACY\CODE\SRC\OLE\EDDLMETHINTERP\APPS\APPSUPPORT\DEVSERVICES\DDBATTRIBUTES.CPP|C:\USERS\PARTHASARTHI.BK\DESKTOP\SOURCES\BUILD\FDI EDD ENGINE\CODE\LEGACY\CODE\SRC\OLE\EDDLMETHINTERP\APPS\APPSUPPORT\DEVSERVICES\DDBCOMMAND.CPP|C:\USERS\PARTHASARTHI.BK\DESKTOP\SOURCES\BUILD\FDI EDD ENGINE\CODE\LEGACY\CODE\SRC\OLE\EDDLMETHINTERP\APPS\APPSUPPORT\DEVSERVICES\DDBDEVICE.CPP|C:\USERS\PARTHASARTHI.BK\DESKTOP\SOURCES\BUILD\FDI EDD ENGINE\CODE\LEGACY\CODE\SRC\OLE\EDDLMETHINTERP\APPS\APPSUPPORT\DEVSERVICES\DDBITEMBASE.CPP|C:\USERS\PARTHASARTHI.BK\DESKTOP\SOURCES\BUILD\FDI EDD ENGINE\CODE\LEGACY\CODE\SRC\OLE\EDDLMETHINTERP\APPS\APPSUPPORT\DEVSERVICES\DDBITEMLISTS.CPP|C:\USERS\PARTHASARTHI.BK\DESKTOP\SOURCES\BUILD\FDI EDD ENGINE\CODE\LEGACY\CODE\SRC\OLE\EDDLMETHINTERP\APPS\APPSUPPORT\DEVSERVICES\DDBLIST.CPP|C:\USERS\PARTHASARTHI.BK\DESKTOP\SOURCES\BUILD\FDI EDD ENGINE\CODE\LEGACY\CODE\SRC\OLE\EDDLMETHINTERP\APPS\APPSUPPORT\DEVSERVICES\DDBPRIMATIVES.CPP|C:\USERS\PARTHASARTHI.BK\DESKTOP\SOURCES\BUILD\FDI EDD ENGINE\CODE\LEGACY\CODE\SRC\OLE\EDDLMETHINTERP\APPS\APPSUPPORT\DEVSERVICES\DDBREFERENCE.CPP|C:\USERS\PARTHASARTHI.BK\DESKTOP\SOURCES\BUILD\FDI EDD ENGINE\CODE\LEGACY\CODE\SRC\OLE\EDDLMETHINTERP\APPS\APPSUPPORT\DEVSERVICES\FOUNDATION.CPP|C:\USERS\PARTHASARTHI.BK\DESKTOP\SOURCES\BUILD\FDI EDD ENGINE\CODE\LEGACY\CODE\SRC\OLE\EDDLMETHINTERP\APPS\APPSUPPORT\INTERPRETER\ARRAYEXPRESSION.CPP|C:\USERS\PARTHASARTHI.BK\DESKTOP\SOURCES\BUILD\FDI EDD ENGINE\CODE\LEGACY\CODE\SRC\OLE\EDDLMETHINTERP\APPS\APPSUPPORT\INTERPRETER\ASSIGNMENTSTATEMENT.CPP|C:\USERS\PARTHASARTHI.BK\DESKTOP\SOURCES\BUILD\FDI EDD ENGINE\CODE\LEGACY\CODE\SRC\OLE\EDDLMETHINTERP\APPS\APPSUPPORT\INTERPRETER\BREAKSTATEMENT.CPP|C:\USERS\PARTHASARTHI.BK\DESKTOP\SOURCES\BUILD\FDI EDD ENGINE\CODE\LEGACY\CODE\SRC\OLE\EDDLMETHINTERP\APPS\APPSUPPORT\INTERPRETER\CASESTATEMENT.CPP|C:\USERS\PARTHASARTHI.BK\DESKTOP\SOURCES\BUILD\FDI EDD ENGINE\CODE\LEGACY\CODE\SRC\OLE\EDDLMETHINTERP\APPS\APPSUPPORT\INTERPRETER\COMPLEXDDEXPRESSION.CPP|C:\USERS\PARTHASARTHI.BK\DESKTOP\SOURCES\BUILD\FDI EDD ENGINE\CODE\LEGACY\CODE\SRC\OLE\EDDLMETHINTERP\APPS\APPSUPPORT\INTERPRETER\COMPOUNDEXPRESSION.CPP|C:\USERS\PARTHASARTHI.BK\DESKTOP\SOURCES\BUILD\FDI EDD ENGINE\CODE\LEGACY\CODE\SRC\OLE\EDDLMETHINTERP\APPS\APPSUPPORT\INTERPRETER\COMPOUNDSTATEMENT.CPP|C:\USERS\PARTHASARTHI.BK\DESKTOP\SOURCES\BUILD\FDI EDD ENGINE\CODE\LEGACY\CODE\SRC\OLE\EDDLMETHINTERP\APPS\APPSUPPORT\INTERPRETER\CONTINUESTATEMENT.CPP|C:\USERS\PARTHASARTHI.BK\DESKTOP\SOURCES\BUILD\FDI EDD ENGINE\CODE\LEGACY\CODE\SRC\OLE\EDDLMETHINTERP\APPS\APPSUPPORT\INTERPRETER\DECLARATION.CPP|C:\USERS\PARTHASARTHI.BK\DESKTOP\SOURCES\BUILD\FDI EDD ENGINE\CODE\LEGACY\CODE\SRC\OLE\EDDLMETHINTERP\APPS\APPSUPPORT\INTERPRETER\DECLARATIONS.CPP|C:\USERS\PARTHASARTHI.BK\DESKTOP\SOURCES\BUILD\FDI EDD ENGINE\CODE\LEGACY\CODE\SRC\OLE\EDDLMETHINTERP\APPS\APPSUPPORT\INTERPRETER\ELSESTATEMENT.CPP|C:\USERS\PARTHASARTHI.BK\DESKTOP\SOURCES\BUILD\FDI EDD ENGINE\CODE\LEGACY\CODE\SRC\OLE\EDDLMETHINTERP\APPS\APPSUPPORT\INTERPRETER\EMPTYSTATEMENT.CPP|C:\USERS\PARTHASARTHI.BK\DESKTOP\SOURCES\BUILD\FDI EDD ENGINE\CODE\LEGACY\CODE\SRC\OLE\EDDLMETHINTERP\APPS\APPSUPPORT\INTERPRETER\EXPPARSER.CPP|C:\USERS\PARTHASARTHI.BK\DESKTOP\SOURCES\BUILD\FDI EDD ENGINE\CODE\LEGACY\CODE\SRC\OLE\EDDLMETHINTERP\APPS\APPSUPPORT\INTERPRETER\EXPRESSION.CPP|C:\USERS\PARTHASARTHI.BK\DESKTOP\SOURCES\BUILD\FDI EDD ENGINE\CODE\LEGACY\CODE\SRC\OLE\EDDLMETHINTERP\APPS\APPSUPPORT\INTERPRETER\FUNCTIONEXPRESSION.CPP|C:\USERS\PARTHASARTHI.BK\DESKTOP\SOURCES\BUILD\FDI EDD ENGINE\CODE\LEGACY\CODE\SRC\OLE\EDDLMETHINTERP\APPS\APPSUPPORT\INTERPRETER\GRAMMARNODE.CPP|C:\USERS\PARTHASARTHI.BK\DESKTOP\SOURCES\BUILD\FDI EDD ENGINE\CODE\LEGACY\CODE\SRC\OLE\EDDLMETHINTERP\APPS\APPSUPPORT\INTERPRETER\GRAMMARNODEVISITOR.CPP|C:\USERS\PARTHASARTHI.BK\DESKTOP\SOURCES\BUILD\FDI EDD ENGINE\CODE\LEGACY\CODE\SRC\OLE\EDDLMETHINTERP\APPS\APPSUPPORT\INTERPRETER\IFEXPRESSION.CPP|C:\USERS\PARTHASARTHI.BK\DESKTOP\SOURCES\BUILD\FDI EDD ENGINE\CODE\LEGACY\CODE\SRC\OLE\EDDLMETHINTERP\APPS\APPSUPPORT\INTERPRETER\INTERPRETEDVISITOR.CPP|C:\USERS\PARTHASARTHI.BK\DESKTOP\SOURCES\BUILD\FDI EDD ENGINE\CODE\LEGACY\CODE\SRC\OLE\EDDLMETHINTERP\APPS\APPSUPPORT\INTERPRETER\INTERPRETER.CPP|C:\USERS\PARTHASARTHI.BK\DESKTOP\SOURCES\BUILD\FDI EDD ENGINE\CODE\LEGACY\CODE\SRC\OLE\EDDLMETHINTERP\APPS\APPSUPPORT\INTERPRETER\INTER_SAFEARRAY.CPP|C:\USERS\PARTHASARTHI.BK\DESKTOP\SOURCES\BUILD\FDI EDD ENGINE\CODE\LEGACY\CODE\SRC\OLE\EDDLMETHINTERP\APPS\APPSUPPORT\INTERPRETER\INTER_VARIANT.CPP|C:\USERS\PARTHASARTHI.BK\DESKTOP\SOURCES\BUILD\FDI EDD ENGINE\CODE\LEGACY\CODE\SRC\OLE\EDDLMETHINTERP\APPS\APPSUPPORT\INTERPRETER\ITERATIONDOWHILE.CPP|C:\USERS\PARTHASARTHI.BK\DESKTOP\SOURCES\BUILD\FDI EDD ENGINE\CODE\LEGACY\CODE\SRC\OLE\EDDLMETHINTERP\APPS\APPSUPPORT\INTERPRETER\ITERATIONFOR.CPP|C:\USERS\PARTHASARTHI.BK\DESKTOP\SOURCES\BUILD\FDI EDD ENGINE\CODE\LEGACY\CODE\SRC\OLE\EDDLMETHINTERP\APPS\APPSUPPORT\INTERPRETER\ITERATIONSTATEMENT.CPP|C:\USERS\PARTHASARTHI.BK\DESKTOP\SOURCES\BUILD\FDI EDD ENGINE\CODE\LEGACY\CODE\SRC\OLE\EDDLMETHINTERP\APPS\APPSUPPORT\INTERPRETER\LEXICALANALYZER.CPP|C:\USERS\PARTHASARTHI.BK\DESKTOP\SOURCES\BUILD\FDI EDD ENGINE\CODE\LEGACY\CODE\SRC\OLE\EDDLMETHINTERP\APPS\APPSUPPORT\INTERPRETER\OMSERVICEEXPRESSION.CPP|C:\USERS\PARTHASARTHI.BK\DESKTOP\SOURCES\BUILD\FDI EDD ENGINE\CODE\LEGACY\CODE\SRC\OLE\EDDLMETHINTERP\APPS\APPSUPPORT\INTERPRETER\OPTIONALSTATEMENTS.CPP|C:\USERS\PARTHASARTHI.BK\DESKTOP\SOURCES\BUILD\FDI EDD ENGINE\CODE\LEGACY\CODE\SRC\OLE\EDDLMETHINTERP\APPS\APPSUPPORT\INTERPRETER\PARSEENGINE.CPP|C:\USERS\PARTHASARTHI.BK\DESKTOP\SOURCES\BUILD\FDI EDD ENGINE\CODE\LEGACY\CODE\SRC\OLE\EDDLMETHINTERP\APPS\APPSUPPORT\INTERPRETER\PARSER.CPP|C:\USERS\PARTHASARTHI.BK\DESKTOP\SOURCES\BUILD\FDI EDD ENGINE\CODE\LEGACY\CODE\SRC\OLE\EDDLMETHINTERP\APPS\APPSUPPORT\INTERPRETER\PARSERBUILDER.CPP|C:\USERS\PARTHASARTHI.BK\DESKTOP\SOURCES\BUILD\FDI EDD ENGINE\CODE\LEGACY\CODE\SRC\OLE\EDDLMETHINTERP\APPS\APPSUPPORT\INTERPRETER\PRIMARYEXPRESSION.CPP|C:\USERS\PARTHASARTHI.BK\DESKTOP\SOURCES\BUILD\FDI EDD ENGINE\CODE\LEGACY\CODE\SRC\OLE\EDDLMETHINTERP\APPS\APPSUPPORT\INTERPRETER\PROGRAM.CPP|C:\USERS\PARTHASARTHI.BK\DESKTOP\SOURCES\BUILD\FDI EDD ENGINE\CODE\LEGACY\CODE\SRC\OLE\EDDLMETHINTERP\APPS\APPSUPPORT\INTERPRETER\RETURNSTATEMENT.CPP|C:\USERS\PARTHASARTHI.BK\DESKTOP\SOURCES\BUILD\FDI EDD ENGINE\CODE\LEGACY\CODE\SRC\OLE\EDDLMETHINTERP\APPS\APPSUPPORT\INTERPRETER\RULESERVICESTATEMENT.CPP|C:\USERS\PARTHASARTHI.BK\DESKTOP\SOURCES\BUILD\FDI EDD ENGINE\CODE\LEGACY\CODE\SRC\OLE\EDDLMETHINTERP\APPS\APPSUPPORT\INTERPRETER\SELECTIONSTATEMENT.CPP|C:\USERS\PARTHASARTHI.BK\DESKTOP\SOURCES\BUILD\FDI EDD ENGINE\CODE\LEGACY\CODE\SRC\OLE\EDDLMETHINTERP\APPS\APPSUPPORT\INTERPRETER\SERVICESTATEMENT.CPP|C:\USERS\PARTHASARTHI.BK\DESKTOP\SOURCES\BUILD\FDI EDD ENGINE\CODE\LEGACY\CODE\SRC\OLE\EDDLMETHINTERP\APPS\APPSUPPORT\INTERPRETER\STATEMENT.CPP|C:\USERS\PARTHASARTHI.BK\DESKTOP\SOURCES\BUILD\FDI EDD ENGINE\CODE\LEGACY\CODE\SRC\OLE\EDDLMETHINTERP\APPS\APPSUPPORT\INTERPRETER\STATEMENTLIST.CPP|C:\USERS\PARTHASARTHI.BK\DESKTOP\SOURCES\BUILD\FDI EDD ENGINE\CODE\LEGACY\CODE\SRC\OLE\EDDLMETHINTERP\APPS\APPSUPPORT\INTERPRETER\SWITCHSTATEMENT.CPP|C:\USERS\PARTHASARTHI.BK\DESKTOP\SOURCES\BUILD\FDI EDD ENGINE\CODE\LEGACY\CODE\SRC\OLE\EDDLMETHINTERP\APPS\APPSUPPORT\INTERPRETER\SYMBOLTABLE.CPP|C:\USERS\PARTHASARTHI.BK\DESKTOP\SOURCES\BUILD\FDI EDD ENGINE\CODE\LEGACY\CODE\SRC\OLE\EDDLMETHINTERP\APPS\APPSUPPORT\INTERPRETER\SYNCHRONISATIONSET.CPP|C:\USERS\PARTHASARTHI.BK\DESKTOP\SOURCES\BUILD\FDI EDD ENGINE\CODE\LEGACY\CODE\SRC\OLE\EDDLMETHINTERP\APPS\APPSUPPORT\INTERPRETER\TOKEN.CPP|C:\USERS\PARTHASARTHI.BK\DESKTOP\SOURCES\BUILD\FDI EDD ENGINE\CODE\LEGACY\CODE\SRC\OLE\EDDLMETHINTERP\APPS\APPSUPPORT\INTERPRETER\TYPECHECKVISITOR.CPP|C:\USERS\PARTHASARTHI.BK\DESKTOP\SOURCES\BUILD\FDI EDD ENGINE\CODE\LEGACY\CODE\SRC\OLE\EDDLMETHINTERP\APPS\APPSUPPORT\INTERPRETER\VARIABLE.CPP|C:\USERS\PARTHASARTHI.BK\DESKTOP\SOURCES\BUILD\FDI EDD ENGINE\CODE\LEGACY\CODE\SRC\OLE\EDDLMETHINTERP\APPS\APPSUPPORT\MEE\MEE.CPP|C:\USERS\PARTHASARTHI.BK\DESKTOP\SOURCES\BUILD\FDI EDD ENGINE\CODE\LEGACY\CODE\SRC\OLE\EDDLMETHINTERP\COMMON\DDBDEFS.CPP
C:\USERS\PARTHASARTHI.BK\DESKTOP\SOURCES\BUILD\FDI EDD ENGINE\CODE\LEGACY\CODE\SRC\OLE\EDDLMETHINTERP\APPS\APPSUPPORT\DEVSERVICES\DEBUG\WIN32\DEVSERVICES.PDB
C:\USERS\PARTHASARTHI.BK\DESKTOP\SOURCES\BUILD\FDI EDD ENGINE\CODE\LEGACY\CODE\SRC\OLE\EDDLMETHINTERP\APPS\APPSUPPORT\DEVSERVICES\DEBUG\WIN32\FFBUILTIN.SBR
C:\USERS\PARTHASARTHI.BK\DESKTOP\SOURCES\BUILD\FDI EDD ENGINE\CODE\LEGACY\CODE\SRC\OLE\EDDLMETHINTERP\APPS\APPSUPPORT\DEVSERVICES\DEBUG\WIN32\DDBATTRIBUTES.SBR
C:\USERS\PARTHASARTHI.BK\DESKTOP\SOURCES\BUILD\FDI EDD ENGINE\CODE\LEGACY\CODE\SRC\OLE\EDDLMETHINTERP\APPS\APPSUPPORT\DEVSERVICES\DEBUG\WIN32\DDBCOMMAND.SBR
C:\USERS\PARTHASARTHI.BK\DESKTOP\SOURCES\BUILD\FDI EDD ENGINE\CODE\LEGACY\CODE\SRC\OLE\EDDLMETHINTERP\APPS\APPSUPPORT\DEVSERVICES\DEBUG\WIN32\DDBDEFS.SBR
C:\USERS\PARTHASARTHI.BK\DESKTOP\SOURCES\BUILD\FDI EDD ENGINE\CODE\LEGACY\CODE\SRC\OLE\EDDLMETHINTERP\APPS\APPSUPPORT\DEVSERVICES\DEBUG\WIN32\DDBDEVICE.SBR
C:\USERS\PARTHASARTHI.BK\DESKTOP\SOURCES\BUILD\FDI EDD ENGINE\CODE\LEGACY\CODE\SRC\OLE\EDDLMETHINTERP\APPS\APPSUPPORT\DEVSERVICES\DEBUG\WIN32\DDBITEMBASE.SBR
C:\USERS\PARTHASARTHI.BK\DESKTOP\SOURCES\BUILD\FDI EDD ENGINE\CODE\LEGACY\CODE\SRC\OLE\EDDLMETHINTERP\APPS\APPSUPPORT\DEVSERVICES\DEBUG\WIN32\DDBITEMLISTS.SBR
C:\USERS\PARTHASARTHI.BK\DESKTOP\SOURCES\BUILD\FDI EDD ENGINE\CODE\LEGACY\CODE\SRC\OLE\EDDLMETHINTERP\APPS\APPSUPPORT\DEVSERVICES\DEBUG\WIN32\DDBLIST.SBR
C:\USERS\PARTHASARTHI.BK\DESKTOP\SOURCES\BUILD\FDI EDD ENGINE\CODE\LEGACY\CODE\SRC\OLE\EDDLMETHINTERP\APPS\APPSUPPORT\DEVSERVICES\DEBUG\WIN32\DDBPRIMATIVES.SBR
C:\USERS\PARTHASARTHI.BK\DESKTOP\SOURCES\BUILD\FDI EDD ENGINE\CODE\LEGACY\CODE\SRC\OLE\EDDLMETHINTERP\APPS\APPSUPPORT\DEVSERVICES\DEBUG\WIN32\DDBREFERENCE.SBR
C:\USERS\PARTHASARTHI.BK\DESKTOP\SOURCES\BUILD\FDI EDD ENGINE\CODE\LEGACY\CODE\SRC\OLE\EDDLMETHINTERP\APPS\APPSUPPORT\DEVSERVICES\DEBUG\WIN32\FOUNDATION.SBR
C:\USERS\PARTHASARTHI.BK\DESKTOP\SOURCES\BUILD\FDI EDD ENGINE\CODE\LEGACY\CODE\SRC\OLE\EDDLMETHINTERP\APPS\APPSUPPORT\DEVSERVICES\DEBUG\WIN32\ARRAYEXPRESSION.SBR
C:\USERS\PARTHASARTHI.BK\DESKTOP\SOURCES\BUILD\FDI EDD ENGINE\CODE\LEGACY\CODE\SRC\OLE\EDDLMETHINTERP\APPS\APPSUPPORT\DEVSERVICES\DEBUG\WIN32\ASSIGNMENTSTATEMENT.SBR
C:\USERS\PARTHASARTHI.BK\DESKTOP\SOURCES\BUILD\FDI EDD ENGINE\CODE\LEGACY\CODE\SRC\OLE\EDDLMETHINTERP\APPS\APPSUPPORT\DEVSERVICES\DEBUG\WIN32\BREAKSTATEMENT.SBR
C:\USERS\PARTHASARTHI.BK\DESKTOP\SOURCES\BUILD\FDI EDD ENGINE\CODE\LEGACY\CODE\SRC\OLE\EDDLMETHINTERP\APPS\APPSUPPORT\DEVSERVICES\DEBUG\WIN32\CASESTATEMENT.SBR
C:\USERS\PARTHASARTHI.BK\DESKTOP\SOURCES\BUILD\FDI EDD ENGINE\CODE\LEGACY\CODE\SRC\OLE\EDDLMETHINTERP\APPS\APPSUPPORT\DEVSERVICES\DEBUG\WIN32\COMPLEXDDEXPRESSION.SBR
C:\USERS\PARTHASARTHI.BK\DESKTOP\SOURCES\BUILD\FDI EDD ENGINE\CODE\LEGACY\CODE\SRC\OLE\EDDLMETHINTERP\APPS\APPSUPPORT\DEVSERVICES\DEBUG\WIN32\COMPOUNDEXPRESSION.SBR
C:\USERS\PARTHASARTHI.BK\DESKTOP\SOURCES\BUILD\FDI EDD ENGINE\CODE\LEGACY\CODE\SRC\OLE\EDDLMETHINTERP\APPS\APPSUPPORT\DEVSERVICES\DEBUG\WIN32\COMPOUNDSTATEMENT.SBR
C:\USERS\PARTHASARTHI.BK\DESKTOP\SOURCES\BUILD\FDI EDD ENGINE\CODE\LEGACY\CODE\SRC\OLE\EDDLMETHINTERP\APPS\APPSUPPORT\DEVSERVICES\DEBUG\WIN32\CONTINUESTATEMENT.SBR
C:\USERS\PARTHASARTHI.BK\DESKTOP\SOURCES\BUILD\FDI EDD ENGINE\CODE\LEGACY\CODE\SRC\OLE\EDDLMETHINTERP\APPS\APPSUPPORT\DEVSERVICES\DEBUG\WIN32\DECLARATION.SBR
C:\USERS\PARTHASARTHI.BK\DESKTOP\SOURCES\BUILD\FDI EDD ENGINE\CODE\LEGACY\CODE\SRC\OLE\EDDLMETHINTERP\APPS\APPSUPPORT\DEVSERVICES\DEBUG\WIN32\DECLARATION.OBJ
C:\USERS\PARTHASARTHI.BK\DESKTOP\SOURCES\BUILD\FDI EDD ENGINE\CODE\LEGACY\CODE\SRC\OLE\EDDLMETHINTERP\APPS\APPSUPPORT\DEVSERVICES\DEBUG\WIN32\CONTINUESTATEMENT.OBJ
C:\USERS\PARTHASARTHI.BK\DESKTOP\SOURCES\BUILD\FDI EDD ENGINE\CODE\LEGACY\CODE\SRC\OLE\EDDLMETHINTERP\APPS\APPSUPPORT\DEVSERVICES\DEBUG\WIN32\COMPOUNDSTATEMENT.OBJ
C:\USERS\PARTHASARTHI.BK\DESKTOP\SOURCES\BUILD\FDI EDD ENGINE\CODE\LEGACY\CODE\SRC\OLE\EDDLMETHINTERP\APPS\APPSUPPORT\DEVSERVICES\DEBUG\WIN32\COMPOUNDEXPRESSION.OBJ
C:\USERS\PARTHASARTHI.BK\DESKTOP\SOURCES\BUILD\FDI EDD ENGINE\CODE\LEGACY\CODE\SRC\OLE\EDDLMETHINTERP\APPS\APPSUPPORT\DEVSERVICES\DEBUG\WIN32\COMPLEXDDEXPRESSION.OBJ
C:\USERS\PARTHASARTHI.BK\DESKTOP\SOURCES\BUILD\FDI EDD ENGINE\CODE\LEGACY\CODE\SRC\OLE\EDDLMETHINTERP\APPS\APPSUPPORT\DEVSERVICES\DEBUG\WIN32\CASESTATEMENT.OBJ
C:\USERS\PARTHASARTHI.BK\DESKTOP\SOURCES\BUILD\FDI EDD ENGINE\CODE\LEGACY\CODE\SRC\OLE\EDDLMETHINTERP\APPS\APPSUPPORT\DEVSERVICES\DEBUG\WIN32\BREAKSTATEMENT.OBJ
C:\USERS\PARTHASARTHI.BK\DESKTOP\SOURCES\BUILD\FDI EDD ENGINE\CODE\LEGACY\CODE\SRC\OLE\EDDLMETHINTERP\APPS\APPSUPPORT\DEVSERVICES\DEBUG\WIN32\ASSIGNMENTSTATEMENT.OBJ
C:\USERS\PARTHASARTHI.BK\DESKTOP\SOURCES\BUILD\FDI EDD ENGINE\CODE\LEGACY\CODE\SRC\OLE\EDDLMETHINTERP\APPS\APPSUPPORT\DEVSERVICES\DEBUG\WIN32\ARRAYEXPRESSION.OBJ
C:\USERS\PARTHASARTHI.BK\DESKTOP\SOURCES\BUILD\FDI EDD ENGINE\CODE\LEGACY\CODE\SRC\OLE\EDDLMETHINTERP\APPS\APPSUPPORT\DEVSERVICES\DEBUG\WIN32\FOUNDATION.OBJ
C:\USERS\PARTHASARTHI.BK\DESKTOP\SOURCES\BUILD\FDI EDD ENGINE\CODE\LEGACY\CODE\SRC\OLE\EDDLMETHINTERP\APPS\APPSUPPORT\DEVSERVICES\DEBUG\WIN32\DDBREFERENCE.OBJ
C:\USERS\PARTHASARTHI.BK\DESKTOP\SOURCES\BUILD\FDI EDD ENGINE\CODE\LEGACY\CODE\SRC\OLE\EDDLMETHINTERP\APPS\APPSUPPORT\DEVSERVICES\DEBUG\WIN32\DDBPRIMATIVES.OBJ
C:\USERS\PARTHASARTHI.BK\DESKTOP\SOURCES\BUILD\FDI EDD ENGINE\CODE\LEGACY\CODE\SRC\OLE\EDDLMETHINTERP\APPS\APPSUPPORT\DEVSERVICES\DEBUG\WIN32\DDBLIST.OBJ
C:\USERS\PARTHASARTHI.BK\DESKTOP\SOURCES\BUILD\FDI EDD ENGINE\CODE\LEGACY\CODE\SRC\OLE\EDDLMETHINTERP\APPS\APPSUPPORT\DEVSERVICES\DEBUG\WIN32\DDBITEMLISTS.OBJ
C:\USERS\PARTHASARTHI.BK\DESKTOP\SOURCES\BUILD\FDI EDD ENGINE\CODE\LEGACY\CODE\SRC\OLE\EDDLMETHINTERP\APPS\APPSUPPORT\DEVSERVICES\DEBUG\WIN32\DDBITEMBASE.OBJ
C:\USERS\PARTHASARTHI.BK\DESKTOP\SOURCES\BUILD\FDI EDD ENGINE\CODE\LEGACY\CODE\SRC\OLE\EDDLMETHINTERP\APPS\APPSUPPORT\DEVSERVICES\DEBUG\WIN32\DDBDEVICE.OBJ
C:\USERS\PARTHASARTHI.BK\DESKTOP\SOURCES\BUILD\FDI EDD ENGINE\CODE\LEGACY\CODE\SRC\OLE\EDDLMETHINTERP\APPS\APPSUPPORT\DEVSERVICES\DEBUG\WIN32\DDBDEFS.OBJ
C:\USERS\PARTHASARTHI.BK\DESKTOP\SOURCES\BUILD\FDI EDD ENGINE\CODE\LEGACY\CODE\SRC\OLE\EDDLMETHINTERP\APPS\APPSUPPORT\DEVSERVICES\DEBUG\WIN32\DDBCOMMAND.OBJ
C:\USERS\PARTHASARTHI.BK\DESKTOP\SOURCES\BUILD\FDI EDD ENGINE\CODE\LEGACY\CODE\SRC\OLE\EDDLMETHINTERP\APPS\APPSUPPORT\DEVSERVICES\DEBUG\WIN32\DDBATTRIBUTES.OBJ
C:\USERS\PARTHASARTHI.BK\DESKTOP\SOURCES\BUILD\FDI EDD ENGINE\CODE\LEGACY\CODE\SRC\OLE\EDDLMETHINTERP\APPS\APPSUPPORT\DEVSERVICES\DEBUG\WIN32\FFBUILTIN.OBJ
C:\USERS\PARTHASARTHI.BK\DESKTOP\SOURCES\BUILD\FDI EDD ENGINE\CODE\LEGACY\CODE\SRC\OLE\EDDLMETHINTERP\APPS\APPSUPPORT\DEVSERVICES\DEBUG\WIN32\DECLARATIONS.SBR
C:\USERS\PARTHASARTHI.BK\DESKTOP\SOURCES\BUILD\FDI EDD ENGINE\CODE\LEGACY\CODE\SRC\OLE\EDDLMETHINTERP\APPS\APPSUPPORT\DEVSERVICES\DEBUG\WIN32\ELSESTATEMENT.SBR
C:\USERS\PARTHASARTHI.BK\DESKTOP\SOURCES\BUILD\FDI EDD ENGINE\CODE\LEGACY\CODE\SRC\OLE\EDDLMETHINTERP\APPS\APPSUPPORT\DEVSERVICES\DEBUG\WIN32\EMPTYSTATEMENT.SBR
C:\USERS\PARTHASARTHI.BK\DESKTOP\SOURCES\BUILD\FDI EDD ENGINE\CODE\LEGACY\CODE\SRC\OLE\EDDLMETHINTERP\APPS\APPSUPPORT\DEVSERVICES\DEBUG\WIN32\EXPPARSER.SBR
C:\USERS\PARTHASARTHI.BK\DESKTOP\SOURCES\BUILD\FDI EDD ENGINE\CODE\LEGACY\CODE\SRC\OLE\EDDLMETHINTERP\APPS\APPSUPPORT\DEVSERVICES\DEBUG\WIN32\EXPRESSION.SBR
C:\USERS\PARTHASARTHI.BK\DESKTOP\SOURCES\BUILD\FDI EDD ENGINE\CODE\LEGACY\CODE\SRC\OLE\EDDLMETHINTERP\APPS\APPSUPPORT\DEVSERVICES\DEBUG\WIN32\FUNCTIONEXPRESSION.SBR
C:\USERS\PARTHASARTHI.BK\DESKTOP\SOURCES\BUILD\FDI EDD ENGINE\CODE\LEGACY\CODE\SRC\OLE\EDDLMETHINTERP\APPS\APPSUPPORT\DEVSERVICES\DEBUG\WIN32\GRAMMARNODE.SBR
C:\USERS\PARTHASARTHI.BK\DESKTOP\SOURCES\BUILD\FDI EDD ENGINE\CODE\LEGACY\CODE\SRC\OLE\EDDLMETHINTERP\APPS\APPSUPPORT\DEVSERVICES\DEBUG\WIN32\GRAMMARNODEVISITOR.SBR
C:\USERS\PARTHASARTHI.BK\DESKTOP\SOURCES\BUILD\FDI EDD ENGINE\CODE\LEGACY\CODE\SRC\OLE\EDDLMETHINTERP\APPS\APPSUPPORT\DEVSERVICES\DEBUG\WIN32\IFEXPRESSION.SBR
C:\USERS\PARTHASARTHI.BK\DESKTOP\SOURCES\BUILD\FDI EDD ENGINE\CODE\LEGACY\CODE\SRC\OLE\EDDLMETHINTERP\APPS\APPSUPPORT\DEVSERVICES\DEBUG\WIN32\INTER_SAFEARRAY.SBR
C:\USERS\PARTHASARTHI.BK\DESKTOP\SOURCES\BUILD\FDI EDD ENGINE\CODE\LEGACY\CODE\SRC\OLE\EDDLMETHINTERP\APPS\APPSUPPORT\DEVSERVICES\DEBUG\WIN32\INTER_VARIANT.SBR
C:\USERS\PARTHASARTHI.BK\DESKTOP\SOURCES\BUILD\FDI EDD ENGINE\CODE\LEGACY\CODE\SRC\OLE\EDDLMETHINTERP\APPS\APPSUPPORT\DEVSERVICES\DEBUG\WIN32\INTERPRETEDVISITOR.SBR
C:\USERS\PARTHASARTHI.BK\DESKTOP\SOURCES\BUILD\FDI EDD ENGINE\CODE\LEGACY\CODE\SRC\OLE\EDDLMETHINTERP\APPS\APPSUPPORT\DEVSERVICES\DEBUG\WIN32\INTERPRETER.SBR
C:\USERS\PARTHASARTHI.BK\DESKTOP\SOURCES\BUILD\FDI EDD ENGINE\CODE\LEGACY\CODE\SRC\OLE\EDDLMETHINTERP\APPS\APPSUPPORT\DEVSERVICES\DEBUG\WIN32\ITERATIONDOWHILE.SBR
C:\USERS\PARTHASARTHI.BK\DESKTOP\SOURCES\BUILD\FDI EDD ENGINE\CODE\LEGACY\CODE\SRC\OLE\EDDLMETHINTERP\APPS\APPSUPPORT\DEVSERVICES\DEBUG\WIN32\ITERATIONFOR.SBR
C:\USERS\PARTHASARTHI.BK\DESKTOP\SOURCES\BUILD\FDI EDD ENGINE\CODE\LEGACY\CODE\SRC\OLE\EDDLMETHINTERP\APPS\APPSUPPORT\DEVSERVICES\DEBUG\WIN32\ITERATIONSTATEMENT.SBR
C:\USERS\PARTHASARTHI.BK\DESKTOP\SOURCES\BUILD\FDI EDD ENGINE\CODE\LEGACY\CODE\SRC\OLE\EDDLMETHINTERP\APPS\APPSUPPORT\DEVSERVICES\DEBUG\WIN32\LEXICALANALYZER.SBR
C:\USERS\PARTHASARTHI.BK\DESKTOP\SOURCES\BUILD\FDI EDD ENGINE\CODE\LEGACY\CODE\SRC\OLE\EDDLMETHINTERP\APPS\APPSUPPORT\DEVSERVICES\DEBUG\WIN32\OMSERVICEEXPRESSION.SBR
C:\USERS\PARTHASARTHI.BK\DESKTOP\SOURCES\BUILD\FDI EDD ENGINE\CODE\LEGACY\CODE\SRC\OLE\EDDLMETHINTERP\APPS\APPSUPPORT\DEVSERVICES\DEBUG\WIN32\OPTIONALSTATEMENTS.SBR
C:\USERS\PARTHASARTHI.BK\DESKTOP\SOURCES\BUILD\FDI EDD ENGINE\CODE\LEGACY\CODE\SRC\OLE\EDDLMETHINTERP\APPS\APPSUPPORT\DEVSERVICES\DEBUG\WIN32\PARSEENGINE.SBR
C:\USERS\PARTHASARTHI.BK\DESKTOP\SOURCES\BUILD\FDI EDD ENGINE\CODE\LEGACY\CODE\SRC\OLE\EDDLMETHINTERP\APPS\APPSUPPORT\DEVSERVICES\DEBUG\WIN32\PARSEENGINE.OBJ
C:\USERS\PARTHASARTHI.BK\DESKTOP\SOURCES\BUILD\FDI EDD ENGINE\CODE\LEGACY\CODE\SRC\OLE\EDDLMETHINTERP\APPS\APPSUPPORT\DEVSERVICES\DEBUG\WIN32\OPTIONALSTATEMENTS.OBJ
C:\USERS\PARTHASARTHI.BK\DESKTOP\SOURCES\BUILD\FDI EDD ENGINE\CODE\LEGACY\CODE\SRC\OLE\EDDLMETHINTERP\APPS\APPSUPPORT\DEVSERVICES\DEBUG\WIN32\OMSERVICEEXPRESSION.OBJ
C:\USERS\PARTHASARTHI.BK\DESKTOP\SOURCES\BUILD\FDI EDD ENGINE\CODE\LEGACY\CODE\SRC\OLE\EDDLMETHINTERP\APPS\APPSUPPORT\DEVSERVICES\DEBUG\WIN32\LEXICALANALYZER.OBJ
C:\USERS\PARTHASARTHI.BK\DESKTOP\SOURCES\BUILD\FDI EDD ENGINE\CODE\LEGACY\CODE\SRC\OLE\EDDLMETHINTERP\APPS\APPSUPPORT\DEVSERVICES\DEBUG\WIN32\ITERATIONSTATEMENT.OBJ
C:\USERS\PARTHASARTHI.BK\DESKTOP\SOURCES\BUILD\FDI EDD ENGINE\CODE\LEGACY\CODE\SRC\OLE\EDDLMETHINTERP\APPS\APPSUPPORT\DEVSERVICES\DEBUG\WIN32\ITERATIONFOR.OBJ
C:\USERS\PARTHASARTHI.BK\DESKTOP\SOURCES\BUILD\FDI EDD ENGINE\CODE\LEGACY\CODE\SRC\OLE\EDDLMETHINTERP\APPS\APPSUPPORT\DEVSERVICES\DEBUG\WIN32\ITERATIONDOWHILE.OBJ
C:\USERS\PARTHASARTHI.BK\DESKTOP\SOURCES\BUILD\FDI EDD ENGINE\CODE\LEGACY\CODE\SRC\OLE\EDDLMETHINTERP\APPS\APPSUPPORT\DEVSERVICES\DEBUG\WIN32\INTERPRETER.OBJ
C:\USERS\PARTHASARTHI.BK\DESKTOP\SOURCES\BUILD\FDI EDD ENGINE\CODE\LEGACY\CODE\SRC\OLE\EDDLMETHINTERP\APPS\APPSUPPORT\DEVSERVICES\DEBUG\WIN32\INTERPRETEDVISITOR.OBJ
C:\USERS\PARTHASARTHI.BK\DESKTOP\SOURCES\BUILD\FDI EDD ENGINE\CODE\LEGACY\CODE\SRC\OLE\EDDLMETHINTERP\APPS\APPSUPPORT\DEVSERVICES\DEBUG\WIN32\INTER_VARIANT.OBJ
C:\USERS\PARTHASARTHI.BK\DESKTOP\SOURCES\BUILD\FDI EDD ENGINE\CODE\LEGACY\CODE\SRC\OLE\EDDLMETHINTERP\APPS\APPSUPPORT\DEVSERVICES\DEBUG\WIN32\INTER_SAFEARRAY.OBJ
C:\USERS\PARTHASARTHI.BK\DESKTOP\SOURCES\BUILD\FDI EDD ENGINE\CODE\LEGACY\CODE\SRC\OLE\EDDLMETHINTERP\APPS\APPSUPPORT\DEVSERVICES\DEBUG\WIN32\IFEXPRESSION.OBJ
C:\USERS\PARTHASARTHI.BK\DESKTOP\SOURCES\BUILD\FDI EDD ENGINE\CODE\LEGACY\CODE\SRC\OLE\EDDLMETHINTERP\APPS\APPSUPPORT\DEVSERVICES\DEBUG\WIN32\GRAMMARNODEVISITOR.OBJ
C:\USERS\PARTHASARTHI.BK\DESKTOP\SOURCES\BUILD\FDI EDD ENGINE\CODE\LEGACY\CODE\SRC\OLE\EDDLMETHINTERP\APPS\APPSUPPORT\DEVSERVICES\DEBUG\WIN32\GRAMMARNODE.OBJ
C:\USERS\PARTHASARTHI.BK\DESKTOP\SOURCES\BUILD\FDI EDD ENGINE\CODE\LEGACY\CODE\SRC\OLE\EDDLMETHINTERP\APPS\APPSUPPORT\DEVSERVICES\DEBUG\WIN32\FUNCTIONEXPRESSION.OBJ
C:\USERS\PARTHASARTHI.BK\DESKTOP\SOURCES\BUILD\FDI EDD ENGINE\CODE\LEGACY\CODE\SRC\OLE\EDDLMETHINTERP\APPS\APPSUPPORT\DEVSERVICES\DEBUG\WIN32\EXPRESSION.OBJ
C:\USERS\PARTHASARTHI.BK\DESKTOP\SOURCES\BUILD\FDI EDD ENGINE\CODE\LEGACY\CODE\SRC\OLE\EDDLMETHINTERP\APPS\APPSUPPORT\DEVSERVICES\DEBUG\WIN32\EXPPARSER.OBJ
C:\USERS\PARTHASARTHI.BK\DESKTOP\SOURCES\BUILD\FDI EDD ENGINE\CODE\LEGACY\CODE\SRC\OLE\EDDLMETHINTERP\APPS\APPSUPPORT\DEVSERVICES\DEBUG\WIN32\EMPTYSTATEMENT.OBJ
C:\USERS\PARTHASARTHI.BK\DESKTOP\SOURCES\BUILD\FDI EDD ENGINE\CODE\LEGACY\CODE\SRC\OLE\EDDLMETHINTERP\APPS\APPSUPPORT\DEVSERVICES\DEBUG\WIN32\ELSESTATEMENT.OBJ
C:\USERS\PARTHASARTHI.BK\DESKTOP\SOURCES\BUILD\FDI EDD ENGINE\CODE\LEGACY\CODE\SRC\OLE\EDDLMETHINTERP\APPS\APPSUPPORT\DEVSERVICES\DEBUG\WIN32\DECLARATIONS.OBJ
C:\USERS\PARTHASARTHI.BK\DESKTOP\SOURCES\BUILD\FDI EDD ENGINE\CODE\LEGACY\CODE\SRC\OLE\EDDLMETHINTERP\APPS\APPSUPPORT\DEVSERVICES\DEBUG\WIN32\PARSER.SBR
C:\USERS\PARTHASARTHI.BK\DESKTOP\SOURCES\BUILD\FDI EDD ENGINE\CODE\LEGACY\CODE\SRC\OLE\EDDLMETHINTERP\APPS\APPSUPPORT\DEVSERVICES\DEBUG\WIN32\PARSERBUILDER.SBR
C:\USERS\PARTHASARTHI.BK\DESKTOP\SOURCES\BUILD\FDI EDD ENGINE\CODE\LEGACY\CODE\SRC\OLE\EDDLMETHINTERP\APPS\APPSUPPORT\DEVSERVICES\DEBUG\WIN32\PRIMARYEXPRESSION.SBR
C:\USERS\PARTHASARTHI.BK\DESKTOP\SOURCES\BUILD\FDI EDD ENGINE\CODE\LEGACY\CODE\SRC\OLE\EDDLMETHINTERP\APPS\APPSUPPORT\DEVSERVICES\DEBUG\WIN32\PROGRAM.SBR
C:\USERS\PARTHASARTHI.BK\DESKTOP\SOURCES\BUILD\FDI EDD ENGINE\CODE\LEGACY\CODE\SRC\OLE\EDDLMETHINTERP\APPS\APPSUPPORT\DEVSERVICES\DEBUG\WIN32\RETURNSTATEMENT.SBR
C:\USERS\PARTHASARTHI.BK\DESKTOP\SOURCES\BUILD\FDI EDD ENGINE\CODE\LEGACY\CODE\SRC\OLE\EDDLMETHINTERP\APPS\APPSUPPORT\DEVSERVICES\DEBUG\WIN32\RULESERVICESTATEMENT.SBR
C:\USERS\PARTHASARTHI.BK\DESKTOP\SOURCES\BUILD\FDI EDD ENGINE\CODE\LEGACY\CODE\SRC\OLE\EDDLMETHINTERP\APPS\APPSUPPORT\DEVSERVICES\DEBUG\WIN32\SELECTIONSTATEMENT.SBR
C:\USERS\PARTHASARTHI.BK\DESKTOP\SOURCES\BUILD\FDI EDD ENGINE\CODE\LEGACY\CODE\SRC\OLE\EDDLMETHINTERP\APPS\APPSUPPORT\DEVSERVICES\DEBUG\WIN32\SERVICESTATEMENT.SBR
C:\USERS\PARTHASARTHI.BK\DESKTOP\SOURCES\BUILD\FDI EDD ENGINE\CODE\LEGACY\CODE\SRC\OLE\EDDLMETHINTERP\APPS\APPSUPPORT\DEVSERVICES\DEBUG\WIN32\STATEMENT.SBR
C:\USERS\PARTHASARTHI.BK\DESKTOP\SOURCES\BUILD\FDI EDD ENGINE\CODE\LEGACY\CODE\SRC\OLE\EDDLMETHINTERP\APPS\APPSUPPORT\DEVSERVICES\DEBUG\WIN32\STATEMENTLIST.SBR
C:\USERS\PARTHASARTHI.BK\DESKTOP\SOURCES\BUILD\FDI EDD ENGINE\CODE\LEGACY\CODE\SRC\OLE\EDDLMETHINTERP\APPS\APPSUPPORT\DEVSERVICES\DEBUG\WIN32\SWITCHSTATEMENT.SBR
C:\USERS\PARTHASARTHI.BK\DESKTOP\SOURCES\BUILD\FDI EDD ENGINE\CODE\LEGACY\CODE\SRC\OLE\EDDLMETHINTERP\APPS\APPSUPPORT\DEVSERVICES\DEBUG\WIN32\SYMBOLTABLE.SBR
C:\USERS\PARTHASARTHI.BK\DESKTOP\SOURCES\BUILD\FDI EDD ENGINE\CODE\LEGACY\CODE\SRC\OLE\EDDLMETHINTERP\APPS\APPSUPPORT\DEVSERVICES\DEBUG\WIN32\SYNCHRONISATIONSET.SBR
C:\USERS\PARTHASARTHI.BK\DESKTOP\SOURCES\BUILD\FDI EDD ENGINE\CODE\LEGACY\CODE\SRC\OLE\EDDLMETHINTERP\APPS\APPSUPPORT\DEVSERVICES\DEBUG\WIN32\TOKEN.SBR
C:\USERS\PARTHASARTHI.BK\DESKTOP\SOURCES\BUILD\FDI EDD ENGINE\CODE\LEGACY\CODE\SRC\OLE\EDDLMETHINTERP\APPS\APPSUPPORT\DEVSERVICES\DEBUG\WIN32\TYPECHECKVISITOR.SBR
C:\USERS\PARTHASARTHI.BK\DESKTOP\SOURCES\BUILD\FDI EDD ENGINE\CODE\LEGACY\CODE\SRC\OLE\EDDLMETHINTERP\APPS\APPSUPPORT\DEVSERVICES\DEBUG\WIN32\VARIABLE.SBR
C:\USERS\PARTHASARTHI.BK\DESKTOP\SOURCES\BUILD\FDI EDD ENGINE\CODE\LEGACY\CODE\SRC\OLE\EDDLMETHINTERP\APPS\APPSUPPORT\DEVSERVICES\DEBUG\WIN32\ABORTBUILTINS.SBR
C:\USERS\PARTHASARTHI.BK\DESKTOP\SOURCES\BUILD\FDI EDD ENGINE\CODE\LEGACY\CODE\SRC\OLE\EDDLMETHINTERP\APPS\APPSUPPORT\DEVSERVICES\DEBUG\WIN32\BUILTIN.SBR
C:\USERS\PARTHASARTHI.BK\DESKTOP\SOURCES\BUILD\FDI EDD ENGINE\CODE\LEGACY\CODE\SRC\OLE\EDDLMETHINTERP\APPS\APPSUPPORT\DEVSERVICES\DEBUG\WIN32\BUILTININFO.SBR
C:\USERS\PARTHASARTHI.BK\DESKTOP\SOURCES\BUILD\FDI EDD ENGINE\CODE\LEGACY\CODE\SRC\OLE\EDDLMETHINTERP\APPS\APPSUPPORT\DEVSERVICES\DEBUG\WIN32\BUILTININVOKE.SBR
C:\USERS\PARTHASARTHI.BK\DESKTOP\SOURCES\BUILD\FDI EDD ENGINE\CODE\LEGACY\CODE\SRC\OLE\EDDLMETHINTERP\APPS\APPSUPPORT\DEVSERVICES\DEBUG\WIN32\BUILTININVOKE.OBJ
C:\USERS\PARTHASARTHI.BK\DESKTOP\SOURCES\BUILD\FDI EDD ENGINE\CODE\LEGACY\CODE\SRC\OLE\EDDLMETHINTERP\APPS\APPSUPPORT\DEVSERVICES\DEBUG\WIN32\BUILTININFO.OBJ
C:\USERS\PARTHASARTHI.BK\DESKTOP\SOURCES\BUILD\FDI EDD ENGINE\CODE\LEGACY\CODE\SRC\OLE\EDDLMETHINTERP\APPS\APPSUPPORT\DEVSERVICES\DEBUG\WIN32\BUILTIN.OBJ
C:\USERS\PARTHASARTHI.BK\DESKTOP\SOURCES\BUILD\FDI EDD ENGINE\CODE\LEGACY\CODE\SRC\OLE\EDDLMETHINTERP\APPS\APPSUPPORT\DEVSERVICES\DEBUG\WIN32\ABORTBUILTINS.OBJ
C:\USERS\PARTHASARTHI.BK\DESKTOP\SOURCES\BUILD\FDI EDD ENGINE\CODE\LEGACY\CODE\SRC\OLE\EDDLMETHINTERP\APPS\APPSUPPORT\DEVSERVICES\DEBUG\WIN32\VARIABLE.OBJ
C:\USERS\PARTHASARTHI.BK\DESKTOP\SOURCES\BUILD\FDI EDD ENGINE\CODE\LEGACY\CODE\SRC\OLE\EDDLMETHINTERP\APPS\APPSUPPORT\DEVSERVICES\DEBUG\WIN32\TYPECHECKVISITOR.OBJ
C:\USERS\PARTHASARTHI.BK\DESKTOP\SOURCES\BUILD\FDI EDD ENGINE\CODE\LEGACY\CODE\SRC\OLE\EDDLMETHINTERP\APPS\APPSUPPORT\DEVSERVICES\DEBUG\WIN32\TOKEN.OBJ
C:\USERS\PARTHASARTHI.BK\DESKTOP\SOURCES\BUILD\FDI EDD ENGINE\CODE\LEGACY\CODE\SRC\OLE\EDDLMETHINTERP\APPS\APPSUPPORT\DEVSERVICES\DEBUG\WIN32\SYNCHRONISATIONSET.OBJ
C:\USERS\PARTHASARTHI.BK\DESKTOP\SOURCES\BUILD\FDI EDD ENGINE\CODE\LEGACY\CODE\SRC\OLE\EDDLMETHINTERP\APPS\APPSUPPORT\DEVSERVICES\DEBUG\WIN32\SYMBOLTABLE.OBJ
C:\USERS\PARTHASARTHI.BK\DESKTOP\SOURCES\BUILD\FDI EDD ENGINE\CODE\LEGACY\CODE\SRC\OLE\EDDLMETHINTERP\APPS\APPSUPPORT\DEVSERVICES\DEBUG\WIN32\SWITCHSTATEMENT.OBJ
C:\USERS\PARTHASARTHI.BK\DESKTOP\SOURCES\BUILD\FDI EDD ENGINE\CODE\LEGACY\CODE\SRC\OLE\EDDLMETHINTERP\APPS\APPSUPPORT\DEVSERVICES\DEBUG\WIN32\STATEMENTLIST.OBJ
C:\USERS\PARTHASARTHI.BK\DESKTOP\SOURCES\BUILD\FDI EDD ENGINE\CODE\LEGACY\CODE\SRC\OLE\EDDLMETHINTERP\APPS\APPSUPPORT\DEVSERVICES\DEBUG\WIN32\STATEMENT.OBJ
C:\USERS\PARTHASARTHI.BK\DESKTOP\SOURCES\BUILD\FDI EDD ENGINE\CODE\LEGACY\CODE\SRC\OLE\EDDLMETHINTERP\APPS\APPSUPPORT\DEVSERVICES\DEBUG\WIN32\SERVICESTATEMENT.OBJ
C:\USERS\PARTHASARTHI.BK\DESKTOP\SOURCES\BUILD\FDI EDD ENGINE\CODE\LEGACY\CODE\SRC\OLE\EDDLMETHINTERP\APPS\APPSUPPORT\DEVSERVICES\DEBUG\WIN32\SELECTIONSTATEMENT.OBJ
C:\USERS\PARTHASARTHI.BK\DESKTOP\SOURCES\BUILD\FDI EDD ENGINE\CODE\LEGACY\CODE\SRC\OLE\EDDLMETHINTERP\APPS\APPSUPPORT\DEVSERVICES\DEBUG\WIN32\RULESERVICESTATEMENT.OBJ
C:\USERS\PARTHASARTHI.BK\DESKTOP\SOURCES\BUILD\FDI EDD ENGINE\CODE\LEGACY\CODE\SRC\OLE\EDDLMETHINTERP\APPS\APPSUPPORT\DEVSERVICES\DEBUG\WIN32\RETURNSTATEMENT.OBJ
C:\USERS\PARTHASARTHI.BK\DESKTOP\SOURCES\BUILD\FDI EDD ENGINE\CODE\LEGACY\CODE\SRC\OLE\EDDLMETHINTERP\APPS\APPSUPPORT\DEVSERVICES\DEBUG\WIN32\PROGRAM.OBJ
C:\USERS\PARTHASARTHI.BK\DESKTOP\SOURCES\BUILD\FDI EDD ENGINE\CODE\LEGACY\CODE\SRC\OLE\EDDLMETHINTERP\APPS\APPSUPPORT\DEVSERVICES\DEBUG\WIN32\PRIMARYEXPRESSION.OBJ
C:\USERS\PARTHASARTHI.BK\DESKTOP\SOURCES\BUILD\FDI EDD ENGINE\CODE\LEGACY\CODE\SRC\OLE\EDDLMETHINTERP\APPS\APPSUPPORT\DEVSERVICES\DEBUG\WIN32\PARSERBUILDER.OBJ
C:\USERS\PARTHASARTHI.BK\DESKTOP\SOURCES\BUILD\FDI EDD ENGINE\CODE\LEGACY\CODE\SRC\OLE\EDDLMETHINTERP\APPS\APPSUPPORT\DEVSERVICES\DEBUG\WIN32\PARSER.OBJ
C:\USERS\PARTHASARTHI.BK\DESKTOP\SOURCES\BUILD\FDI EDD ENGINE\CODE\LEGACY\CODE\SRC\OLE\EDDLMETHINTERP\APPS\APPSUPPORT\DEVSERVICES\DEBUG\WIN32\BUILTINMAPPER.SBR
C:\USERS\PARTHASARTHI.BK\DESKTOP\SOURCES\BUILD\FDI EDD ENGINE\CODE\LEGACY\CODE\SRC\OLE\EDDLMETHINTERP\APPS\APPSUPPORT\DEVSERVICES\DEBUG\WIN32\BUILTINUTIL.SBR
C:\USERS\PARTHASARTHI.BK\DESKTOP\SOURCES\BUILD\FDI EDD ENGINE\CODE\LEGACY\CODE\SRC\OLE\EDDLMETHINTERP\APPS\APPSUPPORT\DEVSERVICES\DEBUG\WIN32\DATETIMEBUILTINS.SBR
C:\USERS\PARTHASARTHI.BK\DESKTOP\SOURCES\BUILD\FDI EDD ENGINE\CODE\LEGACY\CODE\SRC\OLE\EDDLMETHINTERP\APPS\APPSUPPORT\DEVSERVICES\DEBUG\WIN32\DELAY_BUILTIN.SBR
C:\USERS\PARTHASARTHI.BK\DESKTOP\SOURCES\BUILD\FDI EDD ENGINE\CODE\LEGACY\CODE\SRC\OLE\EDDLMETHINTERP\APPS\APPSUPPORT\DEVSERVICES\DEBUG\WIN32\HARTBUILTIN.SBR
C:\USERS\PARTHASARTHI.BK\DESKTOP\SOURCES\BUILD\FDI EDD ENGINE\CODE\LEGACY\CODE\SRC\OLE\EDDLMETHINTERP\APPS\APPSUPPORT\DEVSERVICES\DEBUG\WIN32\INVOKEREPARAMHELPER.SBR
C:\USERS\PARTHASARTHI.BK\DESKTOP\SOURCES\BUILD\FDI EDD ENGINE\CODE\LEGACY\CODE\SRC\OLE\EDDLMETHINTERP\APPS\APPSUPPORT\DEVSERVICES\DEBUG\WIN32\MATHBUILTINS.SBR
C:\USERS\PARTHASARTHI.BK\DESKTOP\SOURCES\BUILD\FDI EDD ENGINE\CODE\LEGACY\CODE\SRC\OLE\EDDLMETHINTERP\APPS\APPSUPPORT\DEVSERVICES\DEBUG\WIN32\PREPOSTACTIONSBUILTINS.SBR
C:\USERS\PARTHASARTHI.BK\DESKTOP\SOURCES\BUILD\FDI EDD ENGINE\CODE\LEGACY\CODE\SRC\OLE\EDDLMETHINTERP\APPS\APPSUPPORT\DEVSERVICES\DEBUG\WIN32\PROFIBUILTIN.SBR
C:\USERS\PARTHASARTHI.BK\DESKTOP\SOURCES\BUILD\FDI EDD ENGINE\CODE\LEGACY\CODE\SRC\OLE\EDDLMETHINTERP\APPS\APPSUPPORT\DEVSERVICES\DEBUG\WIN32\RESOLVEBUILTINS.SBR
C:\USERS\PARTHASARTHI.BK\DESKTOP\SOURCES\BUILD\FDI EDD ENGINE\CODE\LEGACY\CODE\SRC\OLE\EDDLMETHINTERP\APPS\APPSUPPORT\DEVSERVICES\DEBUG\WIN32\SENDCMDBUILTINS.SBR
C:\USERS\PARTHASARTHI.BK\DESKTOP\SOURCES\BUILD\FDI EDD ENGINE\CODE\LEGACY\CODE\SRC\OLE\EDDLMETHINTERP\APPS\APPSUPPORT\DEVSERVICES\DEBUG\WIN32\SETBUILTINS.SBR
C:\USERS\PARTHASARTHI.BK\DESKTOP\SOURCES\BUILD\FDI EDD ENGINE\CODE\LEGACY\CODE\SRC\OLE\EDDLMETHINTERP\APPS\APPSUPPORT\DEVSERVICES\DEBUG\WIN32\STRINGBUILTINS.SBR
C:\USERS\PARTHASARTHI.BK\DESKTOP\SOURCES\BUILD\FDI EDD ENGINE\CODE\LEGACY\CODE\SRC\OLE\EDDLMETHINTERP\APPS\APPSUPPORT\DEVSERVICES\DEBUG\WIN32\UIBUILTINS.SBR
C:\USERS\PARTHASARTHI.BK\DESKTOP\SOURCES\BUILD\FDI EDD ENGINE\CODE\LEGACY\CODE\SRC\OLE\EDDLMETHINTERP\APPS\APPSUPPORT\DEVSERVICES\DEBUG\WIN32\MEE.SBR
C:\USERS\PARTHASARTHI.BK\DESKTOP\SOURCES\BUILD\FDI EDD ENGINE\CODE\LEGACY\CODE\SRC\OLE\EDDLMETHINTERP\APPS\APPSUPPORT\DEVSERVICES\DEBUG\WIN32\MEE.OBJ
C:\USERS\PARTHASARTHI.BK\DESKTOP\SOURCES\BUILD\FDI EDD ENGINE\CODE\LEGACY\CODE\SRC\OLE\EDDLMETHINTERP\APPS\APPSUPPORT\DEVSERVICES\DEBUG\WIN32\UIBUILTINS.OBJ
C:\USERS\PARTHASARTHI.BK\DESKTOP\SOURCES\BUILD\FDI EDD ENGINE\CODE\LEGACY\CODE\SRC\OLE\EDDLMETHINTERP\APPS\APPSUPPORT\DEVSERVICES\DEBUG\WIN32\STRINGBUILTINS.OBJ
C:\USERS\PARTHASARTHI.BK\DESKTOP\SOURCES\BUILD\FDI EDD ENGINE\CODE\LEGACY\CODE\SRC\OLE\EDDLMETHINTERP\APPS\APPSUPPORT\DEVSERVICES\DEBUG\WIN32\SETBUILTINS.OBJ
C:\USERS\PARTHASARTHI.BK\DESKTOP\SOURCES\BUILD\FDI EDD ENGINE\CODE\LEGACY\CODE\SRC\OLE\EDDLMETHINTERP\APPS\APPSUPPORT\DEVSERVICES\DEBUG\WIN32\SENDCMDBUILTINS.OBJ
C:\USERS\PARTHASARTHI.BK\DESKTOP\SOURCES\BUILD\FDI EDD ENGINE\CODE\LEGACY\CODE\SRC\OLE\EDDLMETHINTERP\APPS\APPSUPPORT\DEVSERVICES\DEBUG\WIN32\RESOLVEBUILTINS.OBJ
C:\USERS\PARTHASARTHI.BK\DESKTOP\SOURCES\BUILD\FDI EDD ENGINE\CODE\LEGACY\CODE\SRC\OLE\EDDLMETHINTERP\APPS\APPSUPPORT\DEVSERVICES\DEBUG\WIN32\PROFIBUILTIN.OBJ
C:\USERS\PARTHASARTHI.BK\DESKTOP\SOURCES\BUILD\FDI EDD ENGINE\CODE\LEGACY\CODE\SRC\OLE\EDDLMETHINTERP\APPS\APPSUPPORT\DEVSERVICES\DEBUG\WIN32\PREPOSTACTIONSBUILTINS.OBJ
C:\USERS\PARTHASARTHI.BK\DESKTOP\SOURCES\BUILD\FDI EDD ENGINE\CODE\LEGACY\CODE\SRC\OLE\EDDLMETHINTERP\APPS\APPSUPPORT\DEVSERVICES\DEBUG\WIN32\MATHBUILTINS.OBJ
C:\USERS\PARTHASARTHI.BK\DESKTOP\SOURCES\BUILD\FDI EDD ENGINE\CODE\LEGACY\CODE\SRC\OLE\EDDLMETHINTERP\APPS\APPSUPPORT\DEVSERVICES\DEBUG\WIN32\INVOKEREPARAMHELPER.OBJ
C:\USERS\PARTHASARTHI.BK\DESKTOP\SOURCES\BUILD\FDI EDD ENGINE\CODE\LEGACY\CODE\SRC\OLE\EDDLMETHINTERP\APPS\APPSUPPORT\DEVSERVICES\DEBUG\WIN32\HARTBUILTIN.OBJ
C:\USERS\PARTHASARTHI.BK\DESKTOP\SOURCES\BUILD\FDI EDD ENGINE\CODE\LEGACY\CODE\SRC\OLE\EDDLMETHINTERP\APPS\APPSUPPORT\DEVSERVICES\DEBUG\WIN32\DELAY_BUILTIN.OBJ
C:\USERS\PARTHASARTHI.BK\DESKTOP\SOURCES\BUILD\FDI EDD ENGINE\CODE\LEGACY\CODE\SRC\OLE\EDDLMETHINTERP\APPS\APPSUPPORT\DEVSERVICES\DEBUG\WIN32\DATETIMEBUILTINS.OBJ
C:\USERS\PARTHASARTHI.BK\DESKTOP\SOURCES\BUILD\FDI EDD ENGINE\CODE\LEGACY\CODE\SRC\OLE\EDDLMETHINTERP\APPS\APPSUPPORT\DEVSERVICES\DEBUG\WIN32\BUILTINUTIL.OBJ
C:\USERS\PARTHASARTHI.BK\DESKTOP\SOURCES\BUILD\FDI EDD ENGINE\CODE\LEGACY\CODE\SRC\OLE\EDDLMETHINTERP\APPS\APPSUPPORT\DEVSERVICES\DEBUG\WIN32\BUILTINMAPPER.OBJ
^C:\USERS\PARTHASARTHI.BK\DESKTOP\SOURCES\BUILD\FDI EDD ENGINE\CODE\LEGACY\CODE\SRC\OLE\EDDLMETHINTERP\APPS\APPSUPPORT\BUILTINLIB\FFBUILTIN.CPP
C:\USERS\PARTHASARTHI.BK\DESKTOP\SOURCES\BUILD\FDI EDD ENGINE\CODE\LEGACY\CODE\SRC\OLE\EDDLMETHINTERP\APPS\APPSUPPORT\DEVSERVICES\DEBUG\WIN32\DEVSERVICES.PDB
^C:\USERS\PARTHASARTHI.BK\DESKTOP\SOURCES\BUILD\FDI EDD ENGINE\CODE\LEGACY\CODE\SRC\OLE\EDDLMETHINTERP\APPS\APPSUPPORT\DEVSERVICES\DDBATTRIBUTES.CPP
C:\USERS\PARTHASARTHI.BK\DESKTOP\SOURCES\BUILD\FDI EDD ENGINE\CODE\LEGACY\CODE\SRC\OLE\EDDLMETHINTERP\APPS\APPSUPPORT\DEVSERVICES\DEBUG\WIN32\DEVSERVICES.PDB
^C:\USERS\PARTHASARTHI.BK\DESKTOP\SOURCES\BUILD\FDI EDD ENGINE\CODE\LEGACY\CODE\SRC\OLE\EDDLMETHINTERP\APPS\APPSUPPORT\DEVSERVICES\DDBCOMMAND.CPP
C:\USERS\PARTHASARTHI.BK\DESKTOP\SOURCES\BUILD\FDI EDD ENGINE\CODE\LEGACY\CODE\SRC\OLE\EDDLMETHINTERP\APPS\APPSUPPORT\DEVSERVICES\DEBUG\WIN32\DEVSERVICES.PDB
^C:\USERS\PARTHASARTHI.BK\DESKTOP\SOURCES\BUILD\FDI EDD ENGINE\CODE\LEGACY\CODE\SRC\OLE\EDDLMETHINTERP\COMMON\DDBDEFS.CPP
C:\USERS\PARTHASARTHI.BK\DESKTOP\SOURCES\BUILD\FDI EDD ENGINE\CODE\LEGACY\CODE\SRC\OLE\EDDLMETHINTERP\APPS\APPSUPPORT\DEVSERVICES\DEBUG\WIN32\DEVSERVICES.PDB
^C:\USERS\PARTHASARTHI.BK\DESKTOP\SOURCES\BUILD\FDI EDD ENGINE\CODE\LEGACY\CODE\SRC\OLE\EDDLMETHINTERP\APPS\APPSUPPORT\DEVSERVICES\DDBDEVICE.CPP
C:\USERS\PARTHASARTHI.BK\DESKTOP\SOURCES\BUILD\FDI EDD ENGINE\CODE\LEGACY\CODE\SRC\OLE\EDDLMETHINTERP\APPS\APPSUPPORT\DEVSERVICES\DEBUG\WIN32\DEVSERVICES.PDB
^C:\USERS\PARTHASARTHI.BK\DESKTOP\SOURCES\BUILD\FDI EDD ENGINE\CODE\LEGACY\CODE\SRC\OLE\EDDLMETHINTERP\APPS\APPSUPPORT\DEVSERVICES\DDBITEMBASE.CPP
C:\USERS\PARTHASARTHI.BK\DESKTOP\SOURCES\BUILD\FDI EDD ENGINE\CODE\LEGACY\CODE\SRC\OLE\EDDLMETHINTERP\APPS\APPSUPPORT\DEVSERVICES\DEBUG\WIN32\DEVSERVICES.PDB
^C:\USERS\PARTHASARTHI.BK\DESKTOP\SOURCES\BUILD\FDI EDD ENGINE\CODE\LEGACY\CODE\SRC\OLE\EDDLMETHINTERP\APPS\APPSUPPORT\DEVSERVICES\DDBITEMLISTS.CPP
C:\USERS\PARTHASARTHI.BK\DESKTOP\SOURCES\BUILD\FDI EDD ENGINE\CODE\LEGACY\CODE\SRC\OLE\EDDLMETHINTERP\APPS\APPSUPPORT\DEVSERVICES\DEBUG\WIN32\DEVSERVICES.PDB
^C:\USERS\PARTHASARTHI.BK\DESKTOP\SOURCES\BUILD\FDI EDD ENGINE\CODE\LEGACY\CODE\SRC\OLE\EDDLMETHINTERP\APPS\APPSUPPORT\DEVSERVICES\DDBLIST.CPP
C:\USERS\PARTHASARTHI.BK\DESKTOP\SOURCES\BUILD\FDI EDD ENGINE\CODE\LEGACY\CODE\SRC\OLE\EDDLMETHINTERP\APPS\APPSUPPORT\DEVSERVICES\DEBUG\WIN32\DEVSERVICES.PDB
^C:\USERS\PARTHASARTHI.BK\DESKTOP\SOURCES\BUILD\FDI EDD ENGINE\CODE\LEGACY\CODE\SRC\OLE\EDDLMETHINTERP\APPS\APPSUPPORT\DEVSERVICES\DDBPRIMATIVES.CPP
C:\USERS\PARTHASARTHI.BK\DESKTOP\SOURCES\BUILD\FDI EDD ENGINE\CODE\LEGACY\CODE\SRC\OLE\EDDLMETHINTERP\APPS\APPSUPPORT\DEVSERVICES\DEBUG\WIN32\DEVSERVICES.PDB
^C:\USERS\PARTHASARTHI.BK\DESKTOP\SOURCES\BUILD\FDI EDD ENGINE\CODE\LEGACY\CODE\SRC\OLE\EDDLMETHINTERP\APPS\APPSUPPORT\DEVSERVICES\DDBREFERENCE.CPP
C:\USERS\PARTHASARTHI.BK\DESKTOP\SOURCES\BUILD\FDI EDD ENGINE\CODE\LEGACY\CODE\SRC\OLE\EDDLMETHINTERP\APPS\APPSUPPORT\DEVSERVICES\DEBUG\WIN32\DEVSERVICES.PDB
^C:\USERS\PARTHASARTHI.BK\DESKTOP\SOURCES\BUILD\FDI EDD ENGINE\CODE\LEGACY\CODE\SRC\OLE\EDDLMETHINTERP\APPS\APPSUPPORT\DEVSERVICES\FOUNDATION.CPP
C:\USERS\PARTHASARTHI.BK\DESKTOP\SOURCES\BUILD\FDI EDD ENGINE\CODE\LEGACY\CODE\SRC\OLE\EDDLMETHINTERP\APPS\APPSUPPORT\DEVSERVICES\DEBUG\WIN32\DEVSERVICES.PDB
^C:\USERS\PARTHASARTHI.BK\DESKTOP\SOURCES\BUILD\FDI EDD ENGINE\CODE\LEGACY\CODE\SRC\OLE\EDDLMETHINTERP\APPS\APPSUPPORT\INTERPRETER\ARRAYEXPRESSION.CPP
C:\USERS\PARTHASARTHI.BK\DESKTOP\SOURCES\BUILD\FDI EDD ENGINE\CODE\LEGACY\CODE\SRC\OLE\EDDLMETHINTERP\APPS\APPSUPPORT\DEVSERVICES\DEBUG\WIN32\DEVSERVICES.PDB
^C:\USERS\PARTHASARTHI.BK\DESKTOP\SOURCES\BUILD\FDI EDD ENGINE\CODE\LEGACY\CODE\SRC\OLE\EDDLMETHINTERP\APPS\APPSUPPORT\INTERPRETER\ASSIGNMENTSTATEMENT.CPP
C:\USERS\PARTHASARTHI.BK\DESKTOP\SOURCES\BUILD\FDI EDD ENGINE\CODE\LEGACY\CODE\SRC\OLE\EDDLMETHINTERP\APPS\APPSUPPORT\DEVSERVICES\DEBUG\WIN32\DEVSERVICES.PDB
^C:\USERS\PARTHASARTHI.BK\DESKTOP\SOURCES\BUILD\FDI EDD ENGINE\CODE\LEGACY\CODE\SRC\OLE\EDDLMETHINTERP\APPS\APPSUPPORT\INTERPRETER\BREAKSTATEMENT.CPP
C:\USERS\PARTHASARTHI.BK\DESKTOP\SOURCES\BUILD\FDI EDD ENGINE\CODE\LEGACY\CODE\SRC\OLE\EDDLMETHINTERP\APPS\APPSUPPORT\DEVSERVICES\DEBUG\WIN32\DEVSERVICES.PDB
^C:\USERS\PARTHASARTHI.BK\DESKTOP\SOURCES\BUILD\FDI EDD ENGINE\CODE\LEGACY\CODE\SRC\OLE\EDDLMETHINTERP\APPS\APPSUPPORT\INTERPRETER\CASESTATEMENT.CPP
C:\USERS\PARTHASARTHI.BK\DESKTOP\SOURCES\BUILD\FDI EDD ENGINE\CODE\LEGACY\CODE\SRC\OLE\EDDLMETHINTERP\APPS\APPSUPPORT\DEVSERVICES\DEBUG\WIN32\DEVSERVICES.PDB
^C:\USERS\PARTHASARTHI.BK\DESKTOP\SOURCES\BUILD\FDI EDD ENGINE\CODE\LEGACY\CODE\SRC\OLE\EDDLMETHINTERP\APPS\APPSUPPORT\INTERPRETER\COMPLEXDDEXPRESSION.CPP
C:\USERS\PARTHASARTHI.BK\DESKTOP\SOURCES\BUILD\FDI EDD ENGINE\CODE\LEGACY\CODE\SRC\OLE\EDDLMETHINTERP\APPS\APPSUPPORT\DEVSERVICES\DEBUG\WIN32\DEVSERVICES.PDB
^C:\USERS\PARTHASARTHI.BK\DESKTOP\SOURCES\BUILD\FDI EDD ENGINE\CODE\LEGACY\CODE\SRC\OLE\EDDLMETHINTERP\APPS\APPSUPPORT\INTERPRETER\COMPOUNDEXPRESSION.CPP
C:\USERS\PARTHASARTHI.BK\DESKTOP\SOURCES\BUILD\FDI EDD ENGINE\CODE\LEGACY\CODE\SRC\OLE\EDDLMETHINTERP\APPS\APPSUPPORT\DEVSERVICES\DEBUG\WIN32\DEVSERVICES.PDB
^C:\USERS\PARTHASARTHI.BK\DESKTOP\SOURCES\BUILD\FDI EDD ENGINE\CODE\LEGACY\CODE\SRC\OLE\EDDLMETHINTERP\APPS\APPSUPPORT\INTERPRETER\COMPOUNDSTATEMENT.CPP
C:\USERS\PARTHASARTHI.BK\DESKTOP\SOURCES\BUILD\FDI EDD ENGINE\CODE\LEGACY\CODE\SRC\OLE\EDDLMETHINTERP\APPS\APPSUPPORT\DEVSERVICES\DEBUG\WIN32\DEVSERVICES.PDB
^C:\USERS\PARTHASARTHI.BK\DESKTOP\SOURCES\BUILD\FDI EDD ENGINE\CODE\LEGACY\CODE\SRC\OLE\EDDLMETHINTERP\APPS\APPSUPPORT\INTERPRETER\CONTINUESTATEMENT.CPP
C:\USERS\PARTHASARTHI.BK\DESKTOP\SOURCES\BUILD\FDI EDD ENGINE\CODE\LEGACY\CODE\SRC\OLE\EDDLMETHINTERP\APPS\APPSUPPORT\DEVSERVICES\DEBUG\WIN32\DEVSERVICES.PDB
^C:\USERS\PARTHASARTHI.BK\DESKTOP\SOURCES\BUILD\FDI EDD ENGINE\CODE\LEGACY\CODE\SRC\OLE\EDDLMETHINTERP\APPS\APPSUPPORT\INTERPRETER\DECLARATION.CPP
C:\USERS\PARTHASARTHI.BK\DESKTOP\SOURCES\BUILD\FDI EDD ENGINE\CODE\LEGACY\CODE\SRC\OLE\EDDLMETHINTERP\APPS\APPSUPPORT\DEVSERVICES\DEBUG\WIN32\DEVSERVICES.PDB
^C:\USERS\PARTHASARTHI.BK\DESKTOP\SOURCES\BUILD\FDI EDD ENGINE\CODE\LEGACY\CODE\SRC\OLE\EDDLMETHINTERP\APPS\APPSUPPORT\INTERPRETER\DECLARATIONS.CPP
C:\USERS\PARTHASARTHI.BK\DESKTOP\SOURCES\BUILD\FDI EDD ENGINE\CODE\LEGACY\CODE\SRC\OLE\EDDLMETHINTERP\APPS\APPSUPPORT\DEVSERVICES\DEBUG\WIN32\DEVSERVICES.PDB
^C:\USERS\PARTHASARTHI.BK\DESKTOP\SOURCES\BUILD\FDI EDD ENGINE\CODE\LEGACY\CODE\SRC\OLE\EDDLMETHINTERP\APPS\APPSUPPORT\INTERPRETER\ELSESTATEMENT.CPP
C:\USERS\PARTHASARTHI.BK\DESKTOP\SOURCES\BUILD\FDI EDD ENGINE\CODE\LEGACY\CODE\SRC\OLE\EDDLMETHINTERP\APPS\APPSUPPORT\DEVSERVICES\DEBUG\WIN32\DEVSERVICES.PDB
^C:\USERS\PARTHASARTHI.BK\DESKTOP\SOURCES\BUILD\FDI EDD ENGINE\CODE\LEGACY\CODE\SRC\OLE\EDDLMETHINTERP\APPS\APPSUPPORT\INTERPRETER\EMPTYSTATEMENT.CPP
C:\USERS\PARTHASARTHI.BK\DESKTOP\SOURCES\BUILD\FDI EDD ENGINE\CODE\LEGACY\CODE\SRC\OLE\EDDLMETHINTERP\APPS\APPSUPPORT\DEVSERVICES\DEBUG\WIN32\DEVSERVICES.PDB
^C:\USERS\PARTHASARTHI.BK\DESKTOP\SOURCES\BUILD\FDI EDD ENGINE\CODE\LEGACY\CODE\SRC\OLE\EDDLMETHINTERP\APPS\APPSUPPORT\INTERPRETER\EXPPARSER.CPP
C:\USERS\PARTHASARTHI.BK\DESKTOP\SOURCES\BUILD\FDI EDD ENGINE\CODE\LEGACY\CODE\SRC\OLE\EDDLMETHINTERP\APPS\APPSUPPORT\DEVSERVICES\DEBUG\WIN32\DEVSERVICES.PDB
^C:\USERS\PARTHASARTHI.BK\DESKTOP\SOURCES\BUILD\FDI EDD ENGINE\CODE\LEGACY\CODE\SRC\OLE\EDDLMETHINTERP\APPS\APPSUPPORT\INTERPRETER\EXPRESSION.CPP
C:\USERS\PARTHASARTHI.BK\DESKTOP\SOURCES\BUILD\FDI EDD ENGINE\CODE\LEGACY\CODE\SRC\OLE\EDDLMETHINTERP\APPS\APPSUPPORT\DEVSERVICES\DEBUG\WIN32\DEVSERVICES.PDB
^C:\USERS\PARTHASARTHI.BK\DESKTOP\SOURCES\BUILD\FDI EDD ENGINE\CODE\LEGACY\CODE\SRC\OLE\EDDLMETHINTERP\APPS\APPSUPPORT\INTERPRETER\FUNCTIONEXPRESSION.CPP
C:\USERS\PARTHASARTHI.BK\DESKTOP\SOURCES\BUILD\FDI EDD ENGINE\CODE\LEGACY\CODE\SRC\OLE\EDDLMETHINTERP\APPS\APPSUPPORT\DEVSERVICES\DEBUG\WIN32\DEVSERVICES.PDB
^C:\USERS\PARTHASARTHI.BK\DESKTOP\SOURCES\BUILD\FDI EDD ENGINE\CODE\LEGACY\CODE\SRC\OLE\EDDLMETHINTERP\APPS\APPSUPPORT\INTERPRETER\GRAMMARNODE.CPP
C:\USERS\PARTHASARTHI.BK\DESKTOP\SOURCES\BUILD\FDI EDD ENGINE\CODE\LEGACY\CODE\SRC\OLE\EDDLMETHINTERP\APPS\APPSUPPORT\DEVSERVICES\DEBUG\WIN32\DEVSERVICES.PDB
^C:\USERS\PARTHASARTHI.BK\DESKTOP\SOURCES\BUILD\FDI EDD ENGINE\CODE\LEGACY\CODE\SRC\OLE\EDDLMETHINTERP\APPS\APPSUPPORT\INTERPRETER\GRAMMARNODEVISITOR.CPP
C:\USERS\PARTHASARTHI.BK\DESKTOP\SOURCES\BUILD\FDI EDD ENGINE\CODE\LEGACY\CODE\SRC\OLE\EDDLMETHINTERP\APPS\APPSUPPORT\DEVSERVICES\DEBUG\WIN32\DEVSERVICES.PDB
^C:\USERS\PARTHASARTHI.BK\DESKTOP\SOURCES\BUILD\FDI EDD ENGINE\CODE\LEGACY\CODE\SRC\OLE\EDDLMETHINTERP\APPS\APPSUPPORT\INTERPRETER\IFEXPRESSION.CPP
C:\USERS\PARTHASARTHI.BK\DESKTOP\SOURCES\BUILD\FDI EDD ENGINE\CODE\LEGACY\CODE\SRC\OLE\EDDLMETHINTERP\APPS\APPSUPPORT\DEVSERVICES\DEBUG\WIN32\DEVSERVICES.PDB
^C:\USERS\PARTHASARTHI.BK\DESKTOP\SOURCES\BUILD\FDI EDD ENGINE\CODE\LEGACY\CODE\SRC\OLE\EDDLMETHINTERP\APPS\APPSUPPORT\INTERPRETER\INTER_SAFEARRAY.CPP
C:\USERS\PARTHASARTHI.BK\DESKTOP\SOURCES\BUILD\FDI EDD ENGINE\CODE\LEGACY\CODE\SRC\OLE\EDDLMETHINTERP\APPS\APPSUPPORT\DEVSERVICES\DEBUG\WIN32\DEVSERVICES.PDB
^C:\USERS\PARTHASARTHI.BK\DESKTOP\SOURCES\BUILD\FDI EDD ENGINE\CODE\LEGACY\CODE\SRC\OLE\EDDLMETHINTERP\APPS\APPSUPPORT\INTERPRETER\INTER_VARIANT.CPP
C:\USERS\PARTHASARTHI.BK\DESKTOP\SOURCES\BUILD\FDI EDD ENGINE\CODE\LEGACY\CODE\SRC\OLE\EDDLMETHINTERP\APPS\APPSUPPORT\DEVSERVICES\DEBUG\WIN32\DEVSERVICES.PDB
^C:\USERS\PARTHASARTHI.BK\DESKTOP\SOURCES\BUILD\FDI EDD ENGINE\CODE\LEGACY\CODE\SRC\OLE\EDDLMETHINTERP\APPS\APPSUPPORT\INTERPRETER\INTERPRETEDVISITOR.CPP
C:\USERS\PARTHASARTHI.BK\DESKTOP\SOURCES\BUILD\FDI EDD ENGINE\CODE\LEGACY\CODE\SRC\OLE\EDDLMETHINTERP\APPS\APPSUPPORT\DEVSERVICES\DEBUG\WIN32\DEVSERVICES.PDB
^C:\USERS\PARTHASARTHI.BK\DESKTOP\SOURCES\BUILD\FDI EDD ENGINE\CODE\LEGACY\CODE\SRC\OLE\EDDLMETHINTERP\APPS\APPSUPPORT\INTERPRETER\INTERPRETER.CPP
C:\USERS\PARTHASARTHI.BK\DESKTOP\SOURCES\BUILD\FDI EDD ENGINE\CODE\LEGACY\CODE\SRC\OLE\EDDLMETHINTERP\APPS\APPSUPPORT\DEVSERVICES\DEBUG\WIN32\DEVSERVICES.PDB
^C:\USERS\PARTHASARTHI.BK\DESKTOP\SOURCES\BUILD\FDI EDD ENGINE\CODE\LEGACY\CODE\SRC\OLE\EDDLMETHINTERP\APPS\APPSUPPORT\INTERPRETER\ITERATIONDOWHILE.CPP
C:\USERS\PARTHASARTHI.BK\DESKTOP\SOURCES\BUILD\FDI EDD ENGINE\CODE\LEGACY\CODE\SRC\OLE\EDDLMETHINTERP\APPS\APPSUPPORT\DEVSERVICES\DEBUG\WIN32\DEVSERVICES.PDB
^C:\USERS\PARTHASARTHI.BK\DESKTOP\SOURCES\BUILD\FDI EDD ENGINE\CODE\LEGACY\CODE\SRC\OLE\EDDLMETHINTERP\APPS\APPSUPPORT\INTERPRETER\ITERATIONFOR.CPP
C:\USERS\PARTHASARTHI.BK\DESKTOP\SOURCES\BUILD\FDI EDD ENGINE\CODE\LEGACY\CODE\SRC\OLE\EDDLMETHINTERP\APPS\APPSUPPORT\DEVSERVICES\DEBUG\WIN32\DEVSERVICES.PDB
^C:\USERS\PARTHASARTHI.BK\DESKTOP\SOURCES\BUILD\FDI EDD ENGINE\CODE\LEGACY\CODE\SRC\OLE\EDDLMETHINTERP\APPS\APPSUPPORT\INTERPRETER\ITERATIONSTATEMENT.CPP
C:\USERS\PARTHASARTHI.BK\DESKTOP\SOURCES\BUILD\FDI EDD ENGINE\CODE\LEGACY\CODE\SRC\OLE\EDDLMETHINTERP\APPS\APPSUPPORT\DEVSERVICES\DEBUG\WIN32\DEVSERVICES.PDB
^C:\USERS\PARTHASARTHI.BK\DESKTOP\SOURCES\BUILD\FDI EDD ENGINE\CODE\LEGACY\CODE\SRC\OLE\EDDLMETHINTERP\APPS\APPSUPPORT\INTERPRETER\LEXICALANALYZER.CPP
C:\USERS\PARTHASARTHI.BK\DESKTOP\SOURCES\BUILD\FDI EDD ENGINE\CODE\LEGACY\CODE\SRC\OLE\EDDLMETHINTERP\APPS\APPSUPPORT\DEVSERVICES\DEBUG\WIN32\DEVSERVICES.PDB
^C:\USERS\PARTHASARTHI.BK\DESKTOP\SOURCES\BUILD\FDI EDD ENGINE\CODE\LEGACY\CODE\SRC\OLE\EDDLMETHINTERP\APPS\APPSUPPORT\INTERPRETER\OMSERVICEEXPRESSION.CPP
C:\USERS\PARTHASARTHI.BK\DESKTOP\SOURCES\BUILD\FDI EDD ENGINE\CODE\LEGACY\CODE\SRC\OLE\EDDLMETHINTERP\APPS\APPSUPPORT\DEVSERVICES\DEBUG\WIN32\DEVSERVICES.PDB
^C:\USERS\PARTHASARTHI.BK\DESKTOP\SOURCES\BUILD\FDI EDD ENGINE\CODE\LEGACY\CODE\SRC\OLE\EDDLMETHINTERP\APPS\APPSUPPORT\INTERPRETER\OPTIONALSTATEMENTS.CPP
C:\USERS\PARTHASARTHI.BK\DESKTOP\SOURCES\BUILD\FDI EDD ENGINE\CODE\LEGACY\CODE\SRC\OLE\EDDLMETHINTERP\APPS\APPSUPPORT\DEVSERVICES\DEBUG\WIN32\DEVSERVICES.PDB
^C:\USERS\PARTHASARTHI.BK\DESKTOP\SOURCES\BUILD\FDI EDD ENGINE\CODE\LEGACY\CODE\SRC\OLE\EDDLMETHINTERP\APPS\APPSUPPORT\INTERPRETER\PARSEENGINE.CPP
C:\USERS\PARTHASARTHI.BK\DESKTOP\SOURCES\BUILD\FDI EDD ENGINE\CODE\LEGACY\CODE\SRC\OLE\EDDLMETHINTERP\APPS\APPSUPPORT\DEVSERVICES\DEBUG\WIN32\DEVSERVICES.PDB
^C:\USERS\PARTHASARTHI.BK\DESKTOP\SOURCES\BUILD\FDI EDD ENGINE\CODE\LEGACY\CODE\SRC\OLE\EDDLMETHINTERP\APPS\APPSUPPORT\INTERPRETER\PARSER.CPP
C:\USERS\PARTHASARTHI.BK\DESKTOP\SOURCES\BUILD\FDI EDD ENGINE\CODE\LEGACY\CODE\SRC\OLE\EDDLMETHINTERP\APPS\APPSUPPORT\DEVSERVICES\DEBUG\WIN32\DEVSERVICES.PDB
^C:\USERS\PARTHASARTHI.BK\DESKTOP\SOURCES\BUILD\FDI EDD ENGINE\CODE\LEGACY\CODE\SRC\OLE\EDDLMETHINTERP\APPS\APPSUPPORT\INTERPRETER\PARSERBUILDER.CPP
C:\USERS\PARTHASARTHI.BK\DESKTOP\SOURCES\BUILD\FDI EDD ENGINE\CODE\LEGACY\CODE\SRC\OLE\EDDLMETHINTERP\APPS\APPSUPPORT\DEVSERVICES\DEBUG\WIN32\DEVSERVICES.PDB
^C:\USERS\PARTHASARTHI.BK\DESKTOP\SOURCES\BUILD\FDI EDD ENGINE\CODE\LEGACY\CODE\SRC\OLE\EDDLMETHINTERP\APPS\APPSUPPORT\INTERPRETER\PRIMARYEXPRESSION.CPP
C:\USERS\PARTHASARTHI.BK\DESKTOP\SOURCES\BUILD\FDI EDD ENGINE\CODE\LEGACY\CODE\SRC\OLE\EDDLMETHINTERP\APPS\APPSUPPORT\DEVSERVICES\DEBUG\WIN32\DEVSERVICES.PDB
^C:\USERS\PARTHASARTHI.BK\DESKTOP\SOURCES\BUILD\FDI EDD ENGINE\CODE\LEGACY\CODE\SRC\OLE\EDDLMETHINTERP\APPS\APPSUPPORT\INTERPRETER\PROGRAM.CPP
C:\USERS\PARTHASARTHI.BK\DESKTOP\SOURCES\BUILD\FDI EDD ENGINE\CODE\LEGACY\CODE\SRC\OLE\EDDLMETHINTERP\APPS\APPSUPPORT\DEVSERVICES\DEBUG\WIN32\DEVSERVICES.PDB
^C:\USERS\PARTHASARTHI.BK\DESKTOP\SOURCES\BUILD\FDI EDD ENGINE\CODE\LEGACY\CODE\SRC\OLE\EDDLMETHINTERP\APPS\APPSUPPORT\INTERPRETER\RETURNSTATEMENT.CPP
C:\USERS\PARTHASARTHI.BK\DESKTOP\SOURCES\BUILD\FDI EDD ENGINE\CODE\LEGACY\CODE\SRC\OLE\EDDLMETHINTERP\APPS\APPSUPPORT\DEVSERVICES\DEBUG\WIN32\DEVSERVICES.PDB
^C:\USERS\PARTHASARTHI.BK\DESKTOP\SOURCES\BUILD\FDI EDD ENGINE\CODE\LEGACY\CODE\SRC\OLE\EDDLMETHINTERP\APPS\APPSUPPORT\INTERPRETER\RULESERVICESTATEMENT.CPP
C:\USERS\PARTHASARTHI.BK\DESKTOP\SOURCES\BUILD\FDI EDD ENGINE\CODE\LEGACY\CODE\SRC\OLE\EDDLMETHINTERP\APPS\APPSUPPORT\DEVSERVICES\DEBUG\WIN32\DEVSERVICES.PDB
^C:\USERS\PARTHASARTHI.BK\DESKTOP\SOURCES\BUILD\FDI EDD ENGINE\CODE\LEGACY\CODE\SRC\OLE\EDDLMETHINTERP\APPS\APPSUPPORT\INTERPRETER\SELECTIONSTATEMENT.CPP
C:\USERS\PARTHASARTHI.BK\DESKTOP\SOURCES\BUILD\FDI EDD ENGINE\CODE\LEGACY\CODE\SRC\OLE\EDDLMETHINTERP\APPS\APPSUPPORT\DEVSERVICES\DEBUG\WIN32\DEVSERVICES.PDB
^C:\USERS\PARTHASARTHI.BK\DESKTOP\SOURCES\BUILD\FDI EDD ENGINE\CODE\LEGACY\CODE\SRC\OLE\EDDLMETHINTERP\APPS\APPSUPPORT\INTERPRETER\SERVICESTATEMENT.CPP
C:\USERS\PARTHASARTHI.BK\DESKTOP\SOURCES\BUILD\FDI EDD ENGINE\CODE\LEGACY\CODE\SRC\OLE\EDDLMETHINTERP\APPS\APPSUPPORT\DEVSERVICES\DEBUG\WIN32\DEVSERVICES.PDB
^C:\USERS\PARTHASARTHI.BK\DESKTOP\SOURCES\BUILD\FDI EDD ENGINE\CODE\LEGACY\CODE\SRC\OLE\EDDLMETHINTERP\APPS\APPSUPPORT\INTERPRETER\STATEMENT.CPP
C:\USERS\PARTHASARTHI.BK\DESKTOP\SOURCES\BUILD\FDI EDD ENGINE\CODE\LEGACY\CODE\SRC\OLE\EDDLMETHINTERP\APPS\APPSUPPORT\DEVSERVICES\DEBUG\WIN32\DEVSERVICES.PDB
^C:\USERS\PARTHASARTHI.BK\DESKTOP\SOURCES\BUILD\FDI EDD ENGINE\CODE\LEGACY\CODE\SRC\OLE\EDDLMETHINTERP\APPS\APPSUPPORT\INTERPRETER\STATEMENTLIST.CPP
C:\USERS\PARTHASARTHI.BK\DESKTOP\SOURCES\BUILD\FDI EDD ENGINE\CODE\LEGACY\CODE\SRC\OLE\EDDLMETHINTERP\APPS\APPSUPPORT\DEVSERVICES\DEBUG\WIN32\DEVSERVICES.PDB
^C:\USERS\PARTHASARTHI.BK\DESKTOP\SOURCES\BUILD\FDI EDD ENGINE\CODE\LEGACY\CODE\SRC\OLE\EDDLMETHINTERP\APPS\APPSUPPORT\INTERPRETER\SWITCHSTATEMENT.CPP
C:\USERS\PARTHASARTHI.BK\DESKTOP\SOURCES\BUILD\FDI EDD ENGINE\CODE\LEGACY\CODE\SRC\OLE\EDDLMETHINTERP\APPS\APPSUPPORT\DEVSERVICES\DEBUG\WIN32\DEVSERVICES.PDB
^C:\USERS\PARTHASARTHI.BK\DESKTOP\SOURCES\BUILD\FDI EDD ENGINE\CODE\LEGACY\CODE\SRC\OLE\EDDLMETHINTERP\APPS\APPSUPPORT\INTERPRETER\SYMBOLTABLE.CPP
C:\USERS\PARTHASARTHI.BK\DESKTOP\SOURCES\BUILD\FDI EDD ENGINE\CODE\LEGACY\CODE\SRC\OLE\EDDLMETHINTERP\APPS\APPSUPPORT\DEVSERVICES\DEBUG\WIN32\DEVSERVICES.PDB
^C:\USERS\PARTHASARTHI.BK\DESKTOP\SOURCES\BUILD\FDI EDD ENGINE\CODE\LEGACY\CODE\SRC\OLE\EDDLMETHINTERP\APPS\APPSUPPORT\INTERPRETER\SYNCHRONISATIONSET.CPP
C:\USERS\PARTHASARTHI.BK\DESKTOP\SOURCES\BUILD\FDI EDD ENGINE\CODE\LEGACY\CODE\SRC\OLE\EDDLMETHINTERP\APPS\APPSUPPORT\DEVSERVICES\DEBUG\WIN32\DEVSERVICES.PDB
^C:\USERS\PARTHASARTHI.BK\DESKTOP\SOURCES\BUILD\FDI EDD ENGINE\CODE\LEGACY\CODE\SRC\OLE\EDDLMETHINTERP\APPS\APPSUPPORT\INTERPRETER\TOKEN.CPP
C:\USERS\PARTHASARTHI.BK\DESKTOP\SOURCES\BUILD\FDI EDD ENGINE\CODE\LEGACY\CODE\SRC\OLE\EDDLMETHINTERP\APPS\APPSUPPORT\DEVSERVICES\DEBUG\WIN32\DEVSERVICES.PDB
^C:\USERS\PARTHASARTHI.BK\DESKTOP\SOURCES\BUILD\FDI EDD ENGINE\CODE\LEGACY\CODE\SRC\OLE\EDDLMETHINTERP\APPS\APPSUPPORT\INTERPRETER\TYPECHECKVISITOR.CPP
C:\USERS\PARTHASARTHI.BK\DESKTOP\SOURCES\BUILD\FDI EDD ENGINE\CODE\LEGACY\CODE\SRC\OLE\EDDLMETHINTERP\APPS\APPSUPPORT\DEVSERVICES\DEBUG\WIN32\DEVSERVICES.PDB
^C:\USERS\PARTHASARTHI.BK\DESKTOP\SOURCES\BUILD\FDI EDD ENGINE\CODE\LEGACY\CODE\SRC\OLE\EDDLMETHINTERP\APPS\APPSUPPORT\INTERPRETER\VARIABLE.CPP
C:\USERS\PARTHASARTHI.BK\DESKTOP\SOURCES\BUILD\FDI EDD ENGINE\CODE\LEGACY\CODE\SRC\OLE\EDDLMETHINTERP\APPS\APPSUPPORT\DEVSERVICES\DEBUG\WIN32\DEVSERVICES.PDB
^C:\USERS\PARTHASARTHI.BK\DESKTOP\SOURCES\BUILD\FDI EDD ENGINE\CODE\LEGACY\CODE\SRC\OLE\EDDLMETHINTERP\APPS\APPSUPPORT\BUILTINLIB\ABORTBUILTINS.CPP
C:\USERS\PARTHASARTHI.BK\DESKTOP\SOURCES\BUILD\FDI EDD ENGINE\CODE\LEGACY\CODE\SRC\OLE\EDDLMETHINTERP\APPS\APPSUPPORT\DEVSERVICES\DEBUG\WIN32\DEVSERVICES.PDB
^C:\USERS\PARTHASARTHI.BK\DESKTOP\SOURCES\BUILD\FDI EDD ENGINE\CODE\LEGACY\CODE\SRC\OLE\EDDLMETHINTERP\APPS\APPSUPPORT\BUILTINLIB\BUILTIN.CPP
C:\USERS\PARTHASARTHI.BK\DESKTOP\SOURCES\BUILD\FDI EDD ENGINE\CODE\LEGACY\CODE\SRC\OLE\EDDLMETHINTERP\APPS\APPSUPPORT\DEVSERVICES\DEBUG\WIN32\DEVSERVICES.PDB
^C:\USERS\PARTHASARTHI.BK\DESKTOP\SOURCES\BUILD\FDI EDD ENGINE\CODE\LEGACY\CODE\SRC\OLE\EDDLMETHINTERP\APPS\APPSUPPORT\BUILTINLIB\BUILTININFO.CPP
C:\USERS\PARTHASARTHI.BK\DESKTOP\SOURCES\BUILD\FDI EDD ENGINE\CODE\LEGACY\CODE\SRC\OLE\EDDLMETHINTERP\APPS\APPSUPPORT\DEVSERVICES\DEBUG\WIN32\DEVSERVICES.PDB
^C:\USERS\PARTHASARTHI.BK\DESKTOP\SOURCES\BUILD\FDI EDD ENGINE\CODE\LEGACY\CODE\SRC\OLE\EDDLMETHINTERP\APPS\APPSUPPORT\BUILTINLIB\BUILTININVOKE.CPP
C:\USERS\PARTHASARTHI.BK\DESKTOP\SOURCES\BUILD\FDI EDD ENGINE\CODE\LEGACY\CODE\SRC\OLE\EDDLMETHINTERP\APPS\APPSUPPORT\DEVSERVICES\DEBUG\WIN32\DEVSERVICES.PDB
^C:\USERS\PARTHASARTHI.BK\DESKTOP\SOURCES\BUILD\FDI EDD ENGINE\CODE\LEGACY\CODE\SRC\OLE\EDDLMETHINTERP\APPS\APPSUPPORT\BUILTINLIB\BUILTINMAPPER.CPP
C:\USERS\PARTHASARTHI.BK\DESKTOP\SOURCES\BUILD\FDI EDD ENGINE\CODE\LEGACY\CODE\SRC\OLE\EDDLMETHINTERP\APPS\APPSUPPORT\DEVSERVICES\DEBUG\WIN32\DEVSERVICES.PDB
^C:\USERS\PARTHASARTHI.BK\DESKTOP\SOURCES\BUILD\FDI EDD ENGINE\CODE\LEGACY\CODE\SRC\OLE\EDDLMETHINTERP\APPS\APPSUPPORT\BUILTINLIB\BUILTINUTIL.CPP
C:\USERS\PARTHASARTHI.BK\DESKTOP\SOURCES\BUILD\FDI EDD ENGINE\CODE\LEGACY\CODE\SRC\OLE\EDDLMETHINTERP\APPS\APPSUPPORT\DEVSERVICES\DEBUG\WIN32\DEVSERVICES.PDB
^C:\USERS\PARTHASARTHI.BK\DESKTOP\SOURCES\BUILD\FDI EDD ENGINE\CODE\LEGACY\CODE\SRC\OLE\EDDLMETHINTERP\APPS\APPSUPPORT\BUILTINLIB\DATETIMEBUILTINS.CPP
C:\USERS\PARTHASARTHI.BK\DESKTOP\SOURCES\BUILD\FDI EDD ENGINE\CODE\LEGACY\CODE\SRC\OLE\EDDLMETHINTERP\APPS\APPSUPPORT\DEVSERVICES\DEBUG\WIN32\DEVSERVICES.PDB
^C:\USERS\PARTHASARTHI.BK\DESKTOP\SOURCES\BUILD\FDI EDD ENGINE\CODE\LEGACY\CODE\SRC\OLE\EDDLMETHINTERP\APPS\APPSUPPORT\BUILTINLIB\DELAY_BUILTIN.CPP
C:\USERS\PARTHASARTHI.BK\DESKTOP\SOURCES\BUILD\FDI EDD ENGINE\CODE\LEGACY\CODE\SRC\OLE\EDDLMETHINTERP\APPS\APPSUPPORT\DEVSERVICES\DEBUG\WIN32\DEVSERVICES.PDB
^C:\USERS\PARTHASARTHI.BK\DESKTOP\SOURCES\BUILD\FDI EDD ENGINE\CODE\LEGACY\CODE\SRC\OLE\EDDLMETHINTERP\APPS\APPSUPPORT\BUILTINLIB\HARTBUILTIN.CPP
C:\USERS\PARTHASARTHI.BK\DESKTOP\SOURCES\BUILD\FDI EDD ENGINE\CODE\LEGACY\CODE\SRC\OLE\EDDLMETHINTERP\APPS\APPSUPPORT\DEVSERVICES\DEBUG\WIN32\DEVSERVICES.PDB
^C:\USERS\PARTHASARTHI.BK\DESKTOP\SOURCES\BUILD\FDI EDD ENGINE\CODE\LEGACY\CODE\SRC\OLE\EDDLMETHINTERP\APPS\APPSUPPORT\BUILTINLIB\INVOKEREPARAMHELPER.CPP
C:\USERS\PARTHASARTHI.BK\DESKTOP\SOURCES\BUILD\FDI EDD ENGINE\CODE\LEGACY\CODE\SRC\OLE\EDDLMETHINTERP\APPS\APPSUPPORT\DEVSERVICES\DEBUG\WIN32\DEVSERVICES.PDB
^C:\USERS\PARTHASARTHI.BK\DESKTOP\SOURCES\BUILD\FDI EDD ENGINE\CODE\LEGACY\CODE\SRC\OLE\EDDLMETHINTERP\APPS\APPSUPPORT\BUILTINLIB\MATHBUILTINS.CPP
C:\USERS\PARTHASARTHI.BK\DESKTOP\SOURCES\BUILD\FDI EDD ENGINE\CODE\LEGACY\CODE\SRC\OLE\EDDLMETHINTERP\APPS\APPSUPPORT\DEVSERVICES\DEBUG\WIN32\DEVSERVICES.PDB
^C:\USERS\PARTHASARTHI.BK\DESKTOP\SOURCES\BUILD\FDI EDD ENGINE\CODE\LEGACY\CODE\SRC\OLE\EDDLMETHINTERP\APPS\APPSUPPORT\BUILTINLIB\PREPOSTACTIONSBUILTINS.CPP
C:\USERS\PARTHASARTHI.BK\DESKTOP\SOURCES\BUILD\FDI EDD ENGINE\CODE\LEGACY\CODE\SRC\OLE\EDDLMETHINTERP\APPS\APPSUPPORT\DEVSERVICES\DEBUG\WIN32\DEVSERVICES.PDB
^C:\USERS\PARTHASARTHI.BK\DESKTOP\SOURCES\BUILD\FDI EDD ENGINE\CODE\LEGACY\CODE\SRC\OLE\EDDLMETHINTERP\APPS\APPSUPPORT\BUILTINLIB\PROFIBUILTIN.CPP
C:\USERS\PARTHASARTHI.BK\DESKTOP\SOURCES\BUILD\FDI EDD ENGINE\CODE\LEGACY\CODE\SRC\OLE\EDDLMETHINTERP\APPS\APPSUPPORT\DEVSERVICES\DEBUG\WIN32\DEVSERVICES.PDB
^C:\USERS\PARTHASARTHI.BK\DESKTOP\SOURCES\BUILD\FDI EDD ENGINE\CODE\LEGACY\CODE\SRC\OLE\EDDLMETHINTERP\APPS\APPSUPPORT\BUILTINLIB\RESOLVEBUILTINS.CPP
C:\USERS\PARTHASARTHI.BK\DESKTOP\SOURCES\BUILD\FDI EDD ENGINE\CODE\LEGACY\CODE\SRC\OLE\EDDLMETHINTERP\APPS\APPSUPPORT\DEVSERVICES\DEBUG\WIN32\DEVSERVICES.PDB
^C:\USERS\PARTHASARTHI.BK\DESKTOP\SOURCES\BUILD\FDI EDD ENGINE\CODE\LEGACY\CODE\SRC\OLE\EDDLMETHINTERP\APPS\APPSUPPORT\BUILTINLIB\SENDCMDBUILTINS.CPP
C:\USERS\PARTHASARTHI.BK\DESKTOP\SOURCES\BUILD\FDI EDD ENGINE\CODE\LEGACY\CODE\SRC\OLE\EDDLMETHINTERP\APPS\APPSUPPORT\DEVSERVICES\DEBUG\WIN32\DEVSERVICES.PDB
^C:\USERS\PARTHASARTHI.BK\DESKTOP\SOURCES\BUILD\FDI EDD ENGINE\CODE\LEGACY\CODE\SRC\OLE\EDDLMETHINTERP\APPS\APPSUPPORT\BUILTINLIB\SETBUILTINS.CPP
C:\USERS\PARTHASARTHI.BK\DESKTOP\SOURCES\BUILD\FDI EDD ENGINE\CODE\LEGACY\CODE\SRC\OLE\EDDLMETHINTERP\APPS\APPSUPPORT\DEVSERVICES\DEBUG\WIN32\DEVSERVICES.PDB
^C:\USERS\PARTHASARTHI.BK\DESKTOP\SOURCES\BUILD\FDI EDD ENGINE\CODE\LEGACY\CODE\SRC\OLE\EDDLMETHINTERP\APPS\APPSUPPORT\BUILTINLIB\STRINGBUILTINS.CPP
C:\USERS\PARTHASARTHI.BK\DESKTOP\SOURCES\BUILD\FDI EDD ENGINE\CODE\LEGACY\CODE\SRC\OLE\EDDLMETHINTERP\APPS\APPSUPPORT\DEVSERVICES\DEBUG\WIN32\DEVSERVICES.PDB
^C:\USERS\PARTHASARTHI.BK\DESKTOP\SOURCES\BUILD\FDI EDD ENGINE\CODE\LEGACY\CODE\SRC\OLE\EDDLMETHINTERP\APPS\APPSUPPORT\BUILTINLIB\UIBUILTINS.CPP
C:\USERS\PARTHASARTHI.BK\DESKTOP\SOURCES\BUILD\FDI EDD ENGINE\CODE\LEGACY\CODE\SRC\OLE\EDDLMETHINTERP\APPS\APPSUPPORT\DEVSERVICES\DEBUG\WIN32\DEVSERVICES.PDB
^C:\USERS\PARTHASARTHI.BK\DESKTOP\SOURCES\BUILD\FDI EDD ENGINE\CODE\LEGACY\CODE\SRC\OLE\EDDLMETHINTERP\APPS\APPSUPPORT\MEE\MEE.CPP
C:\USERS\PARTHASARTHI.BK\DESKTOP\SOURCES\BUILD\FDI EDD ENGINE\CODE\LEGACY\CODE\SRC\OLE\EDDLMETHINTERP\APPS\APPSUPPORT\DEVSERVICES\DEBUG\WIN32\DEVSERVICES.PDB
