menu            MENU_sensor_1_setup                       16662 
menu            grp_primary                               16898 
variable        sensor2_digital_value     float           16561 
member          TREND_VALUE_6_DEVICE_FAMILY_STATUS collection      4541 (std) 
variable        uint16_var_blk_char       unsigned        2147548933 
variable        burst_mode_control_code   enumerated      2032 (std,imp) 
member          blk_profile_rev           record          3221290759 
variable        sensor1_upper_sensor_limit float           16518 
variable        physical_signaling_codes  enumerated      2033 (std,imp) 
refresh         sensor1_range_values_relation                 16460 
variable        lower_cal_error_value     float           16421 
member          TREND_VALUE_9_DEVICE_FAMILY_STATUS collection      4553 (std) 
array           IO_card0                  collection      4354 (std) 
array           IO_card1                  collection      4355 (std) 
menu            tab_device                                16833 
variable        sensor2_digital_units     enumerated      16560 
menu            process_variables_root_wha_menu                 16827 
menu            grp_device_info                           16849 
variable        unknown_units             enumerated      16702 
member          TREND_VALUE_4_DEVICE_FAMILY_STATUS collection      4533 (std) 
variable        date                      date            166 (std,mand,imp) 
menu            grp_terminalPRT_hh                        16927 
member          BACK_RECEIVED             collection      4335 (std) 
variable        trim_point_codes          enumerated      2047 (std,imp) 
member          blk_num_params            record          3221290761 
member          STANDARDIZED_STATUS_2_LATCHED_VALUE collection      4677 (std) 
member          EXTENDED_FLD_DEVICE_STATUS_LATCHED_VALUE collection      4673 (std) 
method          check_write_protect_method                 16453 
menu            MENU_primary_variable_review                 16667 
member          DEVICE_SPECIFIC_STATUS_15_MASK collection      4656 (std) 
member          LIMIT_STATUS                              248 (std) 
variable        sensor2_damping_value     float           16567 
member          COMMAND_NUMBER_ENUMERATED collection      4382 (std) 
chart           sensor_temp_gauge_chart_alert                 16747 
command         write_tag_descriptor_date                 186 (std,mand,imp) 
member          STAT_STX_CNT              collection      4267 (std) 
menu            secondary_variable_hh_when_not_used                 16951 
member          DEVICE_STATUS_LATCHED_VALUE collection      4666 (std) 
variable        operatingMode             enumerated      2160 (std,imp) 
variable        lowerRange_value          float           235 (std,imp) 
method          method_electronics                        16729 
variable        byte_count                unsigned        1022 (std) 
command         write_tc_degradation_mode                 16617 
variable        status_output             enumerated      2147548930 
axis            term_Axis1                                16732 
variable        output_response_threshold float           16598 
menu            grp_electronics_failure_hh                 16928 
member          TREND_VALUE_11_DEVICE_FAMILY_STATUS collection      4561 (std) 
member          TREND_VALUE_5_DEVICE_FAMILY_STATUS collection      4537 (std) 
variable        message                   packed-ascii    164 (std,mand,imp) 
member          SUB_DEVICE_MANUFACTUER                    4219 (std) 
member          LOWER_ENDPOINT_VALUE                      4087 (std) 
member          SENSOR_UNIT                               6003 (std) 
variable        company_identification_code enumerated      2031 (std,imp) 
method          method_view_cvd                           16713 
member          TREND_VALUE_0_DEVICE_FAMILY_STATUS collection      4517 (std) 
collection      not_used_measurement      variable        16503 
menu            grp_ao_value                              16864 
member          SV_VAR_SOURCE             source          16796 
menu            third_variable_hh                         16952 
menu            maintenance_root_menu                     1026 (std) 
member          EVENT_NOTIFICATION_CONTROL collection      4636 (std) 
member          TREND_DIGITAL_UNITS       collection      4510 (std) 
method          sensor_trim_factory                       16445 
member          DEVICE_SPECIFIC_STATUS_19_MASK collection      4660 (std) 
menu            grp_Ao_gauge                              16900 
member          TV_SOURCE_COLORBAR        chart           16805 
member          TREND_VALUE_10_DEVICE_FAMILY_STATUS collection      4557 (std) 
member          DEVICE_SPECIFIC_STATUS_16_LATCHED_VALUE collection      4682 (std) 
command         perform_self_test                         4137 (std,imp) 
array           dynamic_variables         collection      172 (std,mand) 
variable        sensor1_measurement_upper_sensor_limit float           16397 
variable        write_protect_passwd      packed-ascii    16424 
method          self_test                                 16440 
member          STANDARDIZED_STATUS_2_MASK collection      4652 (std) 
variable        open_sensor_holdoff_mode  enumerated      16696 
member          CLASSIFICATION                            218 (std) 
member          BURST_UNIT                collection      4396 (std) 
image           sensor_1_short_image                      16779 
menu            configure_hh                              16912 
command         read_final_assembly_number                 184 (std,mand,imp) 
member          TREND_VALUE_1_DEVICE_FAMILY_STATUS collection      4521 (std) 
method          warning_message                           4119 (std,imp) 
variable        lower_trim_point_value    float           16419 
command         write_calibration_mode                    16613 
member          DAQ                       collection      213 (std) 
member          DEVICE_SPECIFIC_STATUS_1_MASK collection      4643 (std) 
menu            prim_var_config_hh                        16943 
method          METHOD_write_protect_passwd                 16489 
menu            device_hh                                 16941 
method          METHOD_sensor_2_calvandu_disp                 16666 
variable        upper_trim_point_value    float           16418 
member          PARAM20                   parameter       3221266195 
command         read_alarm_latching_mode                  16480 
member          PARAM21                   parameter       3221266196 
member          DEVICE_SPECIFIC_STATUS_5_LATCHED_VALUE collection      4672 (std) 
member          PARAM22                   parameter       3221266197 
member          PARAM23                   parameter       3221266198 
record          DIGVAL_RECORD80                           2147549024 
menu            device_root_menu                          1020 (std) 
member          PARAM24                   parameter       3221266199 
record          DIGVAL_RECORD81                           2147549025 
menu            grp_device_identification                 16850 
member          PARAM25                   parameter       3221266200 
record          DIGVAL_RECORD82                           2147549026 
variable        lock_device_codes         enumerated      2044 (std,imp) 
member          PARAM26                   parameter       3221266201 
record          DIGVAL_RECORD83                           2147549027 
method          AM_snsr_1_trim                            16679 
command         write_tc_degradation_threshold                 16615 
variable        tc_user                   unsigned        16495 
member          PARAM27                   parameter       3221266202 
record          DIGVAL_RECORD84                           2147549028 
method          transmitter_loop_test                     4131 (std,imp) 
variable        sensor1_minimum_span      float           16520 
unit            ambient_temp_relation                     16458 
member          PARAM28                   parameter       3221266203 
record          DIGVAL_RECORD85                           2147549029 
member          PARAM29                   parameter       3221266204 
record          DIGVAL_RECORD86                           2147549030 
method          method_configure_device                   16710 
record          DIGVAL_RECORD87                           2147549031 
variable        __sensor_upper_limit      float           959 (std) 
variable        device_id                 unsigned        161 (std,mand,imp) 
record          DIGVAL_RECORD88                           2147549032 
record          DIGVAL_RECORD89                           2147549033 
member          SOURCE_DEVICE_TYPE                        4214 (std) 
member          PARAM10                   parameter       3221266185 
member          PARAM11                   parameter       3221266186 
member          blk_class                 record          3221290754 
member          PARAM12                   parameter       3221266187 
collection      quaternary_variable       collection      245 (std,imp) 
member          PARAM13                   parameter       3221266188 
record          DIGVAL_RECORD70                           2147549014 
member          PARAM14                   parameter       3221266189 
record          DIGVAL_RECORD71                           2147549015 
member          PARAM15                   parameter       3221266190 
record          DIGVAL_RECORD72                           2147549016 
method          method_device_status_hh                   16723 
member          PARAM16                   parameter       3221266191 
record          DIGVAL_RECORD73                           2147549017 
member          PARAM17                   parameter       3221266192 
record          DIGVAL_RECORD74                           2147549018 
menu            MENU_meter_options_review                 16670 
member          UPPER_TRIM_LIMIT          collection      16532 
member          PARAM18                   parameter       3221266193 
record          DIGVAL_RECORD75                           2147549019 
member          PARAM19                   parameter       3221266194 
member          blk_execution_time        record          3221290760 
record          DIGVAL_RECORD76                           2147549020 
record          DIGVAL_RECORD77                           2147549021 
record          DIGVAL_RECORD78                           2147549022 
variable        burst_command_number      enumerated      4093 (std,imp) 
record          DIGVAL_RECORD79                           2147549023 
command         write_rtd_constant_current_mode                 16477 
member          PROCESS_VAR               chart           16790 
menu            grp_analog_output_fixed_hh                 16935 
member          PARAM40                   parameter       3221266215 
member          DEVICE_STATUS_MASK        collection      4641 (std) 
member          PARAM41                   parameter       3221266217 
member          TREND_VALUE_7_DEVICE_FAMILY_STATUS collection      4545 (std) 
member          PARAM42                   parameter       3221266218 
member          PARAM43                   parameter       3221266219 
record          DIGVAL_RECORD60                           2147549004 
member          PARAM44                   parameter       3221266220 
record          DIGVAL_RECORD61                           2147549005 
member          PARAM45                   parameter       3221266221 
record          DIGVAL_RECORD62                           2147549006 
member          PARAM46                   parameter       3221266222 
record          DIGVAL_RECORD63                           2147549007 
command         write_pv_damping_value                    4006 (std,imp) 
member          PARAM47                   parameter       3221266223 
record          DIGVAL_RECORD64                           2147549008 
member          PARAM48                   parameter       3221266224 
record          DIGVAL_RECORD65                           2147549009 
menu            cal_van_dusen_coefficients_manual_hh                 16948 
member          PARAM49                   parameter       3221266225 
record          DIGVAL_RECORD66                           2147549010 
variable        differential_upper_range_value float           16590 
member          blk_num_display_lists     record          3221290763 
record          DIGVAL_RECORD67                           2147549011 
record          DIGVAL_RECORD68                           2147549012 
source          pv_gauge_source                           16787 
record          DIGVAL_RECORD69                           2147549013 
variable        sensor_2_type             enumerated      16569 
member          PARAM30                   parameter       3221266205 
member          PARAM31                   parameter       3221266206 
member          PARAM32                   parameter       3221266207 
member          PARAM33                   parameter       3221266208 
record          DIGVAL_RECORD50                           2147548994 
collection      primary_variable          collection      242 (std,imp) 
member          PARAM34                   parameter       3221266209 
record          DIGVAL_RECORD51                           2147548995 
member          PARAM35                   parameter       3221266210 
record          DIGVAL_RECORD52                           2147548996 
member          PARAM36                   parameter       3221266211 
record          DIGVAL_RECORD53                           2147548997 
member          CAPTURE_MODE                              4212 (std) 
member          PARAM37                   parameter       3221266212 
record          DIGVAL_RECORD54                           2147548998 
member          PARAM38                   parameter       3221266213 
record          DIGVAL_RECORD55                           2147548999 
variable        operating_mode_code       enumerated      2035 (std,imp) 
member          PARAM39                   parameter       3221266214 
record          DIGVAL_RECORD56                           2147549000 
record          DIGVAL_RECORD57                           2147549001 
record          DIGVAL_RECORD58                           2147549002 
record          DIGVAL_RECORD59                           2147549003 
member          ANALOG_CHANNEL_SATURATED1_MASK collection      4651 (std) 
member          TREND_VALUE_3_DATA_QUALITY collection      4527 (std) 
variable        sensor_type               enumerated      16390 
variable        response_preambles        unsigned        4066 (std,imp) 
menu            OnlineWindow_display                      7024 (std) 
record          DIGVAL_RECORD1                            2147548945 
variable        sensor2_upper_range_value float           16562 
record          DIGVAL_RECORD2                            2147548946 
record          DIGVAL_RECORD3                            2147548947 
record          DIGVAL_RECORD4                            2147548948 
menu            MENU_differential_review                  16676 
record          DIGVAL_RECORD5                            2147548949 
record          DIGVAL_RECORD6                            2147548950 
variable        upper_cal_trim_point_value float           16422 
record          DIGVAL_RECORD7                            2147548951 
menu            variable_analog_output_group                 16956 
record          DIGVAL_RECORD8                            2147548952 
record          DIGVAL_RECORD9                            2147548953 
member          TREND_VALUE_8_DATA_QUALITY collection      4547 (std) 
command         read_open_sensor_holdoff_mode                 16697 
menu            MENU_revisions_review                     16640 
variable        sensor1_damping_value     float           16521 
method          method_configure_display                  16711 
menu            config_alert_setup_dialog                 16819 
menu            grp_revision                              16851 
variable        rtd_current_mode          enumerated      16471 
menu            device_root_wha_menu                      16825 
menu            device_information_manual_hh                 16946 
member          TREND_VALUE_9_DATA_QUALITY collection      4551 (std) 
value-array     trend_array                               4447 (std) 
menu            manual_setup_hh                           16917 
method          METHOD_sensor_type_conn                   16487 
variable        loop_flags                bit-enumerated  231 (std,imp) 
member          DEVICE_SPECIFIC_STATUS_21_MASK collection      4662 (std) 
member          TREND_VALUE_6_DATA_QUALITY collection      4539 (std) 
record          DIGVAL_RECORD90                           2147549034 
record          DIGVAL_RECORD91                           2147549035 
record          DIGVAL_RECORD92                           2147549036 
record          DIGVAL_RECORD93                           2147549037 
member          AO_CHART8                 chart           16738 
record          DIGVAL_RECORD94                           2147549038 
collection      __SENSOR                  variable        950 (std) 
record          DIGVAL_RECORD95                           2147549039 
variable        device_type               enumerated      154 (std,mand,imp) 
record          DIGVAL_RECORD96                           2147549040 
record          DIGVAL_RECORD97                           2147549041 
method          return_to_normal                          4118 (std,imp) 
command         write_trim_location                       16432 
record          DIGVAL_RECORD98                           2147549042 
unit            scaling_units_relation                    241 (std,imp) 
record          DIGVAL_RECORD99                           2147549043 
command         write_write_protect_flag                  16439 
menu            grp_comm_setting                          16873 
method          sensor_referencing                        16446 
unit            __digital_units_relation                  971 (std) 
member          UPDATE_PERIOD             collection      4383 (std) 
variable        electronics_temperature_lower_range_value float           16513 
member          Terminal_COLORBAR         chart           16760 
variable        quaternary_variable_code  index           4226 (std,imp) 
variable        serial_number             unsigned        16701 
member          BURST_MODE_SELECT         collection      4385 (std) 
command         read_device_variables                     4180 (std,imp) 
member          TREND_VALUE_4_DATA_QUALITY collection      4531 (std) 
member          EVENT_STATUS              collection      4635 (std) 
member          PARAM90                   parameter       3221266266 
member          SOURCE_SLOT_NUMBER                        4217 (std) 
member          PARAM91                   parameter       3221266267 
variable        current_upper_limit       integer         16703 
member          PARAM92                   parameter       3221266268 
menu            tab_sensor_temperature                    16837 
member          PARAM93                   parameter       3221266269 
command         read_tc_pulsing_mode                      16478 
member          PARAM94                   parameter       3221266270 
member          PARAM95                   parameter       3221266271 
member          PARAM96                   parameter       3221266272 
member          PARAM97                   parameter       3221266273 
member          PARAM98                   parameter       3221266274 
member          PARAM99                   parameter       3221266275 
refresh         __pv_unit_refresh                         977 (std) 
method          METHOD_sensor_input_trim                  16483 
method          method_sensor1degraded                    16715 
member          QV_SOURCE_COLORBAR        chart           16812 
member          TREND_VALUE_5_DATA_QUALITY collection      4535 (std) 
command         write_pv_range_values                     4007 (std,imp) 
member          ANALOG_CHANNEL_FLAGS      collection      217 (std) 
variable        hardware_revision         unsigned        159 (std,mand,imp) 
member          TREND_VALUE_2_DATA_QUALITY collection      4523 (std) 
variable        sensor_1_special_snsr_coeff_0 float           16545 
member          blk_parent_class          record          3221290755 
member          TWO_WIRE_OFFSET           collection      16540 
variable        sensor_1_special_snsr_coeff_1 float           16547 
variable        sensor_1_special_snsr_coeff_2 float           16549 
variable        sensor_1_special_snsr_coeff_3 float           16551 
chart           qv_gauge_hh                               16816 
menu            grp_sensor1degraded_hh                    16929 
command         read_pv_current_and_percent_range                 176 (std,mand,imp) 
menu            grp_failed_fix_now                        16878 
member          PARAM60                   parameter       3221266236 
member          PARAM61                   parameter       3221266237 
member          PARAM62                   parameter       3221266238 
member          PARAM63                   parameter       3221266239 
record          DIGVAL_RECORD40                           2147548984 
member          PARAM64                   parameter       3221266240 
record          DIGVAL_RECORD41                           2147548985 
member          PARAM65                   parameter       3221266241 
record          DIGVAL_RECORD42                           2147548986 
member          LOWER_TRIM_LIMIT          collection      16534 
member          PARAM66                   parameter       3221266242 
record          DIGVAL_RECORD43                           2147548987 
menu            device_information_hh                     16915 
member          PARAM67                   parameter       3221266243 
record          DIGVAL_RECORD44                           2147548988 
command         write_device_variable_sensor_serial_number                 4185 (std,imp) 
member          PARAM68                   parameter       3221266244 
record          DIGVAL_RECORD45                           2147548989 
member          PARAM69                   parameter       3221266245 
record          DIGVAL_RECORD46                           2147548990 
record          DIGVAL_RECORD47                           2147548991 
member          SHED_TIME                                 4218 (std) 
record          DIGVAL_RECORD48                           2147548992 
method          METHOD_sensor_2_type_conn                 16664 
record          DIGVAL_RECORD49                           2147548993 
variable        low_sat_value             float           16602 
variable        electronics_temperature_digital_value float           16401 
member          TREND_VALUE_0_DATA_QUALITY collection      4515 (std) 
member          ANALOG_VALUE              collection      193 (std) 
variable        physical_signaling_code   enumerated      171 (std,mand,imp) 
menu            grp_maintenance_fixnow                    16879 
member          PARAM50                   parameter       3221266226 
member          PARAM51                   parameter       3221266227 
member          PARAM52                   parameter       3221266228 
collection      secondary_variable        collection      243 (std,imp) 
variable        comm_status               bit-enumerated  152 (std,mand,imp) 
member          PARAM53                   parameter       3221266229 
record          DIGVAL_RECORD30                           2147548974 
member          DEVICE_SPECIFIC_STATUS_19_LATCHED_VALUE collection      4685 (std) 
variable        meter_decimal_point       enumerated      16604 
member          PARAM54                   parameter       3221266230 
record          DIGVAL_RECORD31                           2147548975 
menu            grp_secondary                             16899 
member          PARAM55                   parameter       3221266231 
record          DIGVAL_RECORD32                           2147548976 
member          SOURCE_DEVICE_ID                          4215 (std) 
member          PARAM56                   parameter       3221266232 
record          DIGVAL_RECORD33                           2147548977 
method          pre_send_configuration_method                 1007 (std) 
member          PARAM57                   parameter       3221266233 
record          DIGVAL_RECORD34                           2147548978 
image           calibration_error_image                   16776 
menu            PWA_Failed                                16909 
member          PARAM58                   parameter       3221266234 
record          DIGVAL_RECORD35                           2147548979 
member          term_CHART1               chart           16758 
variable        sensor_1_upper_trim_point_value float           16535 
member          PARAM59                   parameter       3221266235 
record          DIGVAL_RECORD36                           2147548980 
member          term_CHART2               chart           16773 
record          DIGVAL_RECORD37                           2147548981 
record          DIGVAL_RECORD38                           2147548982 
record          DIGVAL_RECORD39                           2147548983 
member          TREND_VALUE_1_DATA_QUALITY collection      4519 (std) 
command         write_cal_lower                           16436 
member          PARAM80                   parameter       3221266256 
variable        final_assembly_number     unsigned        169 (std,mand,imp) 
member          PARAM81                   parameter       3221266257 
variable        universal_revision        unsigned        156 (std,mand,imp) 
member          PARAM82                   parameter       3221266258 
menu            PWA_Maintenance                           16910 
variable        differential_damping_value float           16595 
member          PARAM83                   parameter       3221266259 
record          DIGVAL_RECORD20                           2147548964 
menu            grp_device_config                         16866 
variable        sensor_2_special_snsr_coeff_0 float           16580 
member          PARAM84                   parameter       3221266260 
record          DIGVAL_RECORD21                           2147548965 
variable        sensor_2_special_snsr_coeff_1 float           16581 
member          PARAM85                   parameter       3221266261 
record          DIGVAL_RECORD22                           2147548966 
variable        sensor_2_special_snsr_coeff_2 float           16582 
member          PARAM86                   parameter       3221266262 
record          DIGVAL_RECORD23                           2147548967 
variable        sensor_2_special_snsr_coeff_3 float           16583 
member          PARAM87                   parameter       3221266263 
record          DIGVAL_RECORD24                           2147548968 
member          f4_20                     source          16743 
member          PARAM88                   parameter       3221266264 
record          DIGVAL_RECORD25                           2147548969 
variable        device_specific_status_0  bit-enumerated  4139 (std,imp) 
member          PARAM89                   parameter       3221266265 
record          DIGVAL_RECORD26                           2147548970 
variable        device_specific_status_1  bit-enumerated  4140 (std,imp) 
array           transmitter_variables     collection      4109 (std) 
record          DIGVAL_RECORD27                           2147548971 
variable        device_specific_status_2  bit-enumerated  4141 (std,imp) 
record          DIGVAL_RECORD28                           2147548972 
variable        device_specific_status_3  bit-enumerated  4142 (std,imp) 
menu            MENU_a_to_d_conversion                    16466 
record          DIGVAL_RECORD29                           2147548973 
variable        device_specific_status_4  bit-enumerated  4143 (std,imp) 
axis            SENS1_Axis1                               16768 
axis            SENS1_Axis2                               16770 
method          METHOD_sensor_2_input_trim                 16653 
member          DEVICE_SPECIFIC_STATUS_21_LATCHED_VALUE collection      4687 (std) 
member          PARAM70                   parameter       3221266246 
member          PARAM71                   parameter       3221266247 
member          PARAM72                   parameter       3221266248 
member          PARAM73                   parameter       3221266249 
record          DIGVAL_RECORD10                           2147548954 
member          PARAM74                   parameter       3221266250 
record          DIGVAL_RECORD11                           2147548955 
member          PARAM75                   parameter       3221266251 
record          DIGVAL_RECORD12                           2147548956 
variable        material_code             enumerated      2028 (std,imp) 
method          method_refresh_alert_hh                   16722 
member          PARAM76                   parameter       3221266252 
record          DIGVAL_RECORD13                           2147548957 
member          PARAM77                   parameter       3221266253 
record          DIGVAL_RECORD14                           2147548958 
member          PARAM78                   parameter       3221266254 
record          DIGVAL_RECORD15                           2147548959 
member          PARAM79                   parameter       3221266255 
record          DIGVAL_RECORD16                           2147548960 
record          DIGVAL_RECORD17                           2147548961 
collection      __INPT                    variable        951 (std) 
member          TV_VAR_SOURCE             source          16803 
record          DIGVAL_RECORD18                           2147548962 
variable        physical_layer_type_codes enumerated      2048 (std,imp) 
record          DIGVAL_RECORD19                           2147548963 
method          METHOD_sensor_1_calvandu_disp                 16663 
member          OACK_RECEIVED             collection      4334 (std) 
method          write_protect_passwd_method                 16451 
variable        differential_minimum_span float           16594 
array           deviceVariables           collection      269 (std) 
menu            alert_hh                                  16918 
menu            MENU_process_sensor_setup                 16468 
menu            MENU_measurement_filtering                 16636 
menu            tab_analog_output                         16831 
command         write_burst_command_number                 4094 (std,imp) 
menu            sensor_manual_hh                          16938 
menu            noise_rejection                           16947 
command         burst_mode_control                        4096 (std,imp) 
member          DEVICE_SPECIFIC_STATUS_0_LATCHED_VALUE collection      4667 (std) 
variable        transfer_function         enumerated      8068 (std,imp) 
variable        device_family_status      enumerated      2054 (std,imp) 
menu            grp_open_sensor_holdoff                   16869 
member          STAT_ACK_CNT              collection      4268 (std) 
variable        electronics_temperature_damping_value float           16405 
member          TREND_VALUE_7_LIMIT_STATUS collection      4544 (std) 
command         read_dynamic_variables_and_pv_current                 177 (std,mand,imp) 
method          pv_digital_units                          16454 
variable        differential_serial_number unsigned        16596 
command         read_trim_units                           16614 
method          METHOD_write_protect_enable                 16490 
menu            config_variables_setup_dialog                 16820 
method          AM_snsr_2_config                          16682 
menu            MENU_calibration_dual                     16648 
method          write_protect_enable_method                 16452 
method          std_CheckWriteProtect                     1016 (std) 
menu            view_menu                                 1009 (std) 
menu            MENU_range_values                         16637 
menu            tab_sensor                                16830 
menu            window_device_information                 16846 
method          AM_snsr_1_config                          16681 
member          EXTENDED_FLD_DEVICE_STATUS_MASK collection      4648 (std) 
member          SV_SOURCE                 source          16794 
menu            device_status_hh                          16914 
menu            tab_active_link                           16734 
variable        sensor2_lower_sensor_limit float           16565 
variable        alarm_latching_mode       enumerated      16472 
variable        upper_trim_point_limit    float           16416 
source          qv_gauge_source_colorbar                  16807 
variable        lock_device_status_codes  enumerated      2046 (std,imp) 
collection      sensor1_measurement       variable        16384 
menu            MENU_variable_mapping                     16634 
variable        __sensor_lower_limit      float           958 (std) 
variable        sensor_2_connection       enumerated      16570 
member          TREND_CLASSIFICATION      collection      4509 (std) 
menu            grp_alarm_levels                          16861 
member          _MNG_VALUE                record          3221290752 
variable        background_period         float           1025 (std) 
member          DEVICE_SPECIFIC_STATUS_16_MASK collection      4657 (std) 
menu            grp_fourth                                16902 
variable        sensor1_measurement_upper_range_value float           16393 
variable        device_flags              bit-enumerated  160 (std,mand,imp) 
variable        sensor1_measurement_minimum_span float           16399 
member          TREND_DEVICE_VARIABLE_CODE collection      4508 (std) 
refresh         sensor_2_connection_relation                 16689 
method          method_sensor1_failed_hh                  16726 
menu            offline_root_menu                         1002 (std) 
variable        loop_alarm_code           enumerated      236 (std,imp) 
member          DIGITAL_UNITS             collection      190 (std) 
method          auto_loop_msg                             16441 
collection      __ANALOG                  variable        952 (std) 
menu            grp_terminal_information                  16887 
variable        transmitter_revision      unsigned        157 (std,imp) 
command         read_a_to_d_conversion_info                 16433 
menu            diagnostics_hh                            16913 
member          MAXIMUM_LOWER_TRIM_POINT                  4197 (std) 
command         read_special_sensor_coeff                 16621 
method          give_unit_notice                          16449 
member          UPPER_ENDPOINT_VALUE                      4086 (std) 
method          set_cvd_s1                                16712 
member          PV_VAR_SOURCE             source          16788 
method          method_terminalPRT_hh                     16728 
method          AM_turn_off_calibrator_mode                 16678 
member          TC_DEGRA_THRESHOLD        collection      16544 
member          SENSOR_CONN               collection      16526 
method          method_analog_output_saturated                 16720 
member          TREND_VALUE_0             collection      4514 (std) 
member          TREND_VALUE_1             collection      4518 (std) 
member          TREND_VALUE_2             collection      4522 (std) 
member          TREND_VALUE_3             collection      4526 (std) 
variable        sensor_2_special_alpha    float           16584 
member          TREND_VALUE_4             collection      4530 (std) 
variable        private_label_distributor enumerated      168 (std,mand,imp) 
member          TREND_VALUE_5             collection      4534 (std) 
member          TREND_VALUE_6             collection      4538 (std) 
member          TREND_VALUE_7             collection      4542 (std) 
member          TREND_VALUE_8             collection      4546 (std) 
image           terminal_temperature_failure_image                 16781 
member          TREND_VALUE_9             collection      4550 (std) 
member          DEVICE_SPECIFIC_STATUS_18_LATCHED_VALUE collection      4684 (std) 
source          AO_source                                 16737 
menu            display_hh                                16940 
chart           tv_gauge_hh                               16815 
member          TREND_VALUE_2_DEVICE_FAMILY_STATUS collection      4525 (std) 
menu            process_variables_root_menu                 1019 (std) 
variable        meter_selection           bit-enumerated  16603 
member          blk_dd_reference          record          3221290756 
command         read_output_response_mode                 16482 
variable        analog_channel_flags      enumerated      2050 (std,imp) 
method          enable_snsr_ref                           16447 
member          STANDARDIZED_STATUS_3_MASK collection      4653 (std) 
member          Sensor1_COLORBAR          chart           16752 
menu            trend_hh                                  16920 
member          DEVICE_SPECIFIC_STATUS_20_LATCHED_VALUE collection      4686 (std) 
method          method_terminal_PRT                       16716 
variable        local_sensor1_digital_units enumerated      16706 
variable        __analog_value            float           961 (std) 
member          EVENT_DEBOUNCE_INTERVAL   collection      4640 (std) 
variable        low_alarm_value           float           16600 
variable        electronics_temperature_minimum_span float           16514 
variable        differential_digital_units enumerated      16588 
variable        analog_output_numbers_code enumerated      2036 (std,imp) 
member          DEVICE_SPECIFIC_STATUS_3_LATCHED_VALUE collection      4670 (std) 
image           sensor_1_degraded_RTD_image                 16777 
unit            sensor_1_trim_relation                    16686 
variable        sensor1_serial_number     unsigned        16396 
member          DEVICE_SPECIFIC_STATUS_2_MASK collection      4644 (std) 
member          SOURCE_MANUFACTURER                       4213 (std) 
member          UPPER_TRIM_POINT                          4199 (std) 
variable        device_variable_classification_codes enumerated      2043 (std,imp) 
menu            MENU_process_sensor_limits                 16469 
menu            config_simulate_setup_dialog                 16823 
menu            tab_device_maint                          16841 
method          AM_snsr_2_trim                            16680 
member          PARAM210                  parameter       3221266386 
member          PARAM211                  parameter       3221266387 
member          PARAM212                  parameter       3221266388 
member          PARAM213                  parameter       3221266389 
variable        not_used_measurement_digital_units enumerated      16510 
member          PARAM214                  parameter       3221266390 
member          PARAM215                  parameter       3221266391 
member          PARAM216                  parameter       3221266392 
variable        analog_channel_fixed_codes enumerated      2263 (std,imp) 
member          PARAM217                  parameter       3221266393 
member          PARAM218                  parameter       3221266394 
member          PARAM219                  parameter       3221266395 
source          pv_gauge_source_colorbar                  16785 
member          PARAM220                  parameter       3221266396 
member          PARAM221                  parameter       3221266397 
member          PARAM222                  parameter       3221266398 
member          PARAM223                  parameter       3221266399 
member          PARAM224                  parameter       3221266400 
member          PARAM225                  parameter       3221266401 
variable        sensor1_digital_value     float           16515 
member          PARAM226                  parameter       3221266402 
menu            tab_active                                16835 
member          PARAM227                  parameter       3221266403 
variable        sensor1_measurement_lower_range_value float           16394 
member          PARAM228                  parameter       3221266404 
member          PARAM229                  parameter       3221266405 
variable        tag                       packed-ascii    163 (std,mand,imp) 
variable        sensor1_lower_sensor_limit float           16519 
member          PARAM230                  parameter       3221266406 
member          PARAM231                  parameter       3221266407 
member          PARAM232                  parameter       3221266408 
member          PARAM233                  parameter       3221266409 
member          TREND_VALUE_9_LIMIT_STATUS collection      4552 (std) 
member          PARAM234                  parameter       3221266410 
collection      __DEV                     variable        963 (std) 
member          PARAM235                  parameter       3221266411 
menu            grp_device_reset                          16871 
menu            MENU_electronics_temperature_sensor_block                 16465 
member          PARAM236                  parameter       3221266412 
member          PARAM237                  parameter       3221266413 
member          PARAM238                  parameter       3221266414 
variable        analog_channel_saturated1 bit-enumerated  4157 (std,imp) 
member          PARAM239                  parameter       3221266415 
member          SENSOR_SERIAL_NUMBER      collection      199 (std) 
variable        loop_current_mode         enumerated      2056 (std,imp) 
variable        software_revision         unsigned        158 (std,mand,imp) 
member          PARAM240                  parameter       3221266416 
member          TV_SOURCE                 source          16801 
member          PARAM241                  parameter       3221266417 
menu            grp_sensor_information                    16897 
member          PARAM242                  parameter       3221266418 
member          PARAM243                  parameter       3221266419 
image           memory_failure_image                      16774 
method          METHOD_abort_sensor_trim_factory                 16484 
member          PARAM244                  parameter       3221266420 
member          PARAM245                  parameter       3221266421 
member          PARAM246                  parameter       3221266422 
member          PARAM247                  parameter       3221266423 
member          ALARM_CODE                collection      196 (std) 
member          PARAM248                  parameter       3221266424 
member          PARAM249                  parameter       3221266425 
variable        secondary_variable_code   index           4049 (std,imp) 
member          DIGITAL_VALUE             collection      191 (std) 
command         read_unique_identifier                    174 (std,mand,imp) 
variable        __input_percent_range     float           965 (std) 
menu            grp_sensor1_failed                        16882 
variable        rtd_snsr                  unsigned        16496 
menu            Menu_Main_Maintenance                     1017 (std) 
member          TREND_VALUE_0_LIMIT_STATUS collection      4516 (std) 
write-as-one    sensor_connect_1                          16692 
write-as-one    sensor_connect_2                          16693 
axis            SENS1_Axis                                16754 
member          DEVICE_SPECIFIC_STATUS_22_MASK collection      4663 (std) 
variable        write_protect_passwd_dummy packed-ascii    16425 
chart           current_gauge_chart_alert_fixed                 16746 
method          std_CheckDeviceIdentificationDownload                 1015 (std) 
image           terminal_temperature_beyond_operating_range_image                 16782 
member          PARAM200                  parameter       3221266376 
menu            grp_primary_variable_out_of_limits_sensortemp                 16888 
member          PARAM201                  parameter       3221266377 
member          PARAM202                  parameter       3221266378 
member          STX_SENT                  collection      4331 (std) 
member          PARAM203                  parameter       3221266379 
member          TREND_VALUE_2_LIMIT_STATUS collection      4524 (std) 
member          PARAM204                  parameter       3221266380 
member          PARAM205                  parameter       3221266381 
member          PARAM206                  parameter       3221266382 
member          PARAM207                  parameter       3221266383 
member          PARAM208                  parameter       3221266384 
member          PARAM209                  parameter       3221266385 
command         read_calibrator_mode                      16623 
member          TERMINAL_SOURCE_COLOURBAR source          16762 
member          CVD_BETA                  collection      16558 
member          PARAM290                  parameter       3221266466 
command         write_message                             185 (std,mand,imp) 
member          PARAM291                  parameter       3221266467 
command         reset_configuration_change_flag                 4010 (std,imp) 
command         read_static_data_configuration                 16427 
member          PARAM292                  parameter       3221266468 
array           subdevice_variables       collection      4243 (std) 
member          PARAM293                  parameter       3221266469 
variable        analog_channel_saturated_codes enumerated      2262 (std,imp) 
member          PARAM294                  parameter       3221266470 
member          PARAM295                  parameter       3221266471 
member          PARAM296                  parameter       3221266472 
write-as-one    scaling_wao                               252 (std,imp) 
member          PARAM297                  parameter       3221266473 
axis            pv_gauge_axis                             16784 
member          PARAM298                  parameter       3221266474 
member          PARAM299                  parameter       3221266475 
menu            grp_measurement                           16857 
menu            tab_variables                             16836 
axis            f4_20_axis                                16742 
variable        loop_current_mode_codes   enumerated      2041 (std,imp) 
variable        electronics_temperature_upper_range_value float           16512 
method          METHOD_sensor_1_input_trim                 16651 
member          TREND_VALUE_4_LIMIT_STATUS collection      4532 (std) 
menu            grp_primary_value                         16863 
command         write_static_data_configuration                 16428 
variable        alarm_selection_code      enumerated      2027 (std,imp) 
source          term_Source                               16757 
variable        __sensor_units            enumerated      957 (std) 
variable        sensor1_measurement_lower_sensor_limit float           16398 
menu            MENU_differential_temperature                 16660 
method          std_CheckDeviceIdentificationUpload                 1014 (std) 
menu            grp_primary_variable_config                 16860 
member          SPECIAL_SENSOR_COEFF_0    collection      16546 
member          UPPER_TRIM_VALUE          collection      16536 
member          SPECIAL_SENSOR_COEFF_1    collection      16548 
member          _MNG_STATUS               record          3221290753 
member          SPECIAL_SENSOR_COEFF_2    collection      16550 
member          SPECIAL_SENSOR_COEFF_3    collection      16552 
command         read_alarm_levels                         16626 
menu            active_link                               16877 
variable        uint8_var_blk_char        unsigned        2147548932 
command         write_user_trim_upper                     16430 
variable        limit_status              enumerated      2053 (std,imp) 
member          TREND_VALUE_6_LIMIT_STATUS collection      4540 (std) 
member          UNIV_CMD_REV              collection      4265 (std) 
variable        write_device_variable_codes enumerated      2045 (std,imp) 
member          DATA_QUALITY                              247 (std) 
member          TIME_OF_FIRST_UNACK_EVENT collection      4637 (std) 
member          MINIMUM_LOWER_TRIM_POINT                  4196 (std) 
member          PARAM250                  parameter       3221266426 
member          PARAM251                  parameter       3221266427 
member          PARAM252                  parameter       3221266428 
member          PARAM253                  parameter       3221266429 
member          TREND_VALUE_3_LIMIT_STATUS collection      4528 (std) 
variable        sensor_1_connection       enumerated      16525 
variable        sensor1_lower_range_value float           16517 
member          PARAM254                  parameter       3221266430 
member          PARAM255                  parameter       3221266431 
variable        trim_unit_local           enumerated      16705 
member          PARAM256                  parameter       3221266432 
menu            grp_noise_rejection                       16870 
member          PARAM257                  parameter       3221266433 
array           MENU_calibration          menu            16628 
member          PARAM258                  parameter       3221266434 
menu            simulate_hh                               16922 
member          PARAM259                  parameter       3221266435 
member          DEVICE_SPECIFIC_STATUS_23_LATCHED_VALUE collection      4689 (std) 
command         write_output_response_threshold                 16625 
member          PARAM260                  parameter       3221266436 
member          PARAM261                  parameter       3221266437 
member          PARAM262                  parameter       3221266438 
variable        int8_var_blk_char         integer         2147548931 
member          PARAM263                  parameter       3221266439 
member          TREND_VALUE_8_LIMIT_STATUS collection      4548 (std) 
menu            grp_primary_variable_out_of_limits_hh                 16932 
member          PARAM264                  parameter       3221266440 
member          CHANNEL                   collection      4261 (std) 
member          PARAM265                  parameter       3221266441 
menu            grp_sensor1_failed_hh                     16925 
variable        digital_units             enumerated      16389 
member          PARAM266                  parameter       3221266442 
member          DAMPING_VALUE             collection      198 (std) 
member          PARAM267                  parameter       3221266443 
variable        sensor2_serial_number     unsigned        16568 
member          PARAM268                  parameter       3221266444 
member          PARAM269                  parameter       3221266445 
command         read_unique_identifier_with_tag                 179 (std,mand,imp) 
chart           sv_gauge_hh                               16814 
member          PARAM270                  parameter       3221266446 
member          QV_VAR_SOURCE             source          16810 
member          PARAM271                  parameter       3221266447 
member          PARAM272                  parameter       3221266448 
source          sensor1_value_source_colourbar                 16751 
member          PARAM273                  parameter       3221266449 
member          TREND_VALUE_5_LIMIT_STATUS collection      4536 (std) 
member          PARAM274                  parameter       3221266450 
member          PARAM275                  parameter       3221266451 
member          PARAM276                  parameter       3221266452 
member          PARAM277                  parameter       3221266453 
member          PARAM278                  parameter       3221266454 
member          PARAM279                  parameter       3221266455 
variable        old_write_protect_passwd  packed-ascii    16475 
command         read_2_wire_ohms_lead_correction                 16609 
member          PARAM280                  parameter       3221266456 
member          PARAM281                  parameter       3221266457 
member          PARAM282                  parameter       3221266458 
member          PARAM283                  parameter       3221266459 
member          PARAM284                  parameter       3221266460 
member          ANALOG_CHANNEL_SATURATED1_LATCHED_VALUE collection      4676 (std) 
variable        sensor_1_two_wire_offset  float           16539 
member          PARAM285                  parameter       3221266461 
member          PARAM286                  parameter       3221266462 
member          PARAM287                  parameter       3221266463 
member          PARAM288                  parameter       3221266464 
member          PARAM289                  parameter       3221266465 
menu            grp_configuration                         16865 
command         write_meter_configuration                 16619 
variable        __input_transfer_function enumerated      966 (std) 
source          tv_gauge_source_colorbar                  16800 
member          PARAM110                  parameter       3221266286 
member          PARAM111                  parameter       3221266287 
member          PARAM112                  parameter       3221266288 
command         read_static_data_trim                     16429 
member          PARAM113                  parameter       3221266289 
variable        sensor_2_tc_degra_mode    enumerated      16578 
member          PARAM114                  parameter       3221266290 
menu            upload_variables                          1003 (std) 
member          PARAM115                  parameter       3221266291 
member          PARAM1                    parameter       3221266176 
member          PARAM116                  parameter       3221266292 
member          PARAM2                    parameter       3221266177 
member          TREND_VALUE_10            collection      4554 (std) 
axis            term_Axis                                 16731 
member          PARAM117                  parameter       3221266293 
member          PARAM3                    parameter       3221266178 
member          TREND_VALUE_11            collection      4558 (std) 
member          PARAM118                  parameter       3221266294 
member          PARAM4                    parameter       3221266179 
member          SENSOR_CALIB              collection      16528 
member          PARAM119                  parameter       3221266295 
member          PARAM5                    parameter       3221266180 
member          PARAM6                    parameter       3221266181 
member          PARAM7                    parameter       3221266182 
member          PARAM8                    parameter       3221266183 
member          DEVICE_SPECIFIC_STATUS_3_MASK collection      4645 (std) 
chart           sensor_temperature_gauge                  16750 
member          PARAM9                    parameter       3221266184 
menu            grp_sensor                                16852 
member          PARAM120                  parameter       3221266296 
member          PARAM121                  parameter       3221266297 
member          PARAM122                  parameter       3221266298 
member          PARAM123                  parameter       3221266299 
member          PARAM124                  parameter       3221266300 
member          PARAM125                  parameter       3221266301 
member          PARAM126                  parameter       3221266302 
member          PARAM127                  parameter       3221266303 
member          PARAM128                  parameter       3221266304 
source          qv_gauge_source                           16809 
member          PARAM129                  parameter       3221266305 
image           senso_1_open_image                        16778 
method          sensor_input_trim                         16443 
menu            MENU_snsr_1_review                        16673 
menu            window_terminal_information                 16886 
member          QV_SOURCE                 source          16808 
member          PARAM130                  parameter       3221266306 
member          PARAM131                  parameter       3221266307 
variable        sensor_1_lower_trim_point_limit float           16533 
member          PARAM132                  parameter       3221266308 
member          PARAM133                  parameter       3221266309 
member          PARAM134                  parameter       3221266310 
variable        units_code                enumerated      2025 (std,imp) 
menu            upload_from_device_root_menu                 1024 (std) 
member          PARAM135                  parameter       3221266311 
member          PARAM136                  parameter       3221266312 
member          PARAM137                  parameter       3221266313 
member          PARAM138                  parameter       3221266314 
menu            grp_analog_output_fixed                   16891 
unit            ref_relation                              16456 
member          PARAM139                  parameter       3221266315 
menu            MENU_snsr_2_review                        16675 
menu            MENU_device_info_review                   16643 
member          PARAM140                  parameter       3221266316 
variable        calibrator_mode           enumerated      16597 
member          PARAM141                  parameter       3221266317 
member          TRIM_UNITS                collection      16530 
member          PARAM142                  parameter       3221266318 
member          PARAM143                  parameter       3221266319 
member          PARAM144                  parameter       3221266320 
member          PARAM145                  parameter       3221266321 
menu            grp_analog_output_saturated_hh                 16934 
member          PARAM146                  parameter       3221266322 
member          PARAM147                  parameter       3221266323 
variable        electronics_temperature_digital_units enumerated      16400 
member          PARAM148                  parameter       3221266324 
member          PARAM149                  parameter       3221266325 
method          METHOD_Calibrate_Sensor                   16708 
method          method_sensor1shorted_hh                  16727 
method          leave_fixed_current_mode                  4099 (std,imp) 
menu            variables_hh                              16919 
menu            guided_setup_hh                           16916 
command         write_polling_address                     178 (std,mand,imp) 
member          DEVICE_FAMILY_STATUS                      249 (std) 
menu            MENU_status_byte_0                        16629 
menu            MENU_status_byte_1                        16630 
menu            MENU_status_byte_2                        16631 
menu            MENU_status_byte_3                        16632 
menu            MENU_status_byte_4                        16633 
menu            tab_overview                              16828 
method          AM_read_active_calibrator_mode                 16677 
variable        high_alarm_value          float           16599 
unit            __input_units_relation                    976 (std) 
member          LOWER_TRIM_POINT                          4198 (std) 
edit-display    __key_pad_rerange                         954 (std) 
variable        __sensor_serial_number    unsigned        955 (std) 
menu            grp_setup                                 16855 
member          blk_dd_revision           record          3221290757 
member          PARAM100                  parameter       3221266276 
member          PARAM101                  parameter       3221266277 
member          PARAM102                  parameter       3221266278 
member          MANUFID                   collection      4262 (std) 
member          PARAM103                  parameter       3221266279 
member          PARAM104                  parameter       3221266280 
member          PARAM105                  parameter       3221266281 
member          PARAM106                  parameter       3221266282 
member          PARAM107                  parameter       3221266283 
member          PARAM108                  parameter       3221266284 
member          PARAM109                  parameter       3221266285 
refresh         write_protect_relation                    16691 
member          MAX_UPDATE_TIME           collection      4639 (std) 
member          DEVICE_SPECIFIC_STATUS_17_MASK collection      4658 (std) 
variable        sensor_1_upper_trim_point_limit float           16531 
member          PARAM190                  parameter       3221266366 
member          PARAM191                  parameter       3221266367 
member          PARAM192                  parameter       3221266368 
member          PARAM193                  parameter       3221266369 
command         enter_exit_fixed_pv_current_mode                 4013 (std,imp) 
member          PARAM194                  parameter       3221266370 
member          PARAM195                  parameter       3221266371 
array           burst_event_array         collection      4575 (std) 
member          PARAM196                  parameter       3221266372 
member          PARAM197                  parameter       3221266373 
menu            grp_write_protect                         16868 
member          PARAM198                  parameter       3221266374 
variable        primary_variable_code     index           4048 (std,imp) 
variable        tc_factory                unsigned        16497 
member          PARAM199                  parameter       3221266375 
command         read_device_options                       16611 
member          STANDARDIZED_STATUS_0_MASK collection      4649 (std) 
variable        sensor_2_lower_trim_point_value float           16576 
menu            alarm_saturation_levels_hh                 16944 
record          hart_blk_char                             2147548929 
variable        upper_lower_trim_units    enumerated      16414 
variable        ma_analog_output_1_value  float           16387 
variable        percentRange              float           233 (std,imp) 
member          SOURCE_COMMAND_NUMBER                     4216 (std) 
variable        electronics_temperature_lower_sensor_limit float           16404 
unit            trim_relation                             16457 
variable        dd_revision               integer         16704 
menu            Menu_Main_Specialist                      1012 (std) 
chart           analog_output_gauge                       16741 
variable        single_no_tc_degradation  unsigned        16607 
command         write_alarm_levels                        16620 
menu            revision_information_hh                   16936 
variable        upper_lower_ref_units     enumerated      16415 
member          PARAM150                  parameter       3221266326 
collection      analog_io                 variable        240 (std,imp) 
member          PARAM151                  parameter       3221266327 
member          PARAM152                  parameter       3221266328 
command         trim_pv_current_dac_zero                  4018 (std,imp) 
member          PARAM153                  parameter       3221266329 
menu            MENU_sensors_review_single                 16671 
member          PARAM154                  parameter       3221266330 
member          ANALOG_CHANNEL_FIXED1_MASK collection      4654 (std) 
member          PARAM155                  parameter       3221266331 
member          PARAM156                  parameter       3221266332 
member          PARAM157                  parameter       3221266333 
variable        sensor_1_calibration_mode enumerated      16527 
menu            MENU_measurement_filtering_review                 16644 
member          PARAM158                  parameter       3221266334 
member          PARAM159                  parameter       3221266335 
member          DEVICE_SPECIFIC_STATUS_22_LATCHED_VALUE collection      4688 (std) 
member          PARAM160                  parameter       3221266336 
member          PARAM161                  parameter       3221266337 
member          PARAM162                  parameter       3221266338 
member          PARAM163                  parameter       3221266339 
member          DEVICE_SPECIFIC_STATUS_1_LATCHED_VALUE collection      4668 (std) 
member          PARAM164                  parameter       3221266340 
member          PARAM165                  parameter       3221266341 
member          PARAM166                  parameter       3221266342 
method          method_memory_failure_hh                  16725 
member          PARAM167                  parameter       3221266343 
member          PARAM168                  parameter       3221266344 
member          PARAM169                  parameter       3221266345 
member          SENSOR_TYPE               collection      16524 
variable        tc_snsr                   unsigned        16494 
member          PARAM170                  parameter       3221266346 
menu            overview_hh                               16911 
member          PARAM171                  parameter       3221266347 
member          TREND_VALUE_11_LIMIT_STATUS collection      4560 (std) 
menu            MENU_process_sensor_trim                  16463 
member          PARAM172                  parameter       3221266348 
collection      differential_measurement  variable        16504 
member          PARAM173                  parameter       3221266349 
menu            cal_van_dusen_coefficients_hh                 16937 
member          PARAM174                  parameter       3221266350 
member          PARAM175                  parameter       3221266351 
member          PARAM176                  parameter       3221266352 
member          ANALOG_CHANNEL                            212 (std) 
variable        unknown_float             float           16700 
member          PARAM177                  parameter       3221266353 
command         write_tc_pulsing_mode                     16479 
member          PARAM178                  parameter       3221266354 
member          PARAM179                  parameter       3221266355 
variable        __sensor_damping_value    float           964 (std) 
command         write_pv_units                            4017 (std,imp) 
member          LOWER_SENSOR_LIMIT        collection      202 (std) 
member          PARAM180                  parameter       3221266356 
member          MAX_UPDATE_PERIOD         collection      4384 (std) 
member          PARAM181                  parameter       3221266357 
command         read_device_variable_assignments                 4178 (std,imp) 
menu            sensor_calibration_hh                     16957 
member          PARAM182                  parameter       3221266358 
member          DEVICE_STATUS                             216 (std) 
member          PARAM183                  parameter       3221266359 
variable        sensor_1_upper_lower_trim_units enumerated      16529 
member          PARAM184                  parameter       3221266360 
menu            MENU_sensor1_trim                         16649 
member          PARAM185                  parameter       3221266361 
member          PARAM186                  parameter       3221266362 
member          SENSOR_UPPER_TRIM                         6007 (std) 
member          PARAM187                  parameter       3221266363 
variable        sensor2_lower_range_value float           16563 
member          PARAM188                  parameter       3221266364 
menu            tab_revision_info                         16848 
member          PARAM189                  parameter       3221266365 
member          DEVICE_FAMILY                             253 (std) 
member          UPPER_RANGE_VALUE         collection      204 (std) 
menu            dialog_view_all_variables                 16859 
menu            MENU_sensor_current                       16493 
variable        burst_mode_select         enumerated      4095 (std,imp) 
method          post_send_configuration_method                 1008 (std) 
menu            hot_key                                   1001 (std) 
menu            MENU_write_protect                        16462 
variable        a_to_d_conversion_info    enumerated      16410 
command         write_cal_upper                           16437 
menu            grp_display                               16854 
variable        sensor1_measurement_percent_range float           16392 
source          tv_gauge_source                           16802 
unit            differential_measurement_relation                 16685 
variable        electronics_temperature_upper_sensor_limit float           16403 
variable        device_variable_family_codes enumerated      2049 (std,imp) 
menu            tab_analog_calibration                    16840 
member          BURST_TRIGGER_MODE        collection      4394 (std) 
member          TRANSFER_FUNCTION         collection      197 (std) 
variable        extended_fld_device_status bit-enumerated  2055 (std,imp) 
variable        linearization_mode        enumerated      16409 
method          ABORT_METHOD_sensor1_restore_factory_cal                 16709 
menu            grp_sensor_calibration_info                 16904 
menu            grp_status                                16843 
axis            qv_gauge_axis                             16806 
variable        __new_digital_units       enumerated      970 (std) 
method          METHOD_check_write_protect                 16491 
member          TREND_VALUE_10_LIMIT_STATUS collection      4556 (std) 
variable        device_status             bit-enumerated  151 (std,mand,imp) 
source          Sensor1_Source                            16748 
member          blk_index_dis             record          3221290762 
block           _MNG_HART_BLOCK                           2147548928 
command         read_max_number_device_sensors                 16612 
member          BURST_CLASSIFICATION      collection      4395 (std) 
menu            fourth_variable_hh                        16954 
member          ANALOG_UNITS                              4070 (std) 
variable        device_variable_code      index           4167 (std,imp) 
menu            grp_memory_failure                        16881 
menu            grp_configuration_changed                 16892 
menu            grp_device_maint                          16906 
method          master_test                               16442 
collection      sensor_2_variables        variable        16509 
member          DEVICE_VARIABLE           collection      211 (std) 
variable        sensor1_digital_units     enumerated      16406 
write-as-one    sensor_connect                            16461 
menu            MENU_sensors_review_dual                  16672 
member          STANDARDIZED_STATUS_1_LATCHED_VALUE collection      4675 (std) 
array           factory_protection_array  variable        1006 (std) 
variable        uint32_var_blk_char       unsigned        2147548934 
variable        lower_cal_trim_point_value float           16420 
command         read_message                              180 (std,mand,imp) 
chart           qv_gauge                                  16811 
menu            grp_terminalPRT_failure                   16884 
menu            MENU_process_sensor_block                 16464 
variable        differential_lower_sensor_limit float           16593 
menu            MENU_calibration_single                   16647 
array           IO_card_channel           array           4356 (std) 
variable        __input_lower_value       float           969 (std) 
menu            grp_terminal_PRT                          16894 
menu            config_trends_setup_dialog                 16821 
refresh         sensor_1_connection_relation                 16688 
variable        __input_units             enumerated      967 (std) 
member          DEVICE_SPECIFIC_STATUS_23_MASK collection      4664 (std) 
menu            window_sensor_alert                       16896 
chart           tv_gauge                                  16804 
method          METHOD_pv_digital_units                   16492 
member          DUMMY                                     246 (std) 
variable        response_code             enumerated      150 (std,mand,imp) 
menu            fms_menu                                  2147548944 
variable        flag_assignment           enumerated      2034 (std,imp) 
image           electronics_failure_image                 16775 
method          METHOD_sensor_trim_factory                 16485 
variable        __sensor_value            float           956 (std) 
chart           sv_gauge                                  16797 
menu            MENU_xmtr_vars_single                     16645 
method          variable_mapping                          16450 
method          sensor_type_conn                          16448 
menu            grp_sensor_calibration                    16903 
menu            grp_sensor1degraded                       16893 
member          SENSOR_UNITS                              200 (std) 
variable        special_sensor_type       enumerated      16412 
member          CONFIG_CHANGE_COUNTER_LATCHED_VALUE collection      4691 (std) 
variable        hart_functions            bit-enumerated  1005 (std) 
command         read_tc_degra_threshold_mode                 16616 
member          LONG_TAG                  collection      4266 (std) 
chart           sensor_temperature_trend                  16763 
command         write_a_to_d_conversion_info                 16434 
menu            grp_device                                16853 
variable        polling_address           unsigned        162 (std,mand,imp) 
member          Src_term                  source          16761 
collection      tertiary_variable         collection      244 (std,imp) 
chart           pv_gauge                                  16789 
member          DEVICE_SPECIFIC_STATUS_15_LATCHED_VALUE collection      4681 (std) 
variable        sensor_1_special_delta    float           16555 
collection      __pv                      variable        974 (std) 
method          METHOD_change_sensor_units                 16523 
method          METHOD_sensor_referencing                 16486 
image           img_no_active_alerts                      16735 
command         read_tag_descriptor_date                  181 (std,mand,imp) 
member          RANGING                   collection      214 (std) 
menu            third_variable_hh_when_not_used                 16953 
command         write_device_variable_units                 4182 (std,imp) 
menu            MENU_xmtr_vars_dual                       16646 
member          DEV_ID                    collection      4264 (std) 
member          LOWER_TRIM_VALUE          collection      16538 
chart           terminal_gauge                            16756 
variable        __input_upper_value       float           968 (std) 
menu            grp_shortcuts                             16845 
command         write_user_trim_lower                     16431 
method          scaled_dac_trim                           4101 (std,imp) 
menu            grp_calibration_failure_hh                 16931 
variable        differential_upper_sensor_limit float           16592 
menu            grp_variable_mapping                      16875 
command         read_additional_device_status                 4163 (std,imp) 
member          DEVICE_SPECIFIC_STATUS_4_LATCHED_VALUE collection      4671 (std) 
variable        trim_location             enumerated      16411 
method          method_no_active_alerts_hh                 16724 
menu            config_maintenance_setup_dialog                 16822 
variable        differential_lower_range_value float           16591 
menu            Table_Main_Maintenance                    1011 (std) 
unit            sensor_2_trim_relation                    16687 
command         read_rtd_constant_current_mode                 16476 
variable        sensor1_measurement_damping_value float           16395 
member          MAXIMUM_UPPER_TRIM_POINT                  4201 (std) 
menu            tab_terminal_temperature                  16838 
refresh         __x1                                      972 (std) 
menu            grp_analog_output_saturated                 16890 
refresh         __x2                                      973 (std) 
menu            grp_pri_prp_variable                      16844 
variable        input_percent_range       float           16502 
array           MENU_sensors              menu            16635 
member          BURST_VAR_0               collection      4386 (std) 
member          BURST_VAR_1               collection      4387 (std) 
member          BURST_VAR_2               collection      4388 (std) 
member          BURST_VAR_3               collection      4389 (std) 
member          ACK_RECEIVED              collection      4332 (std) 
member          PARAM310                  parameter       3221266486 
member          BURST_VAR_4               collection      4390 (std) 
member          PARAM311                  parameter       3221266487 
member          BURST_VAR_5               collection      4391 (std) 
member          PARAM312                  parameter       3221266488 
member          BURST_VAR_6               collection      4392 (std) 
member          PARAM313                  parameter       3221266489 
member          BURST_VAR_7               collection      4393 (std) 
member          PARAM314                  parameter       3221266490 
member          PARAM315                  parameter       3221266491 
member          TREND_0_DATE_STAMP        collection      4512 (std) 
refresh         sensor_connection_relation                 16459 
member          PARAM316                  parameter       3221266492 
member          PARAM317                  parameter       3221266493 
array           burst_message_array       collection      4434 (std) 
member          PARAM318                  parameter       3221266494 
member          PARAM319                  parameter       3221266495 
menu            MENU_rerange                              16695 
menu            secondary_variable_hh                     16950 
member          PARAM320                  parameter       3221266496 
source          sv_gauge_source_colorbar                  16793 
member          PARAM321                  parameter       3221266497 
member          PARAM322                  parameter       3221266498 
method          AM_re_read_mapping                        16683 
collection      ambient_temperature       variable        16385 
member          PARAM323                  parameter       3221266499 
member          TREND_SAMPLE_INTERVAL     collection      4511 (std) 
menu            config_manual_setup_dialog                 16818 
member          PARAM324                  parameter       3221266500 
member          PARAM325                  parameter       3221266501 
member          PARAM326                  parameter       3221266502 
member          PARAM327                  parameter       3221266503 
member          PARAM328                  parameter       3221266504 
source          sv_gauge_source                           16795 
member          PARAM329                  parameter       3221266505 
member          DEVICE_SPECIFIC_STATUS_4_MASK collection      4646 (std) 
variable        loopCurrent               float           237 (std,imp) 
member          PARAM330                  parameter       3221266506 
member          LOWER_RANGE_VALUE         collection      205 (std) 
variable        tertiary_variable_code    index           4050 (std,imp) 
member          blk_profile               record          3221290758 
variable        ma_analog_output_1_alarm_select enumerated      16388 
command         write_open_sensor_holdoff_mode                 16698 
variable        sensor_2_lower_trim_point_limit float           16574 
refresh         REFRESH_units_relation                    16694 
variable        device_options            bit-enumerated  16559 
command         perform_device_reset                      4138 (std,imp) 
menu            grp_sensor1shorted_hh                     16926 
variable        capture_mode_codes        enumerated      2051 (std,imp) 
member          DEVICE_SPECIFIC_STATUS_14_MASK collection      4655 (std) 
member          CVD_DELTA                 collection      16556 
member          MINIMUM_UPPER_TRIM_POINT                  4200 (std) 
menu            tab_device_info                           16847 
method          method_primary_variable_out_of_limits                 16718 
menu            grp_third                                 16901 
menu            grp_variable_mapping_hh                   16945 
menu            tab_simulate                              16842 
variable        tc_pulsing_mode           enumerated      16470 
method          transmitter_dac_trim                      4132 (std,imp) 
menu            grp_sensor1_out_of_range                  16889 
method          METHOD_sensor_2_trim_factory                 16654 
menu            MENU_sensors_dual                         16657 
member          STANDARDIZED_STATUS_0_LATCHED_VALUE collection      4674 (std) 
member          IO_CARD                   collection      4260 (std) 
menu            grp_terminal_temp                         16867 
command         read_pv_sensor_info                       182 (std,mand,imp) 
menu            grp_sensor1_out_of_range_hh                 16933 
collection      sensor_1_variables        variable        16508 
variable        extended_device_status_codes enumerated      2042 (std,imp) 
menu            grp_ao_verification                       16907 
axis            tv_gauge_axis                             16799 
member          PARAM300                  parameter       3221266476 
member          PARAM301                  parameter       3221266477 
member          PARAM302                  parameter       3221266478 
image           device_icon                               1021 (std) 
variable        sensor2_minimum_span      float           16566 
member          PARAM303                  parameter       3221266479 
member          PARAM304                  parameter       3221266480 
member          PARAM305                  parameter       3221266481 
member          PARAM306                  parameter       3221266482 
member          PARAM307                  parameter       3221266483 
member          PARAM308                  parameter       3221266484 
member          PARAM309                  parameter       3221266485 
menu            grp_term_temp_beyond_operating_range_image                 16930 
member          TRIM_POINT_UNITS                          4121 (std) 
variable        max_sensors               enumerated      16587 
menu            maintenance_hh                            16921 
member          ANALOG_DAMPING                            4078 (std) 
variable        single_tc_degradation     unsigned        16605 
menu            tab_guided_setup                          16829 
variable        upper_cal_error_value     float           16423 
member          OSTX_RECEIVED             collection      4333 (std) 
source          Sensor1_Source1                           16766 
source          Sensor1_Source2                           16764 
member          DEVICE_SPECIFIC_STATUS_18_MASK collection      4659 (std) 
variable        sensor_2_upper_trim_point_limit float           16573 
member          DEVICE_CLASS                              215 (std) 
member          SENSOR1_SOURCE_COLOURBAR  source          16755 
member          SV_SOURCE_COLORBAR        chart           16798 
menu            analog_output_hh                          16939 
member          Src_SENS1                 source          16753 
array           subdevice_burst_array     variable        4321 (std) 
member          Src_SENS2                 source          16769 
member          CVD_ALPHA                 collection      16554 
member          DEV_OPERATING_MODE_MASK   collection      4843 (std) 
command         read_device_variable_information                 4183 (std,imp) 
member          STANDARDIZED_STATUS_1_MASK collection      4650 (std) 
image           device_common_img                         16783 
member          TREND_VALUE_1_LIMIT_STATUS collection      4520 (std) 
chart           terminal_temperature_trend                 16771 
variable        sensor_1_lower_trim_point_value float           16537 
menu            device_status_dummy                       16923 
command         read_meter_configuration                  16618 
menu            diagnostic_root_menu                      1018 (std) 
variable        sensor_2_special_delta    float           16585 
variable        sensor_2_upper_lower_trim_units enumerated      16572 
image           sensor_1_out_of_operating_range_image                 16780 
member          DEVICE_SPECIFIC_STATUS_14_LATCHED_VALUE collection      4680 (std) 
member          RANGE_UNITS               collection      203 (std) 
method          std_CheckDeviceIdentification                 1013 (std) 
method          METHOD_sensor_1_trim_factory                 16652 
source          AO_value_source_colourbar                 16739 
method          __univ_self_test                          953 (std) 
array           sensor_variables          collection      16507 
menu            MENU_hart_output_review                   16669 
member          DEVICE_SPECIFIC_STATUS_24_LATCHED_VALUE collection      4690 (std) 
unit            sensor1_measurement_relation                 16455 
menu            root_menu                                 1000 (std) 
menu            fourth_variable_hh_when_not_used                 16955 
variable        sensor_connection         enumerated      16407 
menu            diagnostic_root_wha_menu                  16826 
menu            MENU_meter_variables                      16639 
method          METHOD_variable_mapping                   16488 
menu            MENU_electronics_temperature_sensor_limits                 16467 
menu            MENU_sensor_2_setup                       16665 
command         write_device_variable_assignments                 4179 (std,imp) 
variable        low_alarm_level           enumerated      16473 
menu            MENU_sensors_single                       16656 
member          UPPER_SENSOR_LIMIT        collection      201 (std) 
variable        write_protect_code        enumerated      2030 (std,imp) 
member          TREND_VALUE_7_DATA_QUALITY collection      4543 (std) 
collection      sensor2_measurement       variable        16505 
menu            grp_calibration_failure                   16895 
command         write_final_assembly_number                 187 (std,mand,imp) 
member          AO_SOURCE_COLOURBAR       source          16744 
member          ANALOG_CHANNEL_FIXED1_LATCHED_VALUE collection      4679 (std) 
command         write_device_variable_damping_value                 4184 (std,imp) 
menu            MENU_term_temp_review                     16674 
variable        sensor_1_type             enumerated      16522 
variable        dual_no_tc_degradation    unsigned        16608 
menu            grp_active_calibrator                     16872 
source          term_Source1                              16772 
menu            grp_burst_mode                            16874 
command         read_all_dynamic_variables                 4097 (std,imp) 
variable        sensor_1_tc_degra_mode    enumerated      16541 
menu            MENU_sensor2_trim                         16650 
variable        sensor_2_special_beta     float           16586 
menu            grp_alarm_level                           16876 
variable        sensor_1_tc_degra_thresh  float           16543 
member          DEVICE_SPECIFIC_STATUS_0_MASK collection      4642 (std) 
variable        analog_output_transfer_function enumerated      16386 
menu            MENU_alarm_values_review                  16668 
member          EXP_DEV_TYPE              collection      4263 (std) 
member          PV_SOURCE                 source          16786 
member          TC_DEGRA_MODE             collection      16542 
command         set_pv_upper_range_value                  4008 (std,imp) 
variable        sensor_2_tc_degra_thresh  float           16579 
unit            sensor2_measurement_relation                 16684 
variable        high_sat_value            float           16601 
variable        sensor1_measurement_digital_value float           16391 
variable        not_used_measurement_digital_value float           16511 
variable        manufacturer_id           enumerated      153 (std,mand,imp) 
variable        sensor_2_calibration_mode enumerated      16571 
unit            __sensor_units_relation                   975 (std) 
method          METHOD_variable_remapping                 16655 
menu            MENU_device_outputs_review                 16642 
variable        write_protect             enumerated      167 (std,mand,imp) 
source          terminal_value_source_colourbar                 16759 
member          DEVICE_SPECIFIC_STATUS_20_MASK collection      4661 (std) 
variable        descriptor                packed-ascii    165 (std,mand,imp) 
member          TRIM_POINT_SUPPORT                        4120 (std) 
menu            config_guided_setup_dialog                 16817 
menu            primary_variable_hh                       16949 
method          master_reset                              16699 
menu            grp_no_active_alerts                      16880 
variable        request_preambles         unsigned        155 (std,mand,imp) 
menu            grp_memory_failure_hh                     16924 
chart           pv_gauge_hh                               16813 
collection      sensor_a                  variable        6001 (std) 
method          abort_sensor_trim_factory                 16444 
variable        sensor2_upper_sensor_limit float           16564 
refresh         process_variable_range_values_relation                 16690 
member          TREND_0_TIME_STAMP        collection      4513 (std) 
menu            grp_saturation_level                      16862 
member          STANDARDIZED_STATUS_3_LATCHED_VALUE collection      4678 (std) 
method          METHOD_sensor_1_type_conn                 16661 
image           img_device_status                         16733 
variable        sensor_2_two_wire_offset  float           16577 
variable        upperRange_value          float           234 (std,imp) 
variable        sensor_1_special_beta     float           16557 
variable        write_protect_enable      enumerated      16426 
menu            Table_Main_Specialist                     1010 (std) 
variable        electronics_temperature_serial_number unsigned        16402 
menu            HART_manual_hh                            16942 
command         trim_pv_current_dac_gain                  4019 (std,imp) 
method          method_sensor1_out_of_range                 16719 
command         set_write_protect_password                 16438 
member          STAT_BACK_CNT             collection      4269 (std) 
member          MINIMUM_SPAN              collection      195 (std) 
menu            tab_sensor_calibration                    16839 
array           loop_warning_variables    variable        1004 (std) 
member          SENSOR_LOWER_TRIM                         6005 (std) 
method          method_analog_output_fixed                 16721 
member          DEVICE_SPECIFIC_STATUS_24_MASK collection      4665 (std) 
member          COMMAND_NUMBER            collection      4381 (std) 
command         read_sensor_reference_trim                 16435 
variable        output_response_mode      enumerated      16474 
command         write_pv_sensor_serial_number                 4047 (std,imp) 
menu            overview_dialog                           16824 
variable        rtd_user                  unsigned        16498 
menu            grp_analog_output_calibration                 16905 
variable        meter_option              enumerated      16408 
method          method_calibration_failure                 16717 
variable        sensor_1_special_alpha    float           16553 
variable        sensor_2_upper_trim_point_value float           16575 
menu            MENU_alarm_config                         16638 
command         read_low_alarm_level                      16481 
variable        rtd_factory               unsigned        16499 
menu            tab_display                               16832 
member          DEVICE_SPECIFIC_STATUS_17_LATCHED_VALUE collection      4683 (std) 
variable        differential_digital_value float           16589 
axis            sv_gauge_axis                             16792 
menu            grp_sensor1shorted                        16883 
menu            tab_HART                                  16834 
member          PV_SOURCE_COLORBAR        chart           16791 
variable        analog_channel_fixed1     bit-enumerated  4160 (std,imp) 
collection      scaling                   variable        239 (std,imp) 
menu            MENU_sensor_1_config                      16658 
variable        sensor_number_variable_code index           16506 
array           MENU_sensors_review       menu            16641 
menu            grp_transmitter_sensor_matching                 16856 
member          MINIMUM_TRIM_DIFFERENTIAL                 4156 (std) 
method          applied_rerange                           4103 (std,imp) 
variable        transfer_function_code    enumerated      2026 (std,imp) 
variable        device_variable_code_1    index           225 (std,imp) 
member          EVENT_NOTIFICATION_RETRY_TIME collection      4638 (std) 
variable        device_variable_code_2    index           226 (std,imp) 
variable        device_variable_code_3    index           227 (std,imp) 
variable        device_variable_code_4    index           228 (std,imp) 
menu            MENU_sensor_2_config                      16659 
method          Flowchart_Configure_sensors                 16714 
variable        __analog_alarm_code       enumerated      962 (std) 
command         read_pv                                   175 (std,mand,imp) 
command         write_2_wire_ohms_lead_correction                 16610 
chart           current_gauge_chart_alert_saturated                 16745 
variable        __sensor_minimum_span     float           960 (std) 
member          TREND_VALUE_11_DATA_QUALITY collection      4559 (std) 
member          DEVICE_SPECIFIC_STATUS_2_LATCHED_VALUE collection      4669 (std) 
member          TRIGGER_LEVEL             collection      4397 (std) 
command         set_pv_lower_range_value                  4009 (std,imp) 
command         read_pv_output_info                       183 (std,mand,imp) 
method          Abort_turn_off_calibrator_method                 16707 
variable        lower_trim_point_limit    float           16417 
member          SENS1_CHART1              chart           16749 
member          SENS1_CHART2              chart           16767 
variable        process_data_status       enumerated      2052 (std,imp) 
member          SENS1_CHART3              chart           16765 
member          DEVICE_SPECIFIC_STATUS_5_MASK collection      4647 (std) 
chart           AO_gauge                                  16736 
menu            MENU_output_response                      16501 
menu            compare_menu                              16908 
member          TREND_VALUE_10_DATA_QUALITY collection      4555 (std) 
variable        dual_tc_degradation       unsigned        16606 
menu            download_to_device_root_menu                 1023 (std) 
variable        sensor1_upper_range_value float           16516 
command         write_special_sensor_coeff                 16622 
unit            ambient_temp_relation_axis                 16730 
array           MENU_xmtr_vars            menu            16627 
command         write_output_response_mode                 16500 
member          AO_COLORBAR               chart           16740 
command         write_calibrator_mode                     16624 
member          DEV_OPERATING_MODE_LATCHED_VALUE collection      4844 (std) 
member          TREND_VALUE_8_DEVICE_FAMILY_STATUS collection      4549 (std) 
member          TREND_CONTROL             collection      4507 (std) 
menu            grp_sensor_limits                         16858 
menu            grp_electronics_failure                   16885 
array           subDevice                 collection      4220 (std) 
member          TREND_VALUE_3_DEVICE_FAMILY_STATUS collection      4529 (std) 
variable        special_sensor_connection enumerated      16413 
member          PERCENT_RANGE             collection      194 (std) 
