<Method>
{

  

  long status; 

  

  char msg[38]; 

  

  char rspCodeStr[32];

  

  long lV1;

  

  lV1 = get_response_code_string(150, 0, 35, rspCodeStr, 32);

    

  status = get_dds_error(msg, 38); 

  

}




</Method>
<Function>
Function Name: get_response_code_string
  Number Of Input Parameters: 5
    Param 1 Type: (null)
    Param 1 Value: 150
    Param 2 Type: (null)
    Param 2 Value: 0
    Param 3 Type: (null)
    Param 3 Value: 35
    Param 4 Type: RUL_SAFEARRAY
    Param 4 Array: 
    Param 5 Type: (null)
    Param 5 Value: 32
  Returned Param Type: RUL_INT
  Returned Param Value: 0
End of Function get_response_code_string
Function Name: get_dds_error
  Number Of Input Parameters: 2
    Param 1 Type: RUL_SAFEARRAY
    Param 1 Array: DDI reports bad parameters in the call
    Param 2 Type: (null)
    Param 2 Value: 38
  Returned Param Type: RUL_INT
  Returned Param Value: -1705
End of Function get_dds_error
</Function>
<SymbolTable><_bi_rc>-1705,</_bi_rc><status>-1705,</status><msg>[0]D,[1]D,[2]I,[3] ,[4]r,[5]e,[6]p,[7]o,[8]r,[9]t,[10]s,[11] ,[12]b,[13]a,[14]d,[15] ,[16]p,[17]a,[18]r,[19]a,[20]m,[21]e,[22]t,[23]e,[24]r,[25]s,[26] ,[27]i,[28]n,[29] ,[30]t,[31]h,[32]e,[33] ,[34]c,[35]a,[36]l,[37]l,[38]</msg><rspCodeStr>[0][1][2][3][4][5][6][7][8][9][10][11][12][13][14][15][16][17][18][19][20][21][22][23][24][25][26][27][28][29][30][31]</rspCodeStr><lV1>0,</lV1></SymbolTable>
