member          TREND_VALUE_6_DEVICE_FAMILY_STATUS collection      4541 (std) 
variable        uint16_var_blk_char       unsigned        2147548933 
variable        burst_mode_control_code   enumerated      2032 (std,imp) 
member          blk_profile_rev           record          3221290759 
variable        physical_signaling_codes  enumerated      2033 (std,imp) 
member          TREND_VALUE_9_DEVICE_FAMILY_STATUS collection      4553 (std) 
array           IO_card0                  collection      4354 (std) 
array           IO_card1                  collection      4355 (std) 
member          TREND_VALUE_4_DEVICE_FAMILY_STATUS collection      4533 (std) 
variable        date                      date            166 (std,mand,imp) 
member          BACK_RECEIVED             collection      4335 (std) 
member          blk_num_params            record          3221290761 
member          STANDARDIZED_STATUS_2_LATCHED_VALUE collection      4677 (std) 
member          EXTENDED_FLD_DEVICE_STATUS_LATCHED_VALUE collection      4673 (std) 
member          DEVICE_SPECIFIC_STATUS_15_MASK collection      4656 (std) 
member          LIMIT_STATUS                              248 (std) 
member          COMMAND_NUMBER_ENUMERATED collection      4382 (std) 
command         write_tag_descriptor_date                 186 (std,mand,imp) 
member          STAT_STX_CNT              collection      4267 (std) 
member          DEVICE_STATUS_LATCHED_VALUE collection      4666 (std) 
variable        range_var_mult_range_paired integer         16389 
variable        byte_count                unsigned        1022 (std) 
variable        status_output             enumerated      2147548930 
member          TREND_VALUE_11_DEVICE_FAMILY_STATUS collection      4561 (std) 
member          TREND_VALUE_5_DEVICE_FAMILY_STATUS collection      4537 (std) 
variable        message                   packed-ascii    164 (std,mand,imp) 
member          SUB_DEVICE_MANUFACTUER                    4219 (std) 
member          LOWER_ENDPOINT_VALUE                      4087 (std) 
member          SENSOR_UNIT                               6003 (std) 
variable        company_identification_code enumerated      2031 (std,imp) 
member          TREND_VALUE_0_DEVICE_FAMILY_STATUS collection      4517 (std) 
member          EVENT_NOTIFICATION_CONTROL collection      4636 (std) 
member          TREND_DIGITAL_UNITS       collection      4510 (std) 
member          DEVICE_SPECIFIC_STATUS_19_MASK collection      4660 (std) 
member          TREND_VALUE_10_DEVICE_FAMILY_STATUS collection      4557 (std) 
member          DEVICE_SPECIFIC_STATUS_16_LATCHED_VALUE collection      4682 (std) 
array           dynamic_variables         collection      172 (std,mand) 
member          STANDARDIZED_STATUS_2_MASK collection      4652 (std) 
member          CLASSIFICATION                            218 (std) 
member          BURST_UNIT                collection      4396 (std) 
command         read_final_assembly_number                 184 (std,mand,imp) 
member          TREND_VALUE_1_DEVICE_FAMILY_STATUS collection      4521 (std) 
member          DAQ                                       213 (std) 
member          DEVICE_SPECIFIC_STATUS_1_MASK collection      4643 (std) 
variable        micro_motion_model_code   enumerated      2040 (std,imp) 
command         read_parameter_maximum                    16397 
member          PARAM20                   parameter       3221266195 
member          PARAM21                   parameter       3221266196 
member          DEVICE_SPECIFIC_STATUS_5_LATCHED_VALUE collection      4672 (std) 
member          PARAM22                   parameter       3221266197 
member          PARAM23                   parameter       3221266198 
record          DIGVAL_RECORD80                           2147549024 
menu            device_root_menu                          1020 (std) 
member          PARAM24                   parameter       3221266199 
record          DIGVAL_RECORD81                           2147549025 
member          PARAM25                   parameter       3221266200 
record          DIGVAL_RECORD82                           2147549026 
member          PARAM26                   parameter       3221266201 
record          DIGVAL_RECORD83                           2147549027 
member          PARAM27                   parameter       3221266202 
record          DIGVAL_RECORD84                           2147549028 
member          PARAM28                   parameter       3221266203 
record          DIGVAL_RECORD85                           2147549029 
member          PARAM29                   parameter       3221266204 
record          DIGVAL_RECORD86                           2147549030 
record          DIGVAL_RECORD87                           2147549031 
variable        __sensor_upper_limit      float           959 (std) 
variable        device_id                 unsigned        161 (std,mand,imp) 
record          DIGVAL_RECORD88                           2147549032 
record          DIGVAL_RECORD89                           2147549033 
member          SOURCE_DEVICE_TYPE                        4214 (std) 
member          PARAM10                   parameter       3221266185 
member          PARAM11                   parameter       3221266186 
member          blk_class                 record          3221290754 
member          PARAM12                   parameter       3221266187 
member          PARAM13                   parameter       3221266188 
record          DIGVAL_RECORD70                           2147549014 
member          PARAM14                   parameter       3221266189 
record          DIGVAL_RECORD71                           2147549015 
member          PARAM15                   parameter       3221266190 
record          DIGVAL_RECORD72                           2147549016 
member          PARAM16                   parameter       3221266191 
record          DIGVAL_RECORD73                           2147549017 
member          PARAM17                   parameter       3221266192 
record          DIGVAL_RECORD74                           2147549018 
member          PARAM18                   parameter       3221266193 
record          DIGVAL_RECORD75                           2147549019 
member          PARAM19                   parameter       3221266194 
member          blk_execution_time        record          3221290760 
record          DIGVAL_RECORD76                           2147549020 
record          DIGVAL_RECORD77                           2147549021 
record          DIGVAL_RECORD78                           2147549022 
record          DIGVAL_RECORD79                           2147549023 
member          PARAM40                   parameter       3221266215 
member          DEVICE_STATUS_MASK        collection      4641 (std) 
member          PARAM41                   parameter       3221266217 
member          TREND_VALUE_7_DEVICE_FAMILY_STATUS collection      4545 (std) 
member          PARAM42                   parameter       3221266218 
member          PARAM43                   parameter       3221266219 
record          DIGVAL_RECORD60                           2147549004 
member          PARAM44                   parameter       3221266220 
record          DIGVAL_RECORD61                           2147549005 
record          DIGVAL_RECORD62                           2147549006 
record          DIGVAL_RECORD63                           2147549007 
record          DIGVAL_RECORD64                           2147549008 
record          DIGVAL_RECORD65                           2147549009 
record          DIGVAL_RECORD66                           2147549010 
member          blk_num_display_lists     record          3221290763 
record          DIGVAL_RECORD67                           2147549011 
record          DIGVAL_RECORD68                           2147549012 
record          DIGVAL_RECORD69                           2147549013 
member          PARAM30                   parameter       3221266205 
member          PARAM31                   parameter       3221266206 
member          PARAM32                   parameter       3221266207 
member          PARAM33                   parameter       3221266208 
record          DIGVAL_RECORD50                           2147548994 
member          PARAM34                   parameter       3221266209 
record          DIGVAL_RECORD51                           2147548995 
member          PARAM35                   parameter       3221266210 
record          DIGVAL_RECORD52                           2147548996 
member          PARAM36                   parameter       3221266211 
record          DIGVAL_RECORD53                           2147548997 
member          CAPTURE_MODE                              4212 (std) 
member          PARAM37                   parameter       3221266212 
record          DIGVAL_RECORD54                           2147548998 
member          PARAM38                   parameter       3221266213 
record          DIGVAL_RECORD55                           2147548999 
variable        operating_mode_code       enumerated      2035 (std,imp) 
member          PARAM39                   parameter       3221266214 
record          DIGVAL_RECORD56                           2147549000 
record          DIGVAL_RECORD57                           2147549001 
record          DIGVAL_RECORD58                           2147549002 
record          DIGVAL_RECORD59                           2147549003 
member          ANALOG_CHANNEL_SATURATED1_MASK collection      4651 (std) 
member          TREND_VALUE_3_DATA_QUALITY collection      4527 (std) 
menu            OnlineWindow_display                      7024 (std) 
record          DIGVAL_RECORD1                            2147548945 
record          DIGVAL_RECORD2                            2147548946 
record          DIGVAL_RECORD3                            2147548947 
record          DIGVAL_RECORD4                            2147548948 
record          DIGVAL_RECORD5                            2147548949 
record          DIGVAL_RECORD6                            2147548950 
record          DIGVAL_RECORD7                            2147548951 
record          DIGVAL_RECORD8                            2147548952 
record          DIGVAL_RECORD9                            2147548953 
member          TREND_VALUE_8_DATA_QUALITY collection      4547 (std) 
member          TREND_VALUE_9_DATA_QUALITY collection      4551 (std) 
value-array     trend_array                               4447 (std) 
member          DEVICE_SPECIFIC_STATUS_21_MASK collection      4662 (std) 
member          TREND_VALUE_6_DATA_QUALITY collection      4539 (std) 
record          DIGVAL_RECORD90                           2147549034 
record          DIGVAL_RECORD91                           2147549035 
record          DIGVAL_RECORD92                           2147549036 
record          DIGVAL_RECORD93                           2147549037 
record          DIGVAL_RECORD94                           2147549038 
collection      __SENSOR                  variable        950 (std) 
record          DIGVAL_RECORD95                           2147549039 
variable        device_type               enumerated      154 (std,mand,imp) 
record          DIGVAL_RECORD96                           2147549040 
record          DIGVAL_RECORD97                           2147549041 
record          DIGVAL_RECORD98                           2147549042 
record          DIGVAL_RECORD99                           2147549043 
unit            __digital_units_relation                  971 (std) 
member          UPDATE_PERIOD             collection      4383 (std) 
member          BURST_MODE_SELECT         collection      4385 (std) 
member          TREND_VALUE_4_DATA_QUALITY collection      4531 (std) 
member          EVENT_STATUS              collection      4635 (std) 
member          SOURCE_SLOT_NUMBER                        4217 (std) 
refresh         __pv_unit_refresh                         977 (std) 
member          TREND_VALUE_5_DATA_QUALITY collection      4535 (std) 
member          ANALOG_CHANNEL_FLAGS                      217 (std) 
variable        hardware_revision         unsigned        159 (std,mand,imp) 
member          TREND_VALUE_2_DATA_QUALITY collection      4523 (std) 
member          blk_parent_class          record          3221290755 
command         read_pv_current_and_percent_range                 176 (std,mand,imp) 
record          DIGVAL_RECORD40                           2147548984 
record          DIGVAL_RECORD41                           2147548985 
record          DIGVAL_RECORD42                           2147548986 
record          DIGVAL_RECORD43                           2147548987 
record          DIGVAL_RECORD44                           2147548988 
variable        range_var_mult_range_overlapping integer         16392 
record          DIGVAL_RECORD45                           2147548989 
record          DIGVAL_RECORD46                           2147548990 
record          DIGVAL_RECORD47                           2147548991 
member          SHED_TIME                                 4218 (std) 
record          DIGVAL_RECORD48                           2147548992 
record          DIGVAL_RECORD49                           2147548993 
member          TREND_VALUE_0_DATA_QUALITY collection      4515 (std) 
member          ANALOG_VALUE                              193 (std) 
variable        physical_signaling_code   enumerated      171 (std,mand,imp) 
variable        comm_status               bit-enumerated  152 (std,mand,imp) 
record          DIGVAL_RECORD30                           2147548974 
member          DEVICE_SPECIFIC_STATUS_19_LATCHED_VALUE collection      4685 (std) 
record          DIGVAL_RECORD31                           2147548975 
record          DIGVAL_RECORD32                           2147548976 
member          SOURCE_DEVICE_ID                          4215 (std) 
record          DIGVAL_RECORD33                           2147548977 
method          pre_send_configuration_method                 1007 (std) 
record          DIGVAL_RECORD34                           2147548978 
record          DIGVAL_RECORD35                           2147548979 
record          DIGVAL_RECORD36                           2147548980 
record          DIGVAL_RECORD37                           2147548981 
record          DIGVAL_RECORD38                           2147548982 
menu            main_test_menu                            16385 
record          DIGVAL_RECORD39                           2147548983 
member          TREND_VALUE_1_DATA_QUALITY collection      4519 (std) 
variable        final_assembly_number     unsigned        169 (std,mand,imp) 
variable        universal_revision        unsigned        156 (std,mand,imp) 
record          DIGVAL_RECORD20                           2147548964 
record          DIGVAL_RECORD21                           2147548965 
record          DIGVAL_RECORD22                           2147548966 
record          DIGVAL_RECORD23                           2147548967 
record          DIGVAL_RECORD24                           2147548968 
record          DIGVAL_RECORD25                           2147548969 
record          DIGVAL_RECORD26                           2147548970 
array           transmitter_variables     collection      4109 (std) 
record          DIGVAL_RECORD27                           2147548971 
record          DIGVAL_RECORD28                           2147548972 
record          DIGVAL_RECORD29                           2147548973 
member          DEVICE_SPECIFIC_STATUS_21_LATCHED_VALUE collection      4687 (std) 
record          DIGVAL_RECORD10                           2147548954 
record          DIGVAL_RECORD11                           2147548955 
record          DIGVAL_RECORD12                           2147548956 
variable        material_code             enumerated      2028 (std,imp) 
record          DIGVAL_RECORD13                           2147548957 
record          DIGVAL_RECORD14                           2147548958 
record          DIGVAL_RECORD15                           2147548959 
record          DIGVAL_RECORD16                           2147548960 
record          DIGVAL_RECORD17                           2147548961 
collection      __INPT                    variable        951 (std) 
record          DIGVAL_RECORD18                           2147548962 
record          DIGVAL_RECORD19                           2147548963 
member          OACK_RECEIVED             collection      4334 (std) 
array           deviceVariables           collection      269 (std) 
member          DEVICE_SPECIFIC_STATUS_0_LATCHED_VALUE collection      4667 (std) 
member          STAT_ACK_CNT              collection      4268 (std) 
member          TREND_VALUE_7_LIMIT_STATUS collection      4544 (std) 
command         read_dynamic_variables_and_pv_current                 177 (std,mand,imp) 
variable        rosemount_analytical_model_code enumerated      2038 (std,imp) 
method          std_CheckWriteProtect                     1016 (std) 
menu            view_menu                                 1009 (std) 
member          EXTENDED_FLD_DEVICE_STATUS_MASK collection      4648 (std) 
variable        __sensor_lower_limit      float           958 (std) 
member          TREND_CLASSIFICATION      collection      4509 (std) 
member          _MNG_VALUE                record          3221290752 
variable        background_period         float           1025 (std) 
member          DEVICE_SPECIFIC_STATUS_16_MASK collection      4657 (std) 
variable        device_flags              bit-enumerated  160 (std,mand,imp) 
member          TREND_DEVICE_VARIABLE_CODE collection      4508 (std) 
menu            offline_root_menu                         1002 (std) 
member          DIGITAL_UNITS                             190 (std) 
collection      __ANALOG                  variable        952 (std) 
variable        transmitter_revision      unsigned        157 (std,imp) 
member          MAXIMUM_LOWER_TRIM_POINT                  4197 (std) 
member          UPPER_ENDPOINT_VALUE                      4086 (std) 
member          TREND_VALUE_0             collection      4514 (std) 
member          TREND_VALUE_1             collection      4518 (std) 
member          TREND_VALUE_2             collection      4522 (std) 
member          TREND_VALUE_3             collection      4526 (std) 
member          TREND_VALUE_4             collection      4530 (std) 
variable        private_label_distributor enumerated      168 (std,mand,imp) 
member          TREND_VALUE_5             collection      4534 (std) 
member          TREND_VALUE_6             collection      4538 (std) 
member          TREND_VALUE_7             collection      4542 (std) 
member          TREND_VALUE_8             collection      4546 (std) 
member          TREND_VALUE_9             collection      4550 (std) 
command         write_parameter_maximum                   16398 
member          DEVICE_SPECIFIC_STATUS_18_LATCHED_VALUE collection      4684 (std) 
member          TREND_VALUE_2_DEVICE_FAMILY_STATUS collection      4525 (std) 
menu            process_variables_root_menu                 1019 (std) 
member          blk_dd_reference          record          3221290756 
member          STANDARDIZED_STATUS_3_MASK collection      4653 (std) 
member          DEVICE_SPECIFIC_STATUS_20_LATCHED_VALUE collection      4686 (std) 
variable        __analog_value            float           961 (std) 
member          EVENT_DEBOUNCE_INTERVAL   collection      4640 (std) 
variable        analog_output_numbers_code enumerated      2036 (std,imp) 
member          DEVICE_SPECIFIC_STATUS_3_LATCHED_VALUE collection      4670 (std) 
member          DEVICE_SPECIFIC_STATUS_2_MASK collection      4644 (std) 
member          SOURCE_MANUFACTURER                       4213 (std) 
member          UPPER_TRIM_POINT                          4199 (std) 
variable        range_var_based_on_parameter integer         16391 
variable        tag                       packed-ascii    163 (std,mand,imp) 
member          TREND_VALUE_9_LIMIT_STATUS collection      4552 (std) 
collection      __DEV                     variable        963 (std) 
member          SENSOR_SERIAL_NUMBER                      199 (std) 
variable        software_revision         unsigned        158 (std,mand,imp) 
member          ALARM_CODE                                196 (std) 
member          DIGITAL_VALUE                             191 (std) 
command         read_unique_identifier                    174 (std,mand,imp) 
variable        __input_percent_range     float           965 (std) 
menu            Menu_Main_Maintenance                     1017 (std) 
member          TREND_VALUE_0_LIMIT_STATUS collection      4516 (std) 
member          DEVICE_SPECIFIC_STATUS_22_MASK collection      4663 (std) 
method          std_CheckDeviceIdentificationDownload                 1015 (std) 
member          STX_SENT                  collection      4331 (std) 
member          TREND_VALUE_2_LIMIT_STATUS collection      4524 (std) 
command         write_message                             185 (std,mand,imp) 
array           subdevice_variables       collection      4243 (std) 
member          TREND_VALUE_4_LIMIT_STATUS collection      4532 (std) 
variable        alarm_selection_code      enumerated      2027 (std,imp) 
variable        __sensor_units            enumerated      957 (std) 
method          std_CheckDeviceIdentificationUpload                 1014 (std) 
member          _MNG_STATUS               record          3221290753 
variable        uint8_var_blk_char        unsigned        2147548932 
member          TREND_VALUE_6_LIMIT_STATUS collection      4540 (std) 
member          UNIV_CMD_REV              collection      4265 (std) 
member          DATA_QUALITY                              247 (std) 
member          TIME_OF_FIRST_UNACK_EVENT collection      4637 (std) 
member          MINIMUM_LOWER_TRIM_POINT                  4196 (std) 
member          TREND_VALUE_3_LIMIT_STATUS collection      4528 (std) 
member          DEVICE_SPECIFIC_STATUS_23_LATCHED_VALUE collection      4689 (std) 
variable        int8_var_blk_char         integer         2147548931 
member          TREND_VALUE_8_LIMIT_STATUS collection      4548 (std) 
member          CHANNEL                   collection      4261 (std) 
member          DAMPING_VALUE                             198 (std) 
command         read_unique_identifier_with_tag                 179 (std,mand,imp) 
member          TREND_VALUE_5_LIMIT_STATUS collection      4536 (std) 
member          ANALOG_CHANNEL_SATURATED1_LATCHED_VALUE collection      4676 (std) 
variable        __input_transfer_function enumerated      966 (std) 
menu            upload_variables                          1003 (std) 
member          PARAM1                    parameter       3221266176 
member          PARAM2                    parameter       3221266177 
member          TREND_VALUE_10            collection      4554 (std) 
member          PARAM3                    parameter       3221266178 
member          TREND_VALUE_11            collection      4558 (std) 
member          PARAM4                    parameter       3221266179 
member          PARAM5                    parameter       3221266180 
member          PARAM6                    parameter       3221266181 
member          PARAM7                    parameter       3221266182 
member          PARAM8                    parameter       3221266183 
member          DEVICE_SPECIFIC_STATUS_3_MASK collection      4645 (std) 
member          PARAM9                    parameter       3221266184 
variable        test_max                  integer         16393 
variable        units_code                enumerated      2025 (std,imp) 
menu            upload_from_device_root_menu                 1024 (std) 
variable        test_min                  integer         16394 
command         write_polling_address                     178 (std,mand,imp) 
member          DEVICE_FAMILY_STATUS                      249 (std) 
unit            __input_units_relation                    976 (std) 
member          LOWER_TRIM_POINT                          4198 (std) 
edit-display    __key_pad_rerange                         954 (std) 
variable        __sensor_serial_number    unsigned        955 (std) 
member          blk_dd_revision           record          3221290757 
member          MANUFID                   collection      4262 (std) 
command         read_parameter_minimum                    16395 
member          MAX_UPDATE_TIME           collection      4639 (std) 
member          DEVICE_SPECIFIC_STATUS_17_MASK collection      4658 (std) 
array           burst_event_array         collection      4575 (std) 
member          STANDARDIZED_STATUS_0_MASK collection      4649 (std) 
record          hart_blk_char                             2147548929 
variable        range_var_one_min_range_only integer         16387 
member          SOURCE_COMMAND_NUMBER                     4216 (std) 
menu            Menu_Main_Specialist                      1012 (std) 
member          ANALOG_CHANNEL_FIXED1_MASK collection      4654 (std) 
menu            page_menu                                 16386 
member          DEVICE_SPECIFIC_STATUS_22_LATCHED_VALUE collection      4688 (std) 
member          DEVICE_SPECIFIC_STATUS_1_LATCHED_VALUE collection      4668 (std) 
member          TREND_VALUE_11_LIMIT_STATUS collection      4560 (std) 
member          ANALOG_CHANNEL                            212 (std) 
variable        __sensor_damping_value    float           964 (std) 
member          LOWER_SENSOR_LIMIT                        202 (std) 
member          MAX_UPDATE_PERIOD         collection      4384 (std) 
member          DEVICE_STATUS                             216 (std) 
member          SENSOR_UPPER_TRIM                         6007 (std) 
member          DEVICE_FAMILY                             253 (std) 
member          UPPER_RANGE_VALUE                         204 (std) 
method          post_send_configuration_method                 1008 (std) 
menu            hot_key                                   1001 (std) 
member          BURST_TRIGGER_MODE        collection      4394 (std) 
member          TRANSFER_FUNCTION                         197 (std) 
variable        __new_digital_units       enumerated      970 (std) 
member          TREND_VALUE_10_LIMIT_STATUS collection      4556 (std) 
variable        device_status             bit-enumerated  151 (std,mand,imp) 
member          blk_index_dis             record          3221290762 
block           _MNG_HART_BLOCK                           2147548928 
member          BURST_CLASSIFICATION      collection      4395 (std) 
member          ANALOG_UNITS                              4070 (std) 
variable        primary_value             float           16384 
member          DEVICE_VARIABLE                           211 (std) 
member          STANDARDIZED_STATUS_1_LATCHED_VALUE collection      4675 (std) 
array           factory_protection_array  variable        1006 (std) 
variable        uint32_var_blk_char       unsigned        2147548934 
command         read_message                              180 (std,mand,imp) 
array           IO_card_channel           array           4356 (std) 
variable        __input_lower_value       float           969 (std) 
variable        __input_units             enumerated      967 (std) 
member          DEVICE_SPECIFIC_STATUS_23_MASK collection      4664 (std) 
member          DUMMY                                     246 (std) 
variable        response_code             enumerated      150 (std,mand,imp) 
menu            fms_menu                                  2147548944 
variable        flag_assignment           enumerated      2034 (std,imp) 
variable        __sensor_value            float           956 (std) 
member          SENSOR_UNITS                              200 (std) 
member          CONFIG_CHANGE_COUNTER_LATCHED_VALUE collection      4691 (std) 
variable        hart_functions            bit-enumerated  1005 (std) 
member          LONG_TAG                  collection      4266 (std) 
variable        polling_address           unsigned        162 (std,mand,imp) 
member          DEVICE_SPECIFIC_STATUS_15_LATCHED_VALUE collection      4681 (std) 
collection      __pv                      variable        974 (std) 
command         read_tag_descriptor_date                  181 (std,mand,imp) 
member          RANGING                                   214 (std) 
member          DEV_ID                    collection      4264 (std) 
variable        __input_upper_value       float           968 (std) 
member          DEVICE_SPECIFIC_STATUS_4_LATCHED_VALUE collection      4671 (std) 
menu            Table_Main_Maintenance                    1011 (std) 
member          MAXIMUM_UPPER_TRIM_POINT                  4201 (std) 
refresh         __x1                                      972 (std) 
refresh         __x2                                      973 (std) 
member          BURST_VAR_0               collection      4386 (std) 
member          BURST_VAR_1               collection      4387 (std) 
member          BURST_VAR_2               collection      4388 (std) 
member          BURST_VAR_3               collection      4389 (std) 
member          ACK_RECEIVED              collection      4332 (std) 
member          BURST_VAR_4               collection      4390 (std) 
member          BURST_VAR_5               collection      4391 (std) 
member          BURST_VAR_6               collection      4392 (std) 
member          BURST_VAR_7               collection      4393 (std) 
member          TREND_0_DATE_STAMP        collection      4512 (std) 
array           burst_message_array       collection      4434 (std) 
member          TREND_SAMPLE_INTERVAL     collection      4511 (std) 
member          DEVICE_SPECIFIC_STATUS_4_MASK collection      4646 (std) 
member          LOWER_RANGE_VALUE                         205 (std) 
member          blk_profile               record          3221290758 
variable        range_var_single_range    integer         16388 
member          DEVICE_SPECIFIC_STATUS_14_MASK collection      4655 (std) 
member          MINIMUM_UPPER_TRIM_POINT                  4200 (std) 
member          STANDARDIZED_STATUS_0_LATCHED_VALUE collection      4674 (std) 
member          IO_CARD                   collection      4260 (std) 
command         read_pv_sensor_info                       182 (std,mand,imp) 
image           device_icon                               1021 (std) 
member          TRIM_POINT_UNITS                          4121 (std) 
member          ANALOG_DAMPING                            4078 (std) 
member          OSTX_RECEIVED             collection      4333 (std) 
member          DEVICE_SPECIFIC_STATUS_18_MASK collection      4659 (std) 
member          DEVICE_CLASS                              215 (std) 
array           subdevice_burst_array     variable        4321 (std) 
member          DEV_OPERATING_MODE_MASK   collection      4843 (std) 
member          STANDARDIZED_STATUS_1_MASK collection      4650 (std) 
member          TREND_VALUE_1_LIMIT_STATUS collection      4520 (std) 
menu            diagnostic_root_menu                      1018 (std) 
member          DEVICE_SPECIFIC_STATUS_14_LATCHED_VALUE collection      4680 (std) 
member          RANGE_UNITS                               203 (std) 
method          std_CheckDeviceIdentification                 1013 (std) 
method          __univ_self_test                          953 (std) 
member          DEVICE_SPECIFIC_STATUS_24_LATCHED_VALUE collection      4690 (std) 
menu            root_menu                                 1000 (std) 
member          UPPER_SENSOR_LIMIT                        201 (std) 
variable        kayray_model_code         enumerated      2039 (std,imp) 
variable        write_protect_code        enumerated      2030 (std,imp) 
member          TREND_VALUE_7_DATA_QUALITY collection      4543 (std) 
command         write_final_assembly_number                 187 (std,mand,imp) 
variable        unique_device_type_code   enumerated      2029 (std,imp) 
member          ANALOG_CHANNEL_FIXED1_LATCHED_VALUE collection      4679 (std) 
member          DEVICE_SPECIFIC_STATUS_0_MASK collection      4642 (std) 
member          EXP_DEV_TYPE              collection      4263 (std) 
variable        manufacturer_id           enumerated      153 (std,mand,imp) 
unit            __sensor_units_relation                   975 (std) 
variable        write_protect             enumerated      167 (std,mand,imp) 
member          DEVICE_SPECIFIC_STATUS_20_MASK collection      4661 (std) 
variable        descriptor                packed-ascii    165 (std,mand,imp) 
member          TRIM_POINT_SUPPORT                        4120 (std) 
variable        request_preambles         unsigned        155 (std,mand,imp) 
collection      sensor_a                  variable        6001 (std) 
member          TREND_0_TIME_STAMP        collection      4513 (std) 
member          STANDARDIZED_STATUS_3_LATCHED_VALUE collection      4678 (std) 
menu            Table_Main_Specialist                     1010 (std) 
member          STAT_BACK_CNT             collection      4269 (std) 
member          MINIMUM_SPAN                              195 (std) 
array           loop_warning_variables    variable        1004 (std) 
member          SENSOR_LOWER_TRIM                         6005 (std) 
member          DEVICE_SPECIFIC_STATUS_24_MASK collection      4665 (std) 
member          COMMAND_NUMBER            collection      4381 (std) 
member          DEVICE_SPECIFIC_STATUS_17_LATCHED_VALUE collection      4683 (std) 
command         write_parameter_minimum                   16396 
member          MINIMUM_TRIM_DIFFERENTIAL                 4156 (std) 
variable        transfer_function_code    enumerated      2026 (std,imp) 
member          EVENT_NOTIFICATION_RETRY_TIME collection      4638 (std) 
variable        range_var_mult_range_open integer         16390 
variable        __analog_alarm_code       enumerated      962 (std) 
command         read_pv                                   175 (std,mand,imp) 
variable        __sensor_minimum_span     float           960 (std) 
member          TREND_VALUE_11_DATA_QUALITY collection      4559 (std) 
member          DEVICE_SPECIFIC_STATUS_2_LATCHED_VALUE collection      4669 (std) 
member          TRIGGER_LEVEL             collection      4397 (std) 
command         read_pv_output_info                       183 (std,mand,imp) 
member          DEVICE_SPECIFIC_STATUS_5_MASK collection      4647 (std) 
member          TREND_VALUE_10_DATA_QUALITY collection      4555 (std) 
menu            download_to_device_root_menu                 1023 (std) 
variable        rosemount_model_code      enumerated      2037 (std,imp) 
member          DEV_OPERATING_MODE_LATCHED_VALUE collection      4844 (std) 
member          TREND_VALUE_8_DEVICE_FAMILY_STATUS collection      4549 (std) 
member          TREND_CONTROL             collection      4507 (std) 
array           subDevice                 collection      4220 (std) 
member          TREND_VALUE_3_DEVICE_FAMILY_STATUS collection      4529 (std) 
member          PERCENT_RANGE                             194 (std) 
