^C:\USERS\PARTHASARTHI.BK\DESKTOP\SOURCES\BUILD\FDI EDD ENGINE\CODE\SRC\FDI\FDI_DDS_ADAPTERLIB\STDINC.CPP
/c /I..\INC /I..\FDI_DDS_LIB /I..\..\..\INTERFACES\EDD_ENGINE_INTERFACES /I..\..\..\INC /I..\..\..\SRC\EDD_ENGINE_WINDOWS /I..\..\..\SRC\EDD_ENGINE_COMMON /Zi /nologo /W4 /WX- /Od /Oy- /D WIN32 /D _WINDOWS /D _DEBUG /D _USRDLL /D _UNICODE /D UNICODE /D _AFXDLL /Gm /EHsc /RTC1 /MDd /GS /fp:precise /Zc:wchar_t /Zc:forScope /Zc:inline /Yc"stdinc.h" /Fp"DEBUG\WIN32\FDI_DDS_ADAPTERLIB.PCH" /Fo"DEBUG\WIN32\\" /Fd"DEBUG\WIN32\FDI_DDS_ADAPTERLIB.PDB" /FR"Debug\Win32\\" /Gd /TP /FIAMSVERSION.H /analyze- C:\USERS\PARTHASARTHI.BK\DESKTOP\SOURCES\BUILD\FDI EDD ENGINE\CODE\SRC\FDI\FDI_DDS_ADAPTERLIB\STDINC.CPP
^C:\USERS\PARTHASARTHI.BK\DESKTOP\SOURCES\BUILD\FDI EDD ENGINE\CODE\SRC\FDI\FDI_DDS_ADAPTERLIB\CONNECTIONMGR.CPP
/c /I..\INC /I..\FDI_DDS_LIB /I..\..\..\INTERFACES\EDD_ENGINE_INTERFACES /I..\..\..\INC /I..\..\..\SRC\EDD_ENGINE_WINDOWS /I..\..\..\SRC\EDD_ENGINE_COMMON /Zi /nologo /W4 /WX- /Od /Oy- /D WIN32 /D _WINDOWS /D _DEBUG /D _USRDLL /D _UNICODE /D UNICODE /D _AFXDLL /Gm /EHsc /RTC1 /MDd /GS /fp:precise /Zc:wchar_t /Zc:forScope /Zc:inline /Yu"stdinc.h" /Fp"DEBUG\WIN32\FDI_DDS_ADAPTERLIB.PCH" /Fo"DEBUG\WIN32\\" /Fd"DEBUG\WIN32\FDI_DDS_ADAPTERLIB.PDB" /FR"Debug\Win32\\" /Gd /TP /FIAMSVERSION.H /analyze- C:\USERS\PARTHASARTHI.BK\DESKTOP\SOURCES\BUILD\FDI EDD ENGINE\CODE\SRC\FDI\FDI_DDS_ADAPTERLIB\CONNECTIONMGR.CPP
^C:\USERS\PARTHASARTHI.BK\DESKTOP\SOURCES\BUILD\FDI EDD ENGINE\CODE\SRC\FDI\FDI_DDS_ADAPTERLIB\DEVICETYPEMGR.CPP
/c /I..\INC /I..\FDI_DDS_LIB /I..\..\..\INTERFACES\EDD_ENGINE_INTERFACES /I..\..\..\INC /I..\..\..\SRC\EDD_ENGINE_WINDOWS /I..\..\..\SRC\EDD_ENGINE_COMMON /Zi /nologo /W4 /WX- /Od /Oy- /D WIN32 /D _WINDOWS /D _DEBUG /D _USRDLL /D _UNICODE /D UNICODE /D _AFXDLL /Gm /EHsc /RTC1 /MDd /GS /fp:precise /Zc:wchar_t /Zc:forScope /Zc:inline /Yu"stdinc.h" /Fp"DEBUG\WIN32\FDI_DDS_ADAPTERLIB.PCH" /Fo"DEBUG\WIN32\\" /Fd"DEBUG\WIN32\FDI_DDS_ADAPTERLIB.PDB" /FR"Debug\Win32\\" /Gd /TP /FIAMSVERSION.H /analyze- C:\USERS\PARTHASARTHI.BK\DESKTOP\SOURCES\BUILD\FDI EDD ENGINE\CODE\SRC\FDI\FDI_DDS_ADAPTERLIB\DEVICETYPEMGR.CPP
^C:\USERS\PARTHASARTHI.BK\DESKTOP\SOURCES\BUILD\FDI EDD ENGINE\CODE\SRC\FDI\FDI_DDS_ADAPTERLIB\EDDENGINELOG.CPP
/c /I..\INC /I..\FDI_DDS_LIB /I..\..\..\INTERFACES\EDD_ENGINE_INTERFACES /I..\..\..\INC /I..\..\..\SRC\EDD_ENGINE_WINDOWS /I..\..\..\SRC\EDD_ENGINE_COMMON /Zi /nologo /W4 /WX- /Od /Oy- /D WIN32 /D _WINDOWS /D _DEBUG /D _USRDLL /D _UNICODE /D UNICODE /D _AFXDLL /Gm /EHsc /RTC1 /MDd /GS /fp:precise /Zc:wchar_t /Zc:forScope /Zc:inline /Yu"stdinc.h" /Fp"DEBUG\WIN32\FDI_DDS_ADAPTERLIB.PCH" /Fo"DEBUG\WIN32\\" /Fd"DEBUG\WIN32\FDI_DDS_ADAPTERLIB.PDB" /FR"Debug\Win32\\" /Gd /TP /FIAMSVERSION.H /analyze- C:\USERS\PARTHASARTHI.BK\DESKTOP\SOURCES\BUILD\FDI EDD ENGINE\CODE\SRC\FDI\FDI_DDS_ADAPTERLIB\EDDENGINELOG.CPP
^C:\USERS\PARTHASARTHI.BK\DESKTOP\SOURCES\BUILD\FDI EDD ENGINE\CODE\SRC\FDI\FDI_DDS_ADAPTERLIB\CM_DDS.CPP
/c /I..\INC /I..\FDI_DDS_LIB /I..\..\..\INTERFACES\EDD_ENGINE_INTERFACES /I..\..\..\INC /I..\..\..\SRC\EDD_ENGINE_WINDOWS /I..\..\..\SRC\EDD_ENGINE_COMMON /Zi /nologo /W4 /WX- /Od /Oy- /D WIN32 /D _WINDOWS /D _DEBUG /D _USRDLL /D _UNICODE /D UNICODE /D _AFXDLL /Gm /EHsc /RTC1 /MDd /GS /fp:precise /Zc:wchar_t /Zc:forScope /Zc:inline /Yu"stdinc.h" /Fp"DEBUG\WIN32\FDI_DDS_ADAPTERLIB.PCH" /Fo"DEBUG\WIN32\\" /Fd"DEBUG\WIN32\FDI_DDS_ADAPTERLIB.PDB" /FR"Debug\Win32\\" /Gd /TP /FIAMSVERSION.H /analyze- C:\USERS\PARTHASARTHI.BK\DESKTOP\SOURCES\BUILD\FDI EDD ENGINE\CODE\SRC\FDI\FDI_DDS_ADAPTERLIB\CM_DDS.CPP
^C:\USERS\PARTHASARTHI.BK\DESKTOP\SOURCES\BUILD\FDI EDD ENGINE\CODE\SRC\FDI\FDI_DDS_ADAPTERLIB\CM_INIT.CPP
/c /I..\INC /I..\FDI_DDS_LIB /I..\..\..\INTERFACES\EDD_ENGINE_INTERFACES /I..\..\..\INC /I..\..\..\SRC\EDD_ENGINE_WINDOWS /I..\..\..\SRC\EDD_ENGINE_COMMON /Zi /nologo /W4 /WX- /Od /Oy- /D WIN32 /D _WINDOWS /D _DEBUG /D _USRDLL /D _UNICODE /D UNICODE /D _AFXDLL /Gm /EHsc /RTC1 /MDd /GS /fp:precise /Zc:wchar_t /Zc:forScope /Zc:inline /Yu"stdinc.h" /Fp"DEBUG\WIN32\FDI_DDS_ADAPTERLIB.PCH" /Fo"DEBUG\WIN32\\" /Fd"DEBUG\WIN32\FDI_DDS_ADAPTERLIB.PDB" /FR"Debug\Win32\\" /Gd /TP /FIAMSVERSION.H /analyze- C:\USERS\PARTHASARTHI.BK\DESKTOP\SOURCES\BUILD\FDI EDD ENGINE\CODE\SRC\FDI\FDI_DDS_ADAPTERLIB\CM_INIT.CPP
^C:\USERS\PARTHASARTHI.BK\DESKTOP\SOURCES\BUILD\FDI EDD ENGINE\CODE\SRC\FDI\FDI_DDS_ADAPTERLIB\CM_ROD.CPP
/c /I..\INC /I..\FDI_DDS_LIB /I..\..\..\INTERFACES\EDD_ENGINE_INTERFACES /I..\..\..\INC /I..\..\..\SRC\EDD_ENGINE_WINDOWS /I..\..\..\SRC\EDD_ENGINE_COMMON /Zi /nologo /W4 /WX- /Od /Oy- /D WIN32 /D _WINDOWS /D _DEBUG /D _USRDLL /D _UNICODE /D UNICODE /D _AFXDLL /Gm /EHsc /RTC1 /MDd /GS /fp:precise /Zc:wchar_t /Zc:forScope /Zc:inline /Yu"stdinc.h" /Fp"DEBUG\WIN32\FDI_DDS_ADAPTERLIB.PCH" /Fo"DEBUG\WIN32\\" /Fd"DEBUG\WIN32\FDI_DDS_ADAPTERLIB.PDB" /FR"Debug\Win32\\" /Gd /TP /FIAMSVERSION.H /analyze- C:\USERS\PARTHASARTHI.BK\DESKTOP\SOURCES\BUILD\FDI EDD ENGINE\CODE\SRC\FDI\FDI_DDS_ADAPTERLIB\CM_ROD.CPP
^C:\USERS\PARTHASARTHI.BK\DESKTOP\SOURCES\BUILD\FDI EDD ENGINE\CODE\SRC\FDI\FDI_DDS_ADAPTERLIB\CMDDSTBLACC.CPP
/c /I..\INC /I..\FDI_DDS_LIB /I..\..\..\INTERFACES\EDD_ENGINE_INTERFACES /I..\..\..\INC /I..\..\..\SRC\EDD_ENGINE_WINDOWS /I..\..\..\SRC\EDD_ENGINE_COMMON /Zi /nologo /W4 /WX- /Od /Oy- /D WIN32 /D _WINDOWS /D _DEBUG /D _USRDLL /D _UNICODE /D UNICODE /D _AFXDLL /Gm /EHsc /RTC1 /MDd /GS /fp:precise /Zc:wchar_t /Zc:forScope /Zc:inline /Yu"stdinc.h" /Fp"DEBUG\WIN32\FDI_DDS_ADAPTERLIB.PCH" /Fo"DEBUG\WIN32\\" /Fd"DEBUG\WIN32\FDI_DDS_ADAPTERLIB.PDB" /FR"Debug\Win32\\" /Gd /TP /FIAMSVERSION.H /analyze- C:\USERS\PARTHASARTHI.BK\DESKTOP\SOURCES\BUILD\FDI EDD ENGINE\CODE\SRC\FDI\FDI_DDS_ADAPTERLIB\CMDDSTBLACC.CPP
^C:\USERS\PARTHASARTHI.BK\DESKTOP\SOURCES\BUILD\FDI EDD ENGINE\CODE\SRC\FDI\FDI_DDS_ADAPTERLIB\CMTBLACC.CPP
/c /I..\INC /I..\FDI_DDS_LIB /I..\..\..\INTERFACES\EDD_ENGINE_INTERFACES /I..\..\..\INC /I..\..\..\SRC\EDD_ENGINE_WINDOWS /I..\..\..\SRC\EDD_ENGINE_COMMON /Zi /nologo /W4 /WX- /Od /Oy- /D WIN32 /D _WINDOWS /D _DEBUG /D _USRDLL /D _UNICODE /D UNICODE /D _AFXDLL /Gm /EHsc /RTC1 /MDd /GS /fp:precise /Zc:wchar_t /Zc:forScope /Zc:inline /Yu"stdinc.h" /Fp"DEBUG\WIN32\FDI_DDS_ADAPTERLIB.PCH" /Fo"DEBUG\WIN32\\" /Fd"DEBUG\WIN32\FDI_DDS_ADAPTERLIB.PDB" /FR"Debug\Win32\\" /Gd /TP /FIAMSVERSION.H /analyze- C:\USERS\PARTHASARTHI.BK\DESKTOP\SOURCES\BUILD\FDI EDD ENGINE\CODE\SRC\FDI\FDI_DDS_ADAPTERLIB\CMTBLACC.CPP
^C:\USERS\PARTHASARTHI.BK\DESKTOP\SOURCES\BUILD\FDI EDD ENGINE\CODE\SRC\FDI\FDI_DDS_ADAPTERLIB\DEV_TYPE.CPP
/c /I..\INC /I..\FDI_DDS_LIB /I..\..\..\INTERFACES\EDD_ENGINE_INTERFACES /I..\..\..\INC /I..\..\..\SRC\EDD_ENGINE_WINDOWS /I..\..\..\SRC\EDD_ENGINE_COMMON /Zi /nologo /W4 /WX- /Od /Oy- /D WIN32 /D _WINDOWS /D _DEBUG /D _USRDLL /D _UNICODE /D UNICODE /D _AFXDLL /Gm /EHsc /RTC1 /MDd /GS /fp:precise /Zc:wchar_t /Zc:forScope /Zc:inline /Yu"stdinc.h" /Fp"DEBUG\WIN32\FDI_DDS_ADAPTERLIB.PCH" /Fo"DEBUG\WIN32\\" /Fd"DEBUG\WIN32\FDI_DDS_ADAPTERLIB.PDB" /FR"Debug\Win32\\" /Gd /TP /FIAMSVERSION.H /analyze- C:\USERS\PARTHASARTHI.BK\DESKTOP\SOURCES\BUILD\FDI EDD ENGINE\CODE\SRC\FDI\FDI_DDS_ADAPTERLIB\DEV_TYPE.CPP
^C:\USERS\PARTHASARTHI.BK\DESKTOP\SOURCES\BUILD\FDI EDD ENGINE\CODE\SRC\FDI\FDI_DDS_ADAPTERLIB\FF_SUP.CPP
/c /I..\INC /I..\FDI_DDS_LIB /I..\..\..\INTERFACES\EDD_ENGINE_INTERFACES /I..\..\..\INC /I..\..\..\SRC\EDD_ENGINE_WINDOWS /I..\..\..\SRC\EDD_ENGINE_COMMON /Zi /nologo /W4 /WX- /Od /Oy- /D WIN32 /D _WINDOWS /D _DEBUG /D _USRDLL /D _UNICODE /D UNICODE /D _AFXDLL /Gm /EHsc /RTC1 /MDd /GS /fp:precise /Zc:wchar_t /Zc:forScope /Zc:inline /Yu"stdinc.h" /Fp"DEBUG\WIN32\FDI_DDS_ADAPTERLIB.PCH" /Fo"DEBUG\WIN32\\" /Fd"DEBUG\WIN32\FDI_DDS_ADAPTERLIB.PDB" /FR"Debug\Win32\\" /Gd /TP /FIAMSVERSION.H /analyze- C:\USERS\PARTHASARTHI.BK\DESKTOP\SOURCES\BUILD\FDI EDD ENGINE\CODE\SRC\FDI\FDI_DDS_ADAPTERLIB\FF_SUP.CPP
^C:\USERS\PARTHASARTHI.BK\DESKTOP\SOURCES\BUILD\FDI EDD ENGINE\CODE\SRC\FDI\FDI_DDS_ADAPTERLIB\RMALLOC.CPP
/c /I..\INC /I..\FDI_DDS_LIB /I..\..\..\INTERFACES\EDD_ENGINE_INTERFACES /I..\..\..\INC /I..\..\..\SRC\EDD_ENGINE_WINDOWS /I..\..\..\SRC\EDD_ENGINE_COMMON /Zi /nologo /W4 /WX- /Od /Oy- /D WIN32 /D _WINDOWS /D _DEBUG /D _USRDLL /D _UNICODE /D UNICODE /D _AFXDLL /Gm /EHsc /RTC1 /MDd /GS /fp:precise /Zc:wchar_t /Zc:forScope /Zc:inline /Yu"stdinc.h" /Fp"DEBUG\WIN32\FDI_DDS_ADAPTERLIB.PCH" /Fo"DEBUG\WIN32\\" /Fd"DEBUG\WIN32\FDI_DDS_ADAPTERLIB.PDB" /FR"Debug\Win32\\" /Gd /TP /FIAMSVERSION.H /analyze- C:\USERS\PARTHASARTHI.BK\DESKTOP\SOURCES\BUILD\FDI EDD ENGINE\CODE\SRC\FDI\FDI_DDS_ADAPTERLIB\RMALLOC.CPP
^C:\USERS\PARTHASARTHI.BK\DESKTOP\SOURCES\BUILD\FDI EDD ENGINE\CODE\SRC\FDI\FDI_DDS_ADAPTERLIB\SM_STRFN.CPP
/c /I..\INC /I..\FDI_DDS_LIB /I..\..\..\INTERFACES\EDD_ENGINE_INTERFACES /I..\..\..\INC /I..\..\..\SRC\EDD_ENGINE_WINDOWS /I..\..\..\SRC\EDD_ENGINE_COMMON /Zi /nologo /W4 /WX- /Od /Oy- /D WIN32 /D _WINDOWS /D _DEBUG /D _USRDLL /D _UNICODE /D UNICODE /D _AFXDLL /Gm /EHsc /RTC1 /MDd /GS /fp:precise /Zc:wchar_t /Zc:forScope /Zc:inline /Yu"stdinc.h" /Fp"DEBUG\WIN32\FDI_DDS_ADAPTERLIB.PCH" /Fo"DEBUG\WIN32\\" /Fd"DEBUG\WIN32\FDI_DDS_ADAPTERLIB.PDB" /FR"Debug\Win32\\" /Gd /TP /FIAMSVERSION.H /analyze- C:\USERS\PARTHASARTHI.BK\DESKTOP\SOURCES\BUILD\FDI EDD ENGINE\CODE\SRC\FDI\FDI_DDS_ADAPTERLIB\SM_STRFN.CPP
^C:\USERS\PARTHASARTHI.BK\DESKTOP\SOURCES\BUILD\FDI EDD ENGINE\CODE\SRC\FDI\FDI_DDS_ADAPTERLIB\NTCSPECIESLOG.CPP
/c /I..\INC /I..\FDI_DDS_LIB /I..\..\..\INTERFACES\EDD_ENGINE_INTERFACES /I..\..\..\INC /I..\..\..\SRC\EDD_ENGINE_WINDOWS /I..\..\..\SRC\EDD_ENGINE_COMMON /Zi /nologo /W4 /WX- /Od /Oy- /D WIN32 /D _WINDOWS /D _DEBUG /D _USRDLL /D _UNICODE /D UNICODE /D _AFXDLL /Gm /EHsc /RTC1 /MDd /GS /fp:precise /Zc:wchar_t /Zc:forScope /Zc:inline /Fo"DEBUG\WIN32\\" /Fd"DEBUG\WIN32\FDI_DDS_ADAPTERLIB.PDB" /FR"Debug\Win32\\" /Gd /TP /FIAMSVERSION.H /analyze- C:\USERS\PARTHASARTHI.BK\DESKTOP\SOURCES\BUILD\FDI EDD ENGINE\CODE\SRC\FDI\FDI_DDS_ADAPTERLIB\NTCSPECIESLOG.CPP
