^C:\USERS\PARTHASARTHI.BK\DESKTOP\SOURCES\BUILD\FDI EDD ENGINE\CODE\SRC\FDI\FDI_DDS_ADAPTERLIB\DEBUG\WIN32\CMDDSTBLACC.OBJ|C:\USERS\PARTHASARTHI.BK\DESKTOP\SOURCES\BUILD\FDI EDD ENGINE\CODE\SRC\FDI\FDI_DDS_ADAPTERLIB\DEBUG\WIN32\CMTBLACC.OBJ|C:\USERS\PARTHASARTHI.BK\DESKTOP\SOURCES\BUILD\FDI EDD ENGINE\CODE\SRC\FDI\FDI_DDS_ADAPTERLIB\DEBUG\WIN32\CM_DDS.OBJ|C:\USERS\PARTHASARTHI.BK\DESKTOP\SOURCES\BUILD\FDI EDD ENGINE\CODE\SRC\FDI\FDI_DDS_ADAPTERLIB\DEBUG\WIN32\CM_INIT.OBJ|C:\USERS\PARTHASARTHI.BK\DESKTOP\SOURCES\BUILD\FDI EDD ENGINE\CODE\SRC\FDI\FDI_DDS_ADAPTERLIB\DEBUG\WIN32\CM_ROD.OBJ|C:\USERS\PARTHASARTHI.BK\DESKTOP\SOURCES\BUILD\FDI EDD ENGINE\CODE\SRC\FDI\FDI_DDS_ADAPTERLIB\DEBUG\WIN32\CONNECTIONMGR.OBJ|C:\USERS\PARTHASARTHI.BK\DESKTOP\SOURCES\BUILD\FDI EDD ENGINE\CODE\SRC\FDI\FDI_DDS_ADAPTERLIB\DEBUG\WIN32\DEVICETYPEMGR.OBJ|C:\USERS\PARTHASARTHI.BK\DESKTOP\SOURCES\BUILD\FDI EDD ENGINE\CODE\SRC\FDI\FDI_DDS_ADAPTERLIB\DEBUG\WIN32\DEV_TYPE.OBJ|C:\USERS\PARTHASARTHI.BK\DESKTOP\SOURCES\BUILD\FDI EDD ENGINE\CODE\SRC\FDI\FDI_DDS_ADAPTERLIB\DEBUG\WIN32\EDDENGINELOG.OBJ|C:\USERS\PARTHASARTHI.BK\DESKTOP\SOURCES\BUILD\FDI EDD ENGINE\CODE\SRC\FDI\FDI_DDS_ADAPTERLIB\DEBUG\WIN32\FF_SUP.OBJ|C:\USERS\PARTHASARTHI.BK\DESKTOP\SOURCES\BUILD\FDI EDD ENGINE\CODE\SRC\FDI\FDI_DDS_ADAPTERLIB\DEBUG\WIN32\NTCSPECIESLOG.OBJ|C:\USERS\PARTHASARTHI.BK\DESKTOP\SOURCES\BUILD\FDI EDD ENGINE\CODE\SRC\FDI\FDI_DDS_ADAPTERLIB\DEBUG\WIN32\RMALLOC.OBJ|C:\USERS\PARTHASARTHI.BK\DESKTOP\SOURCES\BUILD\FDI EDD ENGINE\CODE\SRC\FDI\FDI_DDS_ADAPTERLIB\DEBUG\WIN32\SM_STRFN.OBJ|C:\USERS\PARTHASARTHI.BK\DESKTOP\SOURCES\BUILD\FDI EDD ENGINE\CODE\SRC\FDI\FDI_DDS_ADAPTERLIB\DEBUG\WIN32\STDINC.OBJ
C:\WINDOWS\GLOBALIZATION\SORTING\SORTDEFAULT.NLS
C:\USERS\PARTHASARTHI.BK\DESKTOP\SOURCES\BUILD\FDI EDD ENGINE\CODE\SRC\FDI\FDI_DDS_ADAPTERLIB\DEBUG\WIN32\CONNECTIONMGR.OBJ
C:\WINDOWS\SYSTEM32\TZRES.DLL
C:\USERS\PARTHASARTHI.BK\DESKTOP\SOURCES\BUILD\FDI EDD ENGINE\CODE\SRC\FDI\FDI_DDS_ADAPTERLIB\DEBUG\WIN32\DEVICETYPEMGR.OBJ
C:\USERS\PARTHASARTHI.BK\DESKTOP\SOURCES\BUILD\FDI EDD ENGINE\CODE\SRC\FDI\FDI_DDS_ADAPTERLIB\DEBUG\WIN32\EDDENGINELOG.OBJ
C:\USERS\PARTHASARTHI.BK\DESKTOP\SOURCES\BUILD\FDI EDD ENGINE\CODE\SRC\FDI\FDI_DDS_ADAPTERLIB\DEBUG\WIN32\NTCSPECIESLOG.OBJ
C:\USERS\PARTHASARTHI.BK\DESKTOP\SOURCES\BUILD\FDI EDD ENGINE\CODE\SRC\FDI\FDI_DDS_ADAPTERLIB\DEBUG\WIN32\CM_DDS.OBJ
C:\USERS\PARTHASARTHI.BK\DESKTOP\SOURCES\BUILD\FDI EDD ENGINE\CODE\SRC\FDI\FDI_DDS_ADAPTERLIB\DEBUG\WIN32\CM_INIT.OBJ
C:\USERS\PARTHASARTHI.BK\DESKTOP\SOURCES\BUILD\FDI EDD ENGINE\CODE\SRC\FDI\FDI_DDS_ADAPTERLIB\DEBUG\WIN32\CM_ROD.OBJ
C:\USERS\PARTHASARTHI.BK\DESKTOP\SOURCES\BUILD\FDI EDD ENGINE\CODE\SRC\FDI\FDI_DDS_ADAPTERLIB\DEBUG\WIN32\CMDDSTBLACC.OBJ
C:\USERS\PARTHASARTHI.BK\DESKTOP\SOURCES\BUILD\FDI EDD ENGINE\CODE\SRC\FDI\FDI_DDS_ADAPTERLIB\DEBUG\WIN32\CMTBLACC.OBJ
C:\USERS\PARTHASARTHI.BK\DESKTOP\SOURCES\BUILD\FDI EDD ENGINE\CODE\SRC\FDI\FDI_DDS_ADAPTERLIB\DEBUG\WIN32\DEV_TYPE.OBJ
C:\USERS\PARTHASARTHI.BK\DESKTOP\SOURCES\BUILD\FDI EDD ENGINE\CODE\SRC\FDI\FDI_DDS_ADAPTERLIB\DEBUG\WIN32\FF_SUP.OBJ
C:\USERS\PARTHASARTHI.BK\DESKTOP\SOURCES\BUILD\FDI EDD ENGINE\CODE\SRC\FDI\FDI_DDS_ADAPTERLIB\DEBUG\WIN32\RMALLOC.OBJ
C:\USERS\PARTHASARTHI.BK\DESKTOP\SOURCES\BUILD\FDI EDD ENGINE\CODE\SRC\FDI\FDI_DDS_ADAPTERLIB\DEBUG\WIN32\SM_STRFN.OBJ
C:\USERS\PARTHASARTHI.BK\DESKTOP\SOURCES\BUILD\FDI EDD ENGINE\CODE\SRC\FDI\FDI_DDS_ADAPTERLIB\DEBUG\WIN32\STDINC.OBJ
