Device Rev 1, DD Rev 1
   150 response_code                    ENUMERATED       1
   151 device_status                    BIT_ENUMERATED   1
   152 comm_status                      BIT_ENUMERATED   1
   153 manufacturer_id                  ENUMERATED       1
   154 device_type                      ENUMERATED       1
   155 request_preambles                UNSIGNED         1
   156 universal_revision               UNSIGNED         1
   157 transmitter_revision             UNSIGNED         1
   158 software_revision                UNSIGNED         1
   159 hardware_revision                UNSIGNED         1
   160 device_flags                     BIT_ENUMERATED   1
   161 device_id                        UNSIGNED         3
   162 polling_address                  UNSIGNED         1
   163 tag                              PACKED_ASCII     8
   164 message                          PACKED_ASCII    32
   165 descriptor                       PACKED_ASCII    16
   166 date                             DATE             3
   167 write_protect                    ENUMERATED       1
   168 private_label_distributor        ENUMERATED       1
   169 final_assembly_number            UNSIGNED         3
   171 physical_signaling_code          ENUMERATED       1
   206 max_num_device_variables         UNSIGNED         1
   207 config_change_counter            UNSIGNED         2
   210 longTag                          ASCII           32
   225 device_variable_code_1           INDEX            1
   226 device_variable_code_2           INDEX            1
   227 device_variable_code_3           INDEX            1
   228 device_variable_code_4           INDEX            1
   231 loop_flags                       BIT_ENUMERATED   1
   233 percentRange                     FLOAT            4
   234 upperRange_value                 FLOAT            4
   235 lowerRange_value                 FLOAT            4
   236 loop_alarm_code                  ENUMERATED       1
   237 loopCurrent                      FLOAT            4
  2025 units_code                       ENUMERATED       1
  2026 transfer_function_code           ENUMERATED       1
  2027 alarm_selection_code             ENUMERATED       1
  2028 material_code                    ENUMERATED       1
  2030 write_protect_code               ENUMERATED       1
  2031 company_identification_code      ENUMERATED       2
  2032 burst_mode_control_code          ENUMERATED       1
  2033 physical_signaling_codes         ENUMERATED       1
  2034 flag_assignment                  ENUMERATED       1
  2035 operating_mode_code              ENUMERATED       1
  2036 analog_output_numbers_code       ENUMERATED       1
  2041 loop_current_mode_codes          ENUMERATED       1
  2042 extended_device_status_codes     ENUMERATED       1
  2043 device_variable_classification_codes ENUMERATED       1
  2044 lock_device_codes                ENUMERATED       1
  2045 write_device_variable_codes      ENUMERATED       1
  2046 lock_device_status_codes         ENUMERATED       1
  2047 trim_point_codes                 ENUMERATED       1
  2048 physical_layer_type_codes        ENUMERATED       1
  2049 device_variable_family_codes     ENUMERATED       1
  2050 analog_channel_flags             ENUMERATED       1
  2051 capture_mode_codes               ENUMERATED       1
  2052 process_data_status              ENUMERATED       1
  2053 limit_status                     ENUMERATED       1
  2054 device_family_status             ENUMERATED       1
  2055 extended_fld_device_status       BIT_ENUMERATED   1
  2056 loop_current_mode                ENUMERATED       1
  2160 operatingMode                    ENUMERATED       1
  2262 analog_channel_saturated_codes   ENUMERATED       1
  2263 analog_channel_fixed_codes       ENUMERATED       1
  4066 response_preambles               UNSIGNED         1
  4157 analog_channel_saturated1        BIT_ENUMERATED   1
  4160 analog_channel_fixed1            BIT_ENUMERATED   1
  4167 device_variable_code             INDEX            1
  8068 transfer_function                ENUMERATED       1
 16384 pressureValue                    FLOAT            4
 16385 pressureUnits                    ENUMERATED       1
 16386 pressureFamily                   ENUMERATED       1
 16387 pressureClassification           ENUMERATED       1
 16388 pressurePDQ                      ENUMERATED       1
 16389 temperatureValue                 FLOAT            4
 16390 temperatureUnits                 ENUMERATED       1
 16391 temperatureFamily                ENUMERATED       1
 16392 temperatureClassification        ENUMERATED       1
 16393 temperaturePDQ                   ENUMERATED       1
 16394 temperatureLS                    ENUMERATED       1
 16395 temperatureStatus                BIT_ENUMERATED   1
 16401 varInteger8HexEdit               INTEGER          8
 16402 varInteger8HexDisplay            INTEGER          8
 16403 varInteger8HexEditDisplay        INTEGER          8
 16404 varInteger8HeXEditDisplay        INTEGER          8
 16405 varInteger8HeXFormat             INTEGER          8
 16406 pressureLS                       ENUMERATED       1
 16407 pressureStatus                   BIT_ENUMERATED   1
 16408 pressureUSL                      FLOAT            4
 16410 pressureLSL                      FLOAT            4
 16411 pressureMinimumSpan              FLOAT            4
 16412 pressureDampingValue             FLOAT            4
 16413 pressureSerialNumber             UNSIGNED         3
 16414 varUnsignedInteger1              UNSIGNED         1
 16415 varUnsignedInteger2              UNSIGNED         2
 16416 varUnsignedInteger3              UNSIGNED         3
 16417 varUnsignedInteger4              UNSIGNED         4
 16418 varUnsignedInteger5              UNSIGNED         5
 16419 varUnsignedInteger6              UNSIGNED         6
 16420 varUnsignedInteger7              UNSIGNED         7
 16421 varUnsignedInteger8              UNSIGNED         8
 16422 varInteger1                      INTEGER          1
 16423 varInteger2                      INTEGER          2
 16424 varInteger3                      INTEGER          3
 16425 varInteger4                      INTEGER          4
 16426 varInteger5                      INTEGER          5
 16427 varInteger6                      INTEGER          6
 16428 varInteger7                      INTEGER          7
 16429 varInteger8                      INTEGER          8
 16430 varIntegerMultiMinMax            INTEGER          1
 16431 varBitEnum1                      BIT_ENUMERATED   1
 16432 varBitEnum2                      BIT_ENUMERATED   2
 16433 varBitEnum3                      BIT_ENUMERATED   3
 16434 varBitEnum4                      BIT_ENUMERATED   4
 16435 varBitEnumDiag1                  BIT_ENUMERATED   2
 16436 varBitEnumDiag2                  BIT_ENUMERATED   2
 16437 varBitEnumDiag3                  BIT_ENUMERATED   2
 16438 varEnumerated1                   ENUMERATED       1
 16439 varEnumerated2                   ENUMERATED       2
 16440 varEnumerated3                   ENUMERATED       3
 16441 varEnumerated4                   ENUMERATED       4
 16450 varfloat                         FLOAT            4
 16455 varFloatWritable                 FLOAT            4
 16456 varFloatWriteOnly                FLOAT            4
 16457 varMixedDisplayEdit              FLOAT            4
 16458 varFloatScaling                  FLOAT            4
 16459 varIntScaledFloat                INTEGER          1
 16460 varNoFormatIntScaledFloat        INTEGER          1
 16461 varIntScaledFloatMaxMin          INTEGER          1
 16462 varUnsignedIntScaledFloat        UNSIGNED         1
 16463 varValdityFalse                  FLOAT            4
 16474 varDouble                        DOUBLE           8
 16479 varAsciiDefaultValue             ASCII           16
 16480 varPackedAsciiDefaultValue       PACKED_ASCII     8
 16481 varPasswordDefaultValue          PASSWORD        10
 16482 varEnumerationDefaultValue       ENUMERATED       1
 16484 varDateDefaultValue              DATE             3
 16495 varIndex                         INDEX            1
 16497 testIndexDefaultValue            INDEX            1
 16498 testIndexNoDefaultValue          INDEX            1
 16499 ArrayVariable2                   INTEGER          1
 16500 ArrayVariable1                   INTEGER          1
 16501 ArrayVariable3                   INTEGER          1
 16503 TimeHOpt                         TIME_VALUE       4
 16504 TimeIOpt                         TIME_VALUE       4
 16505 TimeMOpt                         TIME_VALUE       4
 16506 TimeSOpt                         TIME_VALUE       4
 16507 TimeHMSOpt                       TIME_VALUE       4
 16508 TimeIMSpOpt                      TIME_VALUE       4
 16509 TimeTOpt                         TIME_VALUE       4
 16510 TimeROpt                         TIME_VALUE       4
 16514 TimeRaw                          UNSIGNED         4
 16515 timeSetCode                      ENUMERATED       1
 16516 currentDate                      DATE             3
 16517 lastSetDate                      DATE             3
 16518 lastSetTime                      TIME_VALUE       4
 16519 currentTime                      TIME_VALUE       4
 16520 ClockFlag                        BIT_ENUMERATED   1
 16628 ImageLocalValidityVar            ENUMERATED       1
 16629 ImageConditionalPathVar          ENUMERATED       1
 16631 ImageLinkedEditDisplayValidityVar ENUMERATED       1
 16632 ImageLinkedValidityMenuVar       ENUMERATED       1
 16633 ImageLinkedValidityMethodVar     ENUMERATED       1
 16729 GridHandlingVar                  ENUMERATED       1
 16730 GridValidityVar                  ENUMERATED       1
 16731 GridValueTest                    FLOAT            4
 19299 MyFloatNotANumber                FLOAT            4
 19457 varLocalUnsignedInteger1         UNSIGNED         1
 19460 varLocalUnsignedInteger4         UNSIGNED         4
 19465 varLocalInteger1                 INTEGER          1
 19481 varDisplayFormatSelections       ENUMERATED       1
 19482 varEditFormatSelections          ENUMERATED       1
 19746 varSimpleFieldHeight1            UNSIGNED         1
 19747 varSimpleFieldHeight2            UNSIGNED         1
 19748 varSimpleFieldHeight3            UNSIGNED         1
 19749 varSimpleFieldHeight4            UNSIGNED         1
 19750 varSimpleFieldHeight5            UNSIGNED         1
 19751 varSimpleFieldHeight6            UNSIGNED         1
 19752 varSimpleFieldHeight7            UNSIGNED         1
 19753 varSimpleFieldHeight8            UNSIGNED         1
 19754 varSimpleFieldHeight9            UNSIGNED         1
 19755 varSimpleFieldHeight10           UNSIGNED         1
 19756 varSimpleFieldHeight11           UNSIGNED         1
 19757 varSimpleFieldHeight12           UNSIGNED         1
 19758 varSimpleFieldHeight13           UNSIGNED         1
 19759 varSimpleFieldHeight14           UNSIGNED         1
 19760 varSimpleFieldHeight15           UNSIGNED         1
 19826 GridValueValidityVar             ENUMERATED       1
Device Rev 2, DD Rev 1
   150 response_code                    ENUMERATED       1
   151 device_status                    BIT_ENUMERATED   1
   152 comm_status                      BIT_ENUMERATED   1
   153 manufacturer_id                  ENUMERATED       1
   154 device_type                      ENUMERATED       1
   155 request_preambles                UNSIGNED         1
   156 universal_revision               UNSIGNED         1
   157 transmitter_revision             UNSIGNED         1
   158 software_revision                UNSIGNED         1
   159 hardware_revision                UNSIGNED         1
   160 device_flags                     BIT_ENUMERATED   1
   161 device_id                        UNSIGNED         3
   162 polling_address                  UNSIGNED         1
   163 tag                              PACKED_ASCII     8
   164 message                          PACKED_ASCII    32
   165 descriptor                       PACKED_ASCII    16
   166 date                             DATE             3
   167 write_protect                    ENUMERATED       1
   168 private_label_distributor        ENUMERATED       1
   169 final_assembly_number            UNSIGNED         3
   171 physical_signaling_code          ENUMERATED       1
   206 max_num_device_variables         UNSIGNED         1
   207 config_change_counter            UNSIGNED         2
   210 longTag                          ASCII           32
   225 device_variable_code_1           INDEX            1
   226 device_variable_code_2           INDEX            1
   227 device_variable_code_3           INDEX            1
   228 device_variable_code_4           INDEX            1
   231 loop_flags                       BIT_ENUMERATED   1
   233 percentRange                     FLOAT            4
   234 upperRange_value                 FLOAT            4
   235 lowerRange_value                 FLOAT            4
   236 loop_alarm_code                  ENUMERATED       1
   237 loopCurrent                      FLOAT            4
  2025 units_code                       ENUMERATED       1
  2026 transfer_function_code           ENUMERATED       1
  2027 alarm_selection_code             ENUMERATED       1
  2028 material_code                    ENUMERATED       1
  2030 write_protect_code               ENUMERATED       1
  2031 company_identification_code      ENUMERATED       2
  2032 burst_mode_control_code          ENUMERATED       1
  2033 physical_signaling_codes         ENUMERATED       1
  2034 flag_assignment                  ENUMERATED       1
  2035 operating_mode_code              ENUMERATED       1
  2036 analog_output_numbers_code       ENUMERATED       1
  2041 loop_current_mode_codes          ENUMERATED       1
  2042 extended_device_status_codes     ENUMERATED       1
  2043 device_variable_classification_codes ENUMERATED       1
  2044 lock_device_codes                ENUMERATED       1
  2045 write_device_variable_codes      ENUMERATED       1
  2046 lock_device_status_codes         ENUMERATED       1
  2047 trim_point_codes                 ENUMERATED       1
  2048 physical_layer_type_codes        ENUMERATED       1
  2049 device_variable_family_codes     ENUMERATED       1
  2050 analog_channel_flags             ENUMERATED       1
  2051 capture_mode_codes               ENUMERATED       1
  2052 process_data_status              ENUMERATED       1
  2053 limit_status                     ENUMERATED       1
  2054 device_family_status             ENUMERATED       1
  2055 extended_fld_device_status       BIT_ENUMERATED   1
  2056 loop_current_mode                ENUMERATED       1
  2160 operatingMode                    ENUMERATED       1
  2262 analog_channel_saturated_codes   ENUMERATED       1
  2263 analog_channel_fixed_codes       ENUMERATED       1
  4066 response_preambles               UNSIGNED         1
  4157 analog_channel_saturated1        BIT_ENUMERATED   1
  4160 analog_channel_fixed1            BIT_ENUMERATED   1
  4167 device_variable_code             INDEX            1
  8068 transfer_function                ENUMERATED       1
 16384 pressureValue                    FLOAT            4
 16385 pressureUnits                    ENUMERATED       1
 16386 pressureFamily                   ENUMERATED       1
 16387 pressureClassification           ENUMERATED       1
 16388 pressurePDQ                      ENUMERATED       1
 16389 temperatureValue                 FLOAT            4
 16390 temperatureUnits                 ENUMERATED       1
 16391 temperatureFamily                ENUMERATED       1
 16392 temperatureClassification        ENUMERATED       1
 16393 temperaturePDQ                   ENUMERATED       1
 16394 temperatureLS                    ENUMERATED       1
 16395 temperatureStatus                BIT_ENUMERATED   1
 16401 varInteger8HexEdit               INTEGER          8
 16402 varInteger8HexDisplay            INTEGER          8
 16403 varInteger8HexEditDisplay        INTEGER          8
 16404 varInteger8HeXEditDisplay        INTEGER          8
 16405 varInteger8HeXFormat             INTEGER          8
 16406 pressureLS                       ENUMERATED       1
 16407 pressureStatus                   BIT_ENUMERATED   1
 16408 pressureUSL                      FLOAT            4
 16410 pressureLSL                      FLOAT            4
 16411 pressureMinimumSpan              FLOAT            4
 16412 pressureDampingValue             FLOAT            4
 16413 pressureSerialNumber             UNSIGNED         3
 16414 varUnsignedInteger1              UNSIGNED         1
 16415 varUnsignedInteger2              UNSIGNED         2
 16416 varUnsignedInteger3              UNSIGNED         3
 16417 varUnsignedInteger4              UNSIGNED         4
 16418 varUnsignedInteger5              UNSIGNED         5
 16419 varUnsignedInteger6              UNSIGNED         6
 16420 varUnsignedInteger7              UNSIGNED         7
 16421 varUnsignedInteger8              UNSIGNED         8
 16422 varInteger1                      INTEGER          1
 16423 varInteger2                      INTEGER          2
 16424 varInteger3                      INTEGER          3
 16425 varInteger4                      INTEGER          4
 16426 varInteger5                      INTEGER          5
 16427 varInteger6                      INTEGER          6
 16428 varInteger7                      INTEGER          7
 16429 varInteger8                      INTEGER          8
 16430 varIntegerMultiMinMax            INTEGER          1
 16431 varBitEnum1                      BIT_ENUMERATED   1
 16432 varBitEnum2                      BIT_ENUMERATED   2
 16433 varBitEnum3                      BIT_ENUMERATED   3
 16434 varBitEnum4                      BIT_ENUMERATED   4
 16435 varBitEnumDiag1                  BIT_ENUMERATED   2
 16436 varBitEnumDiag2                  BIT_ENUMERATED   2
 16437 varBitEnumDiag3                  BIT_ENUMERATED   2
 16438 varEnumerated1                   ENUMERATED       1
 16439 varEnumerated2                   ENUMERATED       2
 16440 varEnumerated3                   ENUMERATED       3
 16441 varEnumerated4                   ENUMERATED       4
 16450 varfloat                         FLOAT            4
 16455 varFloatWritable                 FLOAT            4
 16456 varFloatWriteOnly                FLOAT            4
 16457 varMixedDisplayEdit              FLOAT            4
 16458 varFloatScaling                  FLOAT            4
 16459 varIntScaledFloat                INTEGER          1
 16460 varNoFormatIntScaledFloat        INTEGER          1
 16461 varIntScaledFloatMaxMin          INTEGER          1
 16462 varUnsignedIntScaledFloat        UNSIGNED         1
 16463 varValdityFalse                  FLOAT            4
 16474 varDouble                        DOUBLE           8
 16479 varAsciiDefaultValue             ASCII           16
 16480 varPackedAsciiDefaultValue       PACKED_ASCII     8
 16481 varPasswordDefaultValue          PASSWORD        10
 16482 varEnumerationDefaultValue       ENUMERATED       1
 16484 varDateDefaultValue              DATE             3
 16495 varIndex                         INDEX            1
 16497 testIndexDefaultValue            INDEX            1
 16498 testIndexNoDefaultValue          INDEX            1
 16499 ArrayVariable2                   INTEGER          1
 16500 ArrayVariable1                   INTEGER          1
 16501 ArrayVariable3                   INTEGER          1
 16503 TimeHOpt                         TIME_VALUE       4
 16504 TimeIOpt                         TIME_VALUE       4
 16505 TimeMOpt                         TIME_VALUE       4
 16506 TimeSOpt                         TIME_VALUE       4
 16507 TimeHMSOpt                       TIME_VALUE       4
 16508 TimeIMSpOpt                      TIME_VALUE       4
 16509 TimeTOpt                         TIME_VALUE       4
 16510 TimeROpt                         TIME_VALUE       4
 16514 TimeRaw                          UNSIGNED         4
 16515 timeSetCode                      ENUMERATED       1
 16516 currentDate                      DATE             3
 16517 lastSetDate                      DATE             3
 16518 lastSetTime                      TIME_VALUE       4
 16519 currentTime                      TIME_VALUE       4
 16520 ClockFlag                        BIT_ENUMERATED   1
 16628 ImageLocalValidityVar            ENUMERATED       1
 16629 ImageConditionalPathVar          ENUMERATED       1
 16631 ImageLinkedEditDisplayValidityVar ENUMERATED       1
 16632 ImageLinkedValidityMenuVar       ENUMERATED       1
 16633 ImageLinkedValidityMethodVar     ENUMERATED       1
 16729 GridHandlingVar                  ENUMERATED       1
 16730 GridValidityVar                  ENUMERATED       1
 16731 GridValueTest                    FLOAT            4
 19299 MyFloatNotANumber                FLOAT            4
 19457 varLocalUnsignedInteger1         UNSIGNED         1
 19460 varLocalUnsignedInteger4         UNSIGNED         4
 19465 varLocalInteger1                 INTEGER          1
 19481 varDisplayFormatSelections       ENUMERATED       1
 19482 varEditFormatSelections          ENUMERATED       1
 19746 varSimpleFieldHeight1            UNSIGNED         1
 19747 varSimpleFieldHeight2            UNSIGNED         1
 19748 varSimpleFieldHeight3            UNSIGNED         1
 19749 varSimpleFieldHeight4            UNSIGNED         1
 19750 varSimpleFieldHeight5            UNSIGNED         1
 19751 varSimpleFieldHeight6            UNSIGNED         1
 19752 varSimpleFieldHeight7            UNSIGNED         1
 19753 varSimpleFieldHeight8            UNSIGNED         1
 19754 varSimpleFieldHeight9            UNSIGNED         1
 19755 varSimpleFieldHeight10           UNSIGNED         1
 19756 varSimpleFieldHeight11           UNSIGNED         1
 19757 varSimpleFieldHeight12           UNSIGNED         1
 19758 varSimpleFieldHeight13           UNSIGNED         1
 19759 varSimpleFieldHeight14           UNSIGNED         1
 19760 varSimpleFieldHeight15           UNSIGNED         1
 19826 GridValueValidityVar             ENUMERATED       1
