^C:\Users\parthasarthi.bk\Desktop\Sources\Build\FDI EDD Engine\Code\Src\FF\FFEDDEngine\FFEDDEngine.vcxproj
C:\Users\parthasarthi.bk\Desktop\Sources\Build\FDI EDD Engine\Code\Legacy\code\lib\FFEDDEngine.lib
C:\Users\parthasarthi.bk\Desktop\Sources\Build\FDI EDD Engine\Code\Legacy\code\lib\FFEDDEngine.exp
