method          test_relay                                16430 
edit-display    test_output2_menu                         16685 
variable        physical_signaling_codes  enumerated      2033 (std,imp) 
variable        relay2_phase              enumerated      16527 
variable        meas_type                 enumerated      16443 
menu            cal_sensor_menu                           16705 
method          post_send_configuration_method                 1008 (std) 
unit            meas_relation                             16572 
menu            meas_menu                                 16670 
method          test_output1_off                          16655 
command         hl_write_misc                             16624 
member          RANGE_UNITS               collection      203 (std) 
method          cal_return                                16632 
edit-display    test_relay2_menu                          16687 
command         hl_write_relay3_alarm_data                 16612 
method          read_misc_data                            16645 
variable        ph_display_format         enumerated      16445 
method          test_leds_on                              16651 
command         read_unique_identifier                    174 (std,mand,imp) 
variable        target_type               enumerated      16411 
method          cal_output2_4ma                           16641 
command         hl_read_measurement                       16597 
variable        meas_display_format       enumerated      16440 
command         hl_read_relay4_control_data                 16619 
variable        rosemount_model_code      enumerated      2037 (std,imp) 
variable        material_code             enumerated      2028 (std,imp) 
variable        meas_display_type         enumerated      16441 
variable        relay2_high_db            float           16521 
member          MINIMUM_SPAN              collection      195 (std) 
menu            meas_output2_menu                         16678 
variable        relay_ovfd_reset          enumerated      16421 
variable        relay2_stub               enumerated      16512 
variable        analog_output_numbers_code enumerated      2036 (std,imp) 
collection      __SENSOR                  variable        950 (std) 
collection      __INPT                    variable        951 (std) 
method          cal_1pt_sample_ph                         16637 
method          test_output2_off                          16656 
menu            cfrelay2_data_menu                        16701 
command         hl_read_relay2_control_data                 16617 
variable        sim_type                  enumerated      16450 
member          DAMPING_VALUE             collection      198 (std) 
variable        __analog_value            float           961 (std) 
variable        relay3_xfr_setting        enumerated      16537 
variable        output2_value             float           16481 
command         read_tag_descriptor_date                  181 (std,imp) 
variable        tag                       packed-ascii    163 (std,mand,imp) 
method          cal_output1_4ma                           16639 
method          test_relay1_on                            16657 
variable        relay4_meas_type          enumerated      16555 
menu            meas_relay3_menu                          16681 
command         hl_read_ao2_data                          16604 
variable        device_type               enumerated      154 (std,mand,imp) 
variable        ph_pure_water             enumerated      16447 
variable        input_lower_value         float           16387 
variable        request_preambles         unsigned        155 (std,mand,imp) 
unit            temp_relation                             16573 
variable        relay4_low_alarm          float           16560 
member          blk_dd_revision           record          3221290757 
menu            cfrelay3_menu                             16697 
command         hl_read_relay1_control_data                 16616 
item-array      dynamic_variables         collection      172 (std,mand) 
variable        temp_user_value_a         float           16462 
command         perform_master_reset                      4015 (std,imp) 
variable        relay4_on_delay           unsigned        16563 
variable        uint16_var_blk_char       unsigned        2147548933 
variable        relay2_control_units      enumerated      16525 
variable        meas_units                enumerated      16438 
edit-display    test_relay4_menu                          16689 
command         hl_test_status                            16593 
method          test_relay2_on                            16658 
variable        relay1_off_delay          unsigned        16504 
method          cal_1pt_buffer                            16635 
command         hl_write_relay1_control_data                 16620 
method          test_output2_on                           16654 
menu            hot_key                                   1001 (std) 
method          test_output                               16428 
refresh         relay4_refresh                            16589 
variable        relay1_alarm_units        enumerated      16498 
variable        hardware_revision         unsigned        159 (std,mand,imp) 
variable        analog_value              float           16395 
variable        status_type               enumerated      16453 
member          blk_num_params            record          3221290761 
command         hl_read_misc                              16625 
method          test_relay4_off                           16664 
unit            relay4_alarm_relation                     16580 
command         read_dynamic_variables_and_pv_current                 177 (std,imp) 
variable        __sensor_minimum_span     float           960 (std) 
variable        relay4_stub               enumerated      16552 
variable        cal_user_1pt_value        float           16409 
variable        cal_type                  enumerated      16404 
method          read_ao1_data                             16667 
variable        cal_output_value          float           16403 
collection      __ANALOG                  variable        952 (std) 
member          ANALOG_UNITS                              4070 (std) 
variable        relay2_meas_type          enumerated      16515 
variable        math_units                enumerated      16468 
variable        descriptor                packed-ascii    165 (std,imp) 
member          UPPER_SENSOR_LIMIT        collection      201 (std) 
variable        response_code             enumerated      150 (std,mand,imp) 
variable        relay1_xfr_setting        enumerated      16497 
menu            meas_relay2_menu                          16680 
command         write_final_assembly_number                 187 (std,imp) 
method          read_2m_data                              16644 
variable        output1_param             enumerated      16473 
variable        relay2_low_alarm          float           16520 
method          cal_2pt_buffer                            16634 
unit            relay4_control_relation                   16584 
command         hl_read_relay3_control_data                 16618 
method          write_misc_data                           16457 
method          test_output1_on                           16653 
variable        sensor_serial_number      unsigned        16388 
variable        relay4_control_db         float           16568 
variable        output1_units             enumerated      16470 
variable        __sensor_serial_number    unsigned        955 (std) 
method          test_relay3_off                           16663 
method          sim_input_on                              16649 
variable        math_display_format       enumerated      16469 
menu            cfrelay2_menu                             16696 
unit            output2_relation                          16576 
edit-display    test_output1_menu                         16684 
method          get_status                                16666 
command         hl_read_cal_ao                            16590 
variable        software_revision         unsigned        158 (std,mand,imp) 
member          ANALOG_DAMPING                            4078 (std) 
variable        status_output             enumerated      2147548930 
command         hl_set_relay                              16596 
variable        relay3_high_db            float           16541 
member          SENSOR_SERIAL_NUMBER      collection      199 (std) 
variable        ph_slope                  float           16442 
variable        company_identification_code enumerated      2031 (std,imp) 
variable        __input_percent_range     float           965 (std) 
collection      sensor_a                  variable        6001 (std) 
variable        relay1_low_alarm          float           16500 
command         hl_write_cal_ao                           16591 
variable        transmitter_revision      unsigned        157 (std,mand,imp) 
variable        output1_meas_type         enumerated      16472 
variable        kayray_model_code         enumerated      2039 (std,imp) 
method          sim_input_off                             16650 
command         hl_read_relay4_alarm_data                 16615 
menu            meas_output1_menu                         16677 
unit            temp_user_a_relation                      16574 
variable        relay3_on_delay_ctrl      unsigned        16550 
variable        relay1_stub               enumerated      16491 
variable        math_type                 enumerated      16465 
variable        relay3_alarm_units        enumerated      16538 
menu            meas_temp_menu                            16676 
variable        __sensor_damping_value    float           964 (std) 
variable        test_leds                 enumerated      16423 
variable        relay4_off_delay          unsigned        16564 
command         hl_cal_ph                                 16592 
member          SENSOR_UPPER_TRIM                         6007 (std) 
menu            hart_info_menu                            16709 
variable        meas_value                float           16439 
variable        passcode_mode             enumerated      16413 
variable        __new_digital_units       enumerated      970 (std) 
menu            cfrelay1_data_menu                        16700 
menu            meas_relay4_menu                          16682 
command         hl_read_ao1_data                          16602 
variable        ph_iso_point              float           16448 
variable        relay4_high_alarm         float           16559 
member          PARAM1                    parameter       3221266176 
member          PARAM2                    parameter       3221266177 
member          PARAM3                    parameter       3221266178 
member          LOWER_ENDPOINT_VALUE                      4087 (std) 
member          PARAM4                    parameter       3221266179 
member          PARAM5                    parameter       3221266180 
member          PARAM6                    parameter       3221266181 
variable        relay1_meas_type          enumerated      16494 
member          PARAM7                    parameter       3221266182 
member          PARAM8                    parameter       3221266183 
variable        input_units               enumerated      16385 
member          PARAM9                    parameter       3221266184 
member          blk_profile_rev           record          3221290759 
variable        temp_elem_type_a          enumerated      16460 
command         hl_read_ph_data                           16629 
variable        temp_elem_type_b          enumerated      16464 
variable        output2_20_ma             float           16486 
unit            __digital_units_relation                  971 (std) 
variable        relay4_xfr_setting        enumerated      16557 
command         hl_write_relay4_alarm_data                 16614 
variable        device_id                 unsigned        161 (std,imp) 
menu            upload_variables                          1003 (std) 
variable        transfer_function_code    enumerated      2026 (std,imp) 
variable        test_output_code          enumerated      16424 
menu            offline_root_menu                         1002 (std) 
command         hl_sim_sensor                             16600 
variable        test_relay_code           enumerated      16425 
variable        __input_transfer_function enumerated      966 (std) 
variable        message                   packed-ascii    164 (std,imp) 
variable        relay3_value              enumerated      16534 
edit-display    status_menu                               16692 
command         write_polling_address                     178 (std,mand,imp) 
variable        sensor_upper_limit        float           16391 
member          SENSOR_UNIT                               6003 (std) 
method          cal_report                                16631 
variable        relay1_control_units      enumerated      16505 
variable        final_assembly_number     unsigned        169 (std,imp) 
variable        sensor_units              enumerated      16390 
command         hl_blink_leds                             16598 
variable        relay3_stub               enumerated      16532 
variable        physical_signaling_code   enumerated      171 (std,mand,imp) 
variable        output2_4ma_setting       enumerated      16489 
variable        output2_meas_type         enumerated      16482 
menu            root_menu                                 1000 (std) 
variable        test_sim_mode             enumerated      16417 
variable        __sensor_units            enumerated      957 (std) 
unit            output1_relation                          16575 
variable        relay3_param              enumerated      16536 
variable        temp_user_units_a         enumerated      16463 
variable        sim_units                 enumerated      16449 
member          ALARM_CODE                collection      196 (std) 
command         hl_set_ao                                 16595 
unit            relay3_alarm_relation                     16579 
method          reset_defaults                            16420 
variable        relay3_phase              enumerated      16547 
variable        math_display_type         enumerated      16466 
variable        __sensor_upper_limit      float           959 (std) 
member          blk_index_dis             record          3221290762 
variable        relay1_on_delay           unsigned        16503 
command         read_message                              180 (std,imp) 
variable        universal_revision        unsigned        156 (std,mand,imp) 
variable        uint32_var_blk_char       unsigned        2147548934 
variable        relay2_on_delay_ctrl      unsigned        16530 
method          refresh_all                               16643 
member          blk_dd_reference          record          3221290756 
command         hl_write_ao1_data                         16603 
menu            cfrelay1_menu                             16695 
variable        write_protect             enumerated      167 (std,imp) 
variable        analog_alarm_code         enumerated      16396 
variable        relay3_meas_type          enumerated      16535 
member          PARAM210                  parameter       3221266386 
member          blk_execution_time        record          3221290760 
member          PARAM211                  parameter       3221266387 
member          PARAM212                  parameter       3221266388 
member          PARAM213                  parameter       3221266389 
menu            cal_outputs_menu                          16706 
member          PARAM214                  parameter       3221266390 
member          PARAM215                  parameter       3221266391 
member          PARAM216                  parameter       3221266392 
command         write_message                             185 (std,imp) 
method          write_meas_data                           16444 
variable        status_value              enumerated      16454 
collection      __DEV                     variable        963 (std) 
variable        cal_action_mode           enumerated      16406 
variable        cal_output_code           enumerated      16402 
variable        relay4_ovrfd_time         float           16569 
method          pre_send_configuration_method                 1007 (std) 
variable        eprom_ver                 ascii           16418 
variable        relay2_on_delay           unsigned        16523 
variable        relay2_xfr_setting        enumerated      16517 
variable        __analog_alarm_code       enumerated      962 (std) 
unit            __sensor_units_relation                   975 (std) 
variable        test_output_stub          enumerated      16426 
member          PERCENT_RANGE             collection      194 (std) 
variable        __sensor_value            float           956 (std) 
variable        relay3_on_delay           unsigned        16543 
variable        pulse_suppression_a       enumerated      16432 
variable        manufacturer_id           enumerated      153 (std,imp) 
variable        pulse_suppression_b       enumerated      16436 
refresh         relay3_refresh                            16588 
variable        display_note_a            ascii           16433 
variable        test_relay_value          enumerated      16429 
variable        date                      date            166 (std,imp) 
variable        output1_value             float           16471 
command         hl_read_output_data                       16630 
variable        relay4_set_point          float           16566 
member          blk_profile               record          3221290758 
command         hl_overfeed_reset                         16594 
menu            test_menu                                 16673 
command         hl_write_measure_data                     16627 
variable        write_protect_code        enumerated      2030 (std,imp) 
menu            cal_output1_menu                          16707 
variable        relay1_value              enumerated      16493 
variable        ph_orp_stub               enumerated      16455 
refresh         meas_refresh                              16585 
variable        relay4_off_delay_ctrl     unsigned        16571 
variable        filter_a                  integer         16431 
variable        cal_meas_2pt_value        float           16408 
variable        filter_b                  integer         16435 
variable        edit_note_a               ascii           16434 
variable        edit_note_b               ascii           16437 
variable        relay4_alarm_units        enumerated      16558 
variable        ph_buffer                 enumerated      16446 
variable        polling_address           unsigned        162 (std,mand,imp) 
member          blk_num_display_lists     record          3221290763 
variable        relay1_param              enumerated      16495 
variable        sensor_lower_limit        float           16392 
variable        input_upper_value         float           16386 
variable        relay4_high_db            float           16561 
method          cal_output1_20ma                          16640 
member          PARAM200                  parameter       3221266376 
member          PARAM201                  parameter       3221266377 
member          PARAM202                  parameter       3221266378 
variable        relay2_type               enumerated      16513 
member          PARAM203                  parameter       3221266379 
member          PARAM204                  parameter       3221266380 
variable        relay1_phase              enumerated      16507 
member          PARAM205                  parameter       3221266381 
member          ANALOG_VALUE              collection      193 (std) 
member          PARAM206                  parameter       3221266382 
member          PARAM207                  parameter       3221266383 
member          PARAM208                  parameter       3221266384 
member          PARAM209                  parameter       3221266385 
menu            cftemp_elem_a_menu                        16704 
unit            relay1_alarm_relation                     16577 
method          hold_outputs_method                       16647 
variable        sensor_value              float           16389 
variable        relay3_off_delay_ctrl     unsigned        16551 
variable        relay3_low_db             float           16542 
command         hl_read_measure_data                      16626 
variable        relay1_ovrfd_time         float           16509 
method          __univ_self_test                          953 (std) 
block           _MNG_HART_BLOCK                           2147548928 
menu            cfrelay3_data_menu                        16702 
command         read_additional_transmitter_status                 4046 (std,imp) 
variable        relay2_set_point          float           16526 
variable        operating_mode_code       enumerated      2035 (std,imp) 
menu            meas_sensor_menu                          16675 
variable        input_transfer_function   enumerated      16398 
command         hl_read_relay_data                        16606 
member          SENSOR_LOWER_TRIM                         6005 (std) 
variable        relay4_control_units      enumerated      16565 
method          cal_abort                                 16633 
method          reset_relay_ovfd                          16422 
variable        relay3_high_alarm         float           16539 
unit            __input_units_relation                    976 (std) 
collection      __pv                      variable        974 (std) 
variable        relay1_high_alarm         float           16499 
command         hl_write_relay_data                       16607 
variable        language                  enumerated      16412 
variable        relay2_control_db         float           16528 
record          DIGVAL_RECORD80                           2147549024 
variable        device_flags              bit-enumerated  160 (std,mand,imp) 
record          DIGVAL_RECORD81                           2147549025 
record          DIGVAL_RECORD82                           2147549026 
record          DIGVAL_RECORD83                           2147549027 
record          DIGVAL_RECORD84                           2147549028 
record          DIGVAL_RECORD85                           2147549029 
variable        __input_upper_value       float           968 (std) 
record          DIGVAL_RECORD86                           2147549030 
command         read_pv_current_and_percent_range                 176 (std,imp) 
record          DIGVAL_RECORD87                           2147549031 
command         hl_write_ao2_data                         16605 
record          DIGVAL_RECORD88                           2147549032 
record          DIGVAL_RECORD89                           2147549033 
variable        alarm_selection_code      enumerated      2027 (std,imp) 
method          write_sim_value                           16452 
record          DIGVAL_RECORD70                           2147549014 
record          DIGVAL_RECORD71                           2147549015 
record          DIGVAL_RECORD72                           2147549016 
variable        test_relay_mode           enumerated      16415 
record          DIGVAL_RECORD73                           2147549017 
member          PARAM20                   parameter       3221266195 
record          DIGVAL_RECORD74                           2147549018 
member          PARAM21                   parameter       3221266196 
record          DIGVAL_RECORD75                           2147549019 
item-array      transmitter_variables     collection      4109 (std) 
method          write_ao1_data                            16474 
member          PARAM22                   parameter       3221266197 
record          DIGVAL_RECORD76                           2147549020 
variable        units_code                enumerated      2025 (std,imp) 
member          PARAM23                   parameter       3221266198 
record          DIGVAL_RECORD77                           2147549021 
member          PARAM24                   parameter       3221266199 
record          DIGVAL_RECORD78                           2147549022 
command         hl_write_relay1_alarm_data                 16608 
member          PARAM25                   parameter       3221266200 
record          DIGVAL_RECORD79                           2147549023 
member          PARAM26                   parameter       3221266201 
member          PARAM27                   parameter       3221266202 
member          PARAM28                   parameter       3221266203 
member          PARAM29                   parameter       3221266204 
record          DIGVAL_RECORD60                           2147549004 
menu            cfoutput1_menu                            16693 
record          DIGVAL_RECORD61                           2147549005 
variable        relay1_on_delay_ctrl      unsigned        16510 
record          DIGVAL_RECORD62                           2147549006 
variable        relay4_type               enumerated      16553 
record          DIGVAL_RECORD63                           2147549007 
refresh         relay2_refresh                            16587 
member          PARAM10                   parameter       3221266185 
record          DIGVAL_RECORD64                           2147549008 
variable        output1_4ma_setting       enumerated      16479 
member          PARAM11                   parameter       3221266186 
record          DIGVAL_RECORD65                           2147549009 
member          PARAM12                   parameter       3221266187 
record          DIGVAL_RECORD66                           2147549010 
member          PARAM13                   parameter       3221266188 
record          DIGVAL_RECORD67                           2147549011 
variable        relay2_off_delay_ctrl     unsigned        16531 
member          PARAM14                   parameter       3221266189 
record          DIGVAL_RECORD68                           2147549012 
member          PARAM15                   parameter       3221266190 
record          DIGVAL_RECORD69                           2147549013 
member          PARAM16                   parameter       3221266191 
member          PARAM17                   parameter       3221266192 
menu            device_revisions_menu                     16711 
menu            config_menu                               16672 
member          PARAM18                   parameter       3221266193 
member          PARAM19                   parameter       3221266194 
member          UPPER_ENDPOINT_VALUE                      4086 (std) 
record          DIGVAL_RECORD50                           2147548994 
record          DIGVAL_RECORD51                           2147548995 
refresh         __x1                                      972 (std) 
record          DIGVAL_RECORD52                           2147548996 
refresh         __x2                                      973 (std) 
record          DIGVAL_RECORD53                           2147548997 
member          PARAM40                   parameter       3221266215 
record          DIGVAL_RECORD54                           2147548998 
command         read_unique_identifier_with_tag                 179 (std,imp) 
member          PARAM110                  parameter       3221266286 
member          PARAM41                   parameter       3221266217 
record          DIGVAL_RECORD55                           2147548999 
member          PARAM111                  parameter       3221266287 
member          PARAM42                   parameter       3221266218 
record          DIGVAL_RECORD56                           2147549000 
member          PARAM112                  parameter       3221266288 
member          PARAM43                   parameter       3221266219 
record          DIGVAL_RECORD57                           2147549001 
member          PARAM113                  parameter       3221266289 
member          PARAM44                   parameter       3221266220 
record          DIGVAL_RECORD58                           2147549002 
member          PARAM114                  parameter       3221266290 
member          PARAM45                   parameter       3221266221 
record          DIGVAL_RECORD59                           2147549003 
variable        test_output_mode          enumerated      16414 
member          PARAM115                  parameter       3221266291 
member          PARAM46                   parameter       3221266222 
member          PARAM116                  parameter       3221266292 
member          PARAM47                   parameter       3221266223 
variable        __input_units             enumerated      967 (std) 
member          PARAM117                  parameter       3221266293 
member          PARAM48                   parameter       3221266224 
variable        relay3_ovrfd_time         float           16549 
member          PARAM118                  parameter       3221266294 
member          PARAM49                   parameter       3221266225 
member          PARAM119                  parameter       3221266295 
variable        output1_4_ma              float           16475 
member          PARAM30                   parameter       3221266205 
member          PARAM120                  parameter       3221266296 
member          PARAM31                   parameter       3221266206 
member          PARAM121                  parameter       3221266297 
member          PARAM32                   parameter       3221266207 
member          PARAM122                  parameter       3221266298 
member          PARAM33                   parameter       3221266208 
variable        output1_xfr_cond          float           16477 
member          PARAM123                  parameter       3221266299 
member          PARAM34                   parameter       3221266209 
variable        test_led_mode             enumerated      16416 
member          PARAM124                  parameter       3221266300 
member          PARAM35                   parameter       3221266210 
member          PARAM125                  parameter       3221266301 
member          PARAM36                   parameter       3221266211 
member          PARAM126                  parameter       3221266302 
member          PARAM37                   parameter       3221266212 
member          PARAM127                  parameter       3221266303 
member          PARAM38                   parameter       3221266213 
command         hl_reset_defaults                         16601 
member          PARAM128                  parameter       3221266304 
member          PARAM39                   parameter       3221266214 
member          PARAM129                  parameter       3221266305 
member          UPPER_RANGE_VALUE         collection      204 (std) 
variable        temp_user_stub            enumerated      16461 
member          PARAM130                  parameter       3221266306 
member          PARAM131                  parameter       3221266307 
member          PARAM132                  parameter       3221266308 
menu            cfrelay4_data_menu                        16703 
member          PARAM133                  parameter       3221266309 
variable        uint8_var_blk_char        unsigned        2147548932 
member          PARAM134                  parameter       3221266310 
item-array      loop_warning_variables    variable        1004 (std) 
menu            cal_output2_menu                          16708 
member          PARAM135                  parameter       3221266311 
member          PARAM136                  parameter       3221266312 
variable        relay1_set_point          float           16506 
member          PARAM137                  parameter       3221266313 
member          PARAM138                  parameter       3221266314 
member          PARAM139                  parameter       3221266315 
member          _MNG_VALUE                record          3221290752 
variable        relay1_off_delay_ctrl     unsigned        16511 
member          PARAM140                  parameter       3221266316 
variable        defaults_reset            enumerated      16419 
member          PARAM141                  parameter       3221266317 
variable        __input_lower_value       float           969 (std) 
member          PARAM142                  parameter       3221266318 
unit            relay2_control_relation                   16582 
member          PARAM143                  parameter       3221266319 
member          PARAM144                  parameter       3221266320 
unit            relay2_alarm_relation                     16578 
method          reset_master                              16400 
member          PARAM145                  parameter       3221266321 
member          PARAM146                  parameter       3221266322 
member          PARAM147                  parameter       3221266323 
variable        relay4_low_db             float           16562 
member          PARAM148                  parameter       3221266324 
variable        int8_var_blk_char         integer         2147548931 
member          PARAM149                  parameter       3221266325 
variable        micro_motion_model_code   enumerated      2040 (std,imp) 
variable        output2_param             enumerated      16483 
record          DIGVAL_RECORD90                           2147549034 
record          DIGVAL_RECORD91                           2147549035 
record          DIGVAL_RECORD92                           2147549036 
record          DIGVAL_RECORD93                           2147549037 
record          DIGVAL_RECORD94                           2147549038 
record          DIGVAL_RECORD95                           2147549039 
record          DIGVAL_RECORD96                           2147549040 
record          DIGVAL_RECORD97                           2147549041 
command         read_pv_sensor_info                       182 (std,imp) 
variable        output1_20_ma             float           16476 
record          DIGVAL_RECORD98                           2147549042 
record          DIGVAL_RECORD99                           2147549043 
variable        output2_units             enumerated      16480 
command         read_pv                                   175 (std,imp) 
variable        __sensor_lower_limit      float           958 (std) 
method          cal_output2_20ma                          16642 
variable        cal_meas_1pt_value        float           16407 
variable        relay1_type               enumerated      16492 
variable        temp_type                 enumerated      16456 
command         read_final_assembly_number                 184 (std,imp) 
edit-display    test_relay1_menu                          16686 
menu            calibrate_menu                            16671 
variable        sensor_minimum_span       float           16393 
variable        unique_device_type_code   enumerated      2029 (std,imp) 
command         hl_write_relay2_alarm_data                 16610 
variable        relay1_high_db            float           16501 
variable        device_status             bit-enumerated  151 (std,mand,imp) 
variable        master_reset              enumerated      16399 
command         hl_read_relay1_alarm_data                 16609 
item-array      factory_protection_array  variable        1006 (std) 
variable        relay1_low_db             float           16502 
member          DIGITAL_VALUE             collection      191 (std) 
edit-display    check_status_menu                         16683 
command         hl_write_ph_data                          16628 
member          PARAM90                   parameter       3221266266 
member          PARAM100                  parameter       3221266276 
member          PARAM91                   parameter       3221266267 
member          PARAM101                  parameter       3221266277 
member          PARAM92                   parameter       3221266268 
member          PARAM102                  parameter       3221266278 
member          PARAM93                   parameter       3221266269 
variable        relay3_control_units      enumerated      16545 
variable        relay3_off_delay          unsigned        16544 
member          PARAM103                  parameter       3221266279 
member          PARAM94                   parameter       3221266270 
member          PARAM104                  parameter       3221266280 
member          PARAM95                   parameter       3221266271 
member          PARAM105                  parameter       3221266281 
member          PARAM96                   parameter       3221266272 
member          PARAM106                  parameter       3221266282 
member          PARAM97                   parameter       3221266273 
member          LOWER_RANGE_VALUE         collection      205 (std) 
member          PARAM107                  parameter       3221266283 
member          PARAM98                   parameter       3221266274 
member          PARAM108                  parameter       3221266284 
member          PARAM99                   parameter       3221266275 
member          PARAM109                  parameter       3221266285 
member          LOWER_SENSOR_LIMIT        collection      202 (std) 
member          PARAM190                  parameter       3221266366 
member          blk_class                 record          3221290754 
member          PARAM191                  parameter       3221266367 
member          PARAM192                  parameter       3221266368 
variable        input_percent_range       float           16397 
variable        sensor_damping_value      float           16394 
member          PARAM193                  parameter       3221266369 
member          PARAM194                  parameter       3221266370 
member          PARAM195                  parameter       3221266371 
member          PARAM196                  parameter       3221266372 
member          PARAM197                  parameter       3221266373 
member          PARAM198                  parameter       3221266374 
member          PARAM199                  parameter       3221266375 
method          test_relay2_off                           16662 
method          test_leds_off                             16652 
record          DIGVAL_RECORD40                           2147548984 
record          DIGVAL_RECORD41                           2147548985 
record          DIGVAL_RECORD42                           2147548986 
record          DIGVAL_RECORD43                           2147548987 
record          DIGVAL_RECORD44                           2147548988 
menu            fms_menu                                  2147548944 
record          DIGVAL_RECORD45                           2147548989 
record          DIGVAL_RECORD46                           2147548990 
record          DIGVAL_RECORD47                           2147548991 
record          DIGVAL_RECORD48                           2147548992 
record          DIGVAL_RECORD49                           2147548993 
variable        private_label_distributor enumerated      168 (std,imp) 
variable        rosemount_analytical_model_code enumerated      2038 (std,imp) 
command         hl_write_relay3_control_data                 16622 
menu            setup_menu                                16674 
variable        relay2_low_db             float           16522 
variable        relay2_alarm_units        enumerated      16518 
record          DIGVAL_RECORD30                           2147548974 
record          DIGVAL_RECORD31                           2147548975 
method          hold_outputs_abort                        16648 
variable        math_value                float           16467 
record          DIGVAL_RECORD32                           2147548976 
variable        relay3_control_db         float           16548 
record          DIGVAL_RECORD33                           2147548977 
member          PARAM60                   parameter       3221266236 
record          DIGVAL_RECORD34                           2147548978 
member          PARAM61                   parameter       3221266237 
record          DIGVAL_RECORD35                           2147548979 
member          PARAM62                   parameter       3221266238 
record          DIGVAL_RECORD36                           2147548980 
menu            cfsensor_menu                             16699 
member          PARAM63                   parameter       3221266239 
record          DIGVAL_RECORD37                           2147548981 
member          PARAM64                   parameter       3221266240 
record          DIGVAL_RECORD38                           2147548982 
member          PARAM65                   parameter       3221266241 
record          DIGVAL_RECORD39                           2147548983 
member          PARAM66                   parameter       3221266242 
variable        relay3_set_point          float           16546 
variable        output1_filter            unsigned        16478 
member          PARAM67                   parameter       3221266243 
command         hl_write_relay4_control_data                 16623 
member          PARAM68                   parameter       3221266244 
member          PARAM69                   parameter       3221266245 
record          DIGVAL_RECORD20                           2147548964 
method          read_relay_data                           16669 
variable        relay1_control_db         float           16508 
record          DIGVAL_RECORD21                           2147548965 
variable        relay_stub                enumerated      16490 
variable        temp_value_a              float           16459 
record          DIGVAL_RECORD22                           2147548966 
command         write_tag_descriptor_date                 186 (std,imp) 
record          DIGVAL_RECORD23                           2147548967 
member          PARAM50                   parameter       3221266226 
record          DIGVAL_RECORD24                           2147548968 
variable        test_output_value         float           16427 
member          PARAM51                   parameter       3221266227 
record          DIGVAL_RECORD25                           2147548969 
menu            cfrelay4_menu                             16698 
member          PARAM52                   parameter       3221266228 
record          DIGVAL_RECORD26                           2147548970 
member          PARAM53                   parameter       3221266229 
record          DIGVAL_RECORD27                           2147548971 
member          PARAM54                   parameter       3221266230 
record          DIGVAL_RECORD28                           2147548972 
member          PARAM55                   parameter       3221266231 
record          DIGVAL_RECORD29                           2147548973 
member          PARAM56                   parameter       3221266232 
variable        output2_filter            unsigned        16488 
member          PARAM57                   parameter       3221266233 
member          PARAM58                   parameter       3221266234 
record          hart_blk_char                             2147548929 
member          PARAM59                   parameter       3221266235 
variable        xmtr_specific_status_0    bit-enumerated  4021 (std,imp) 
variable        temp_units_a              enumerated      16458 
variable        xmtr_specific_status_1    bit-enumerated  4022 (std,imp) 
variable        xmtr_specific_status_2    bit-enumerated  4023 (std,imp) 
method          test_relay1_off                           16661 
collection      pv                        variable        16384 
record          DIGVAL_RECORD10                           2147548954 
variable        xmtr_specific_status_3    bit-enumerated  4024 (std,imp) 
record          DIGVAL_RECORD11                           2147548955 
record          DIGVAL_RECORD12                           2147548956 
record          DIGVAL_RECORD13                           2147548957 
member          PARAM80                   parameter       3221266256 
record          DIGVAL_RECORD14                           2147548958 
member          PARAM150                  parameter       3221266326 
member          PARAM81                   parameter       3221266257 
record          DIGVAL_RECORD15                           2147548959 
member          PARAM151                  parameter       3221266327 
member          PARAM82                   parameter       3221266258 
record          DIGVAL_RECORD16                           2147548960 
method          write_ao2_data                            16484 
member          PARAM152                  parameter       3221266328 
member          PARAM83                   parameter       3221266259 
record          DIGVAL_RECORD17                           2147548961 
member          PARAM153                  parameter       3221266329 
member          PARAM84                   parameter       3221266260 
record          DIGVAL_RECORD18                           2147548962 
member          PARAM154                  parameter       3221266330 
member          PARAM85                   parameter       3221266261 
record          DIGVAL_RECORD19                           2147548963 
member          PARAM155                  parameter       3221266331 
member          PARAM86                   parameter       3221266262 
variable        relay4_value              enumerated      16554 
member          PARAM156                  parameter       3221266332 
member          PARAM87                   parameter       3221266263 
command         hl_write_relay2_control_data                 16621 
variable        output2_xfr_cond          float           16487 
member          PARAM157                  parameter       3221266333 
member          PARAM88                   parameter       3221266264 
member          PARAM158                  parameter       3221266334 
member          PARAM89                   parameter       3221266265 
member          PARAM159                  parameter       3221266335 
menu            cfoutput2_menu                            16694 
variable        cal_output_ma             enumerated      16401 
method          write_relay_data                          16496 
method          test_relay3_on                            16659 
variable        relay3_type               enumerated      16533 
member          PARAM70                   parameter       3221266246 
member          PARAM160                  parameter       3221266336 
member          PARAM71                   parameter       3221266247 
member          PARAM161                  parameter       3221266337 
member          PARAM72                   parameter       3221266248 
edit-display    test_relay3_menu                          16688 
member          PARAM162                  parameter       3221266338 
member          PARAM73                   parameter       3221266249 
member          PARAM163                  parameter       3221266339 
member          PARAM74                   parameter       3221266250 
variable        cal_user_2pt_value        float           16410 
member          PARAM164                  parameter       3221266340 
member          PARAM75                   parameter       3221266251 
member          PARAM165                  parameter       3221266341 
member          PARAM76                   parameter       3221266252 
member          PARAM166                  parameter       3221266342 
member          PARAM77                   parameter       3221266253 
edit-display    sim_input_menu                            16691 
member          PARAM167                  parameter       3221266343 
member          PARAM78                   parameter       3221266254 
command         hl_read_relay2_alarm_data                 16611 
member          PARAM168                  parameter       3221266344 
member          PARAM79                   parameter       3221266255 
member          PARAM169                  parameter       3221266345 
variable        relay2_ovrfd_time         float           16529 
variable        relay3_low_alarm          float           16540 
edit-display    alarm_leds_menu                           16690 
command         hl_read_relay3_alarm_data                 16613 
member          PARAM170                  parameter       3221266346 
member          PARAM171                  parameter       3221266347 
member          PARAM172                  parameter       3221266348 
member          PARAM173                  parameter       3221266349 
member          PARAM174                  parameter       3221266350 
member          PARAM175                  parameter       3221266351 
member          PARAM176                  parameter       3221266352 
variable        relay4_param              enumerated      16556 
member          PARAM177                  parameter       3221266353 
member          PARAM178                  parameter       3221266354 
member          PARAM179                  parameter       3221266355 
method          set_status                                16665 
menu            device_info_menu                          16710 
method          cal_1pt_sample_orp                        16638 
refresh         relay1_refresh                            16586 
variable        output2_4_ma              float           16485 
member          PARAM180                  parameter       3221266356 
member          PARAM181                  parameter       3221266357 
member          PARAM182                  parameter       3221266358 
edit-display    __key_pad_rerange                         954 (std) 
member          PARAM183                  parameter       3221266359 
member          PARAM184                  parameter       3221266360 
member          TRANSFER_FUNCTION         collection      197 (std) 
member          PARAM185                  parameter       3221266361 
member          PARAM186                  parameter       3221266362 
variable        relay4_phase              enumerated      16567 
member          PARAM187                  parameter       3221266363 
variable        relay2_value              enumerated      16514 
member          PARAM188                  parameter       3221266364 
member          blk_parent_class          record          3221290755 
member          _MNG_STATUS               record          3221290753 
member          DIGITAL_UNITS             collection      190 (std) 
method          read_ao2_data                             16668 
member          PARAM189                  parameter       3221266365 
variable        comm_status               bit-enumerated  152 (std,mand,imp) 
variable        flag_assignment           enumerated      2034 (std,imp) 
method          cal_2pt_sample                            16636 
menu            meas_relay1_menu                          16679 
member          SENSOR_UNITS              collection      200 (std) 
method          test_relay4_on                            16660 
record          DIGVAL_RECORD1                            2147548945 
record          DIGVAL_RECORD2                            2147548946 
command         read_pv_output_info                       183 (std,imp) 
record          DIGVAL_RECORD3                            2147548947 
record          DIGVAL_RECORD4                            2147548948 
record          DIGVAL_RECORD5                            2147548949 
unit            relay1_control_relation                   16581 
variable        relay2_high_alarm         float           16519 
variable        sim_value                 float           16451 
record          DIGVAL_RECORD6                            2147548950 
record          DIGVAL_RECORD7                            2147548951 
record          DIGVAL_RECORD8                            2147548952 
command         hl_get_eprom_version                      16599 
record          DIGVAL_RECORD9                            2147548953 
variable        relay2_param              enumerated      16516 
refresh         __pv_unit_refresh                         977 (std) 
variable        relay4_on_delay_ctrl      unsigned        16570 
variable        burst_mode_control_code   enumerated      2032 (std,imp) 
variable        cal_state                 enumerated      16405 
variable        hart_functions            bit-enumerated  1005 (std) 
unit            relay3_control_relation                   16583 
variable        relay2_off_delay          unsigned        16524 
method          read_measure_data                         16646 
