^C:\USERS\PARTHASARTHI.BK\DESKTOP\SOURCES\BUILD\FDI EDD ENGINE\CODE\SRC\EDD_ENGINE_WINDOWS\STDAFX.CPP
C:\USERS\PARTHASARTHI.BK\DESKTOP\SOURCES\BUILD\FDI EDD ENGINE\CODE\SRC\EDD_ENGINE_WINDOWS\DEBUG\EDD_ENGINE_WINDOWS.PCH
C:\USERS\PARTHASARTHI.BK\DESKTOP\SOURCES\BUILD\FDI EDD ENGINE\CODE\SRC\EDD_ENGINE_WINDOWS\DEBUG\EDD_ENGINE_WINDOWS.PDB
C:\USERS\PARTHASARTHI.BK\DESKTOP\SOURCES\BUILD\FDI EDD ENGINE\CODE\SRC\EDD_ENGINE_WINDOWS\DEBUG\EDD_ENGINE_WINDOWS.IDB
C:\USERS\PARTHASARTHI.BK\DESKTOP\SOURCES\BUILD\FDI EDD ENGINE\CODE\SRC\EDD_ENGINE_WINDOWS\DEBUG\STDAFX.OBJ
^C:\USERS\PARTHASARTHI.BK\DESKTOP\SOURCES\BUILD\FDI EDD ENGINE\CODE\SRC\EDD_ENGINE_WINDOWS\APIS.CPP|C:\USERS\PARTHASARTHI.BK\DESKTOP\SOURCES\BUILD\FDI EDD ENGINE\CODE\SRC\EDD_ENGINE_WINDOWS\EDD_ENGINE_WINDOWS.CPP|C:\USERS\PARTHASARTHI.BK\DESKTOP\SOURCES\BUILD\FDI EDD ENGINE\CODE\SRC\EDD_ENGINE_WINDOWS\EVENTCLASS.CPP|C:\USERS\PARTHASARTHI.BK\DESKTOP\SOURCES\BUILD\FDI EDD ENGINE\CODE\SRC\EDD_ENGINE_WINDOWS\FILEFIND.CPP|C:\USERS\PARTHASARTHI.BK\DESKTOP\SOURCES\BUILD\FDI EDD ENGINE\CODE\SRC\EDD_ENGINE_WINDOWS\SEMAPHORE.CPP
C:\USERS\PARTHASARTHI.BK\DESKTOP\SOURCES\BUILD\FDI EDD ENGINE\CODE\SRC\EDD_ENGINE_WINDOWS\DEBUG\EDD_ENGINE_WINDOWS.PDB
C:\USERS\PARTHASARTHI.BK\DESKTOP\SOURCES\BUILD\FDI EDD ENGINE\CODE\SRC\EDD_ENGINE_WINDOWS\DEBUG\EDD_ENGINE_WINDOWS.IDB
C:\USERS\PARTHASARTHI.BK\DESKTOP\SOURCES\BUILD\FDI EDD ENGINE\CODE\SRC\EDD_ENGINE_WINDOWS\DEBUG\EDD_ENGINE_WINDOWS.OBJ
C:\USERS\PARTHASARTHI.BK\DESKTOP\SOURCES\BUILD\FDI EDD ENGINE\CODE\SRC\EDD_ENGINE_WINDOWS\DEBUG\EVENTCLASS.OBJ
C:\USERS\PARTHASARTHI.BK\DESKTOP\SOURCES\BUILD\FDI EDD ENGINE\CODE\SRC\EDD_ENGINE_WINDOWS\DEBUG\FILEFIND.OBJ
C:\USERS\PARTHASARTHI.BK\DESKTOP\SOURCES\BUILD\FDI EDD ENGINE\CODE\SRC\EDD_ENGINE_WINDOWS\DEBUG\SEMAPHORE.OBJ
C:\USERS\PARTHASARTHI.BK\DESKTOP\SOURCES\BUILD\FDI EDD ENGINE\CODE\SRC\EDD_ENGINE_WINDOWS\DEBUG\APIS.OBJ
^C:\USERS\PARTHASARTHI.BK\DESKTOP\SOURCES\BUILD\FDI EDD ENGINE\CODE\SRC\EDD_ENGINE_WINDOWS\EDD_ENGINE_WINDOWS.CPP
C:\USERS\PARTHASARTHI.BK\DESKTOP\SOURCES\BUILD\FDI EDD ENGINE\CODE\SRC\EDD_ENGINE_WINDOWS\DEBUG\EDD_ENGINE_WINDOWS.PDB
^C:\USERS\PARTHASARTHI.BK\DESKTOP\SOURCES\BUILD\FDI EDD ENGINE\CODE\SRC\EDD_ENGINE_WINDOWS\EVENTCLASS.CPP
C:\USERS\PARTHASARTHI.BK\DESKTOP\SOURCES\BUILD\FDI EDD ENGINE\CODE\SRC\EDD_ENGINE_WINDOWS\DEBUG\EDD_ENGINE_WINDOWS.PDB
^C:\USERS\PARTHASARTHI.BK\DESKTOP\SOURCES\BUILD\FDI EDD ENGINE\CODE\SRC\EDD_ENGINE_WINDOWS\FILEFIND.CPP
C:\USERS\PARTHASARTHI.BK\DESKTOP\SOURCES\BUILD\FDI EDD ENGINE\CODE\SRC\EDD_ENGINE_WINDOWS\DEBUG\EDD_ENGINE_WINDOWS.PDB
^C:\USERS\PARTHASARTHI.BK\DESKTOP\SOURCES\BUILD\FDI EDD ENGINE\CODE\SRC\EDD_ENGINE_WINDOWS\SEMAPHORE.CPP
C:\USERS\PARTHASARTHI.BK\DESKTOP\SOURCES\BUILD\FDI EDD ENGINE\CODE\SRC\EDD_ENGINE_WINDOWS\DEBUG\EDD_ENGINE_WINDOWS.PDB
^C:\USERS\PARTHASARTHI.BK\DESKTOP\SOURCES\BUILD\FDI EDD ENGINE\CODE\SRC\EDD_ENGINE_WINDOWS\APIS.CPP
C:\USERS\PARTHASARTHI.BK\DESKTOP\SOURCES\BUILD\FDI EDD ENGINE\CODE\SRC\EDD_ENGINE_WINDOWS\DEBUG\EDD_ENGINE_WINDOWS.PDB
